[gd_resource type="SpatialMaterial" load_steps=2 format=2]

[ext_resource path="res://Assets/Maya Workfiles/Knight_Model/sourceimages/1x/TempMouth_Diff.png" type="Texture" id=1]

[resource]
flags_transparent = true
flags_unshaded = true
flags_no_depth_test = true
albedo_texture = ExtResource( 1 )
