[gd_scene load_steps=3 format=2]

[ext_resource path="res://Battle/Moves/Variants/AttackMove/AttackMove.tscn" type="PackedScene" id=1]
[ext_resource path="res://Battle/Moves/Variants/AttackMove/Variants/CheapShot/CheapShot.gd" type="Script" id=2]

[node name="CheapShot" instance=ExtResource( 1 )]
script = ExtResource( 2 )
display_name = "Cheap Shot"
description = "Deals 5 damage to a single combatant."
move_animation = "CheapShot"
damage = 5
accuracy = 100
