[gd_scene load_steps=4 format=2]

[ext_resource path="res://Battle/StatusEffects/StatusEffect.tscn" type="PackedScene" id=1]
[ext_resource path="res://Battle/StatusEffects/Variants/Bleed/Bleed.gd" type="Script" id=2]
[ext_resource path="res://Battle/StatusEffects/Variants/Bleed/statusBleed.png" type="Texture" id=3]

[node name="Bleed" instance=ExtResource( 1 )]
script = ExtResource( 2 )
display_name = "Bleed"
status_icon = ExtResource( 3 )
status_effect_effect = "bleed"
