[gd_scene load_steps=3 format=2]

[ext_resource path="res://Battle/Moves/Variants/BuffDebuffMove/BuffDebuffMove.tscn" type="PackedScene" id=1]
[ext_resource path="res://Battle/Moves/Variants/BuffDebuffMove/Variants/PowerTransfer/PowerTransfer.gd" type="Script" id=2]

[node name="PowerTransfer" instance=ExtResource( 1 )]
script = ExtResource( 2 )
display_name = "Power Transfer"
description = "Take 2 defense from yourself and boost another character's damage by 2 points for a single turn."
ap_cost = 5
move_animation = "CastBlock"
move_effect = ""
on_hit_animation = ""
on_hit_effect = ""
buff_amount = 2
buff_duration = 1
debuff_type = 1
debuff_amount = -2
debuff_duration = 1
