[gd_scene load_steps=8 format=2]

[sub_resource type="SpatialMaterial" id=1]
flags_unshaded = true
vertex_color_use_as_albedo = true
params_blend_mode = 1
params_billboard_mode = 3
particles_anim_h_frames = 1
particles_anim_v_frames = 1
particles_anim_loop = false

[sub_resource type="Gradient" id=2]
colors = PoolColorArray( 0.241425, 0.375837, 0.429199, 1, 0.0631313, 0.134974, 0.273926, 1 )

[sub_resource type="GradientTexture" id=3]
gradient = SubResource( 2 )

[sub_resource type="Curve" id=4]
_data = [ Vector2( 0, 0.0363636 ), 0.0, 0.0, 0, 0, Vector2( 0.512658, 0.845455 ), 0.0, 0.0, 0, 0, Vector2( 1, 0.245455 ), 0.0, 0.0, 0, 0 ]

[sub_resource type="CurveTexture" id=5]
curve = SubResource( 4 )

[sub_resource type="ParticlesMaterial" id=6]
emission_shape = 2
emission_box_extents = Vector3( 50, 50, 50 )
direction = Vector3( 0, -1, 0 )
spread = 0.0
gravity = Vector3( 0, 0, 1 )
angular_velocity = 30.0
angular_velocity_random = 1.0
linear_accel = 4.0
angle = 360.0
angle_random = 1.0
scale = 0.18
scale_random = 0.05
scale_curve = SubResource( 5 )
color_ramp = SubResource( 3 )

[sub_resource type="SphereMesh" id=7]

[node name="Rain" type="Particles"]
transform = Transform( 0.1, 0, 0, 0, -4.37114e-09, -0.1, 0, 0.1, -4.37114e-09, -0.080224, 0, 0.0424042 )
material_override = SubResource( 1 )
amount = 350
lifetime = 2.0
speed_scale = 8.0
randomness = 0.5
process_material = SubResource( 6 )
draw_pass_1 = SubResource( 7 )
__meta__ = {
"_editor_description_": ""
}
