[gd_scene load_steps=10 format=2]

[sub_resource type="SpatialMaterial" id=1]
flags_unshaded = true
vertex_color_use_as_albedo = true
params_blend_mode = 1
params_billboard_mode = 3
particles_anim_h_frames = 1
particles_anim_v_frames = 1
particles_anim_loop = false

[sub_resource type="Gradient" id=2]
colors = PoolColorArray( 0, 0.583496, 0.0362796, 1, 0.00231934, 0.015625, 0, 1 )

[sub_resource type="GradientTexture" id=3]
gradient = SubResource( 2 )

[sub_resource type="Curve" id=4]
max_value = 5.0
_data = [ Vector2( 0, 3.54545 ), 0.0, 0.0, 0, 0, Vector2( 1, 0 ), -7.25, 0.0, 0, 0 ]

[sub_resource type="CurveTexture" id=5]
curve = SubResource( 4 )

[sub_resource type="Curve" id=6]
_data = [ Vector2( 0, 0.0363636 ), 0.0, 0.0, 0, 0, Vector2( 0.512658, 0.845455 ), 0.0, 0.0, 0, 0, Vector2( 1, 0.245455 ), 0.0, 0.0, 0, 0 ]

[sub_resource type="CurveTexture" id=7]
curve = SubResource( 6 )

[sub_resource type="ParticlesMaterial" id=8]
emission_shape = 1
emission_sphere_radius = 4.0
direction = Vector3( 0, 0, -1 )
spread = 0.0
gravity = Vector3( 0, 0, 0.4 )
initial_velocity = 0.01
linear_accel = 1.0
linear_accel_curve = SubResource( 5 )
radial_accel = 0.01
tangential_accel = 0.2
angle = 360.0
angle_random = 1.0
scale = 0.05
scale_random = 0.05
scale_curve = SubResource( 7 )
color_ramp = SubResource( 3 )

[sub_resource type="SphereMesh" id=9]

[node name="TurnParticles" type="Particles"]
transform = Transform( 0.13, 0, 0, 0, -5.68248e-09, -0.1, 0, 0.13, -4.37114e-09, 0, 0, 0 )
material_override = SubResource( 1 )
amount = 100
lifetime = 3.0
speed_scale = 0.3
process_material = SubResource( 8 )
draw_pass_1 = SubResource( 9 )
__meta__ = {
"_editor_description_": ""
}
