[gd_scene load_steps=3 format=2]

[ext_resource path="res://Assets/CharacterModels/Variants/TheStatisticianModel/StatisBottle.dae" type="PackedScene" id=1]
[ext_resource path="res://Assets/CharacterModels/Variants/TheStatisticianModel/Shaders/TheStatisticianBottleMat.tres" type="Material" id=2]

[node name="StatisBottle" instance=ExtResource( 1 )]

[node name="PotionBottle" parent="." index="0"]
material/0 = ExtResource( 2 )
