[gd_scene load_steps=3 format=2]

[ext_resource path="res://Battle/Moves/Variants/AttackAndApplyStatusEffectSelfMove/Variants/BladeStorm/BladeStorm.gd" type="Script" id=1]
[ext_resource path="res://Battle/Moves/Variants/AttackAndApplyStatusEffectSelfMove/AttackAndApplyStatusEffectSelfMove.tscn" type="PackedScene" id=2]

[node name="BladeStorm" instance=ExtResource( 2 )]
script = ExtResource( 1 )
display_name = "Blade Storm"
description = "Deal 5 damage, but stun yourself for 1 turn."
ap_cost = 4
move_effect = "CastFire"
on_hit_effect = "ApplyDamageRobot"
damage = 5
accuracy = 100
duration = 1
