[gd_scene load_steps=3 format=2]

[ext_resource path="res://Assets/CharacterModels/Variants/TimeThiefModel/TimeThiefWatch.dae" type="PackedScene" id=1]
[ext_resource path="res://Assets/CharacterModels/Variants/TimeThiefModel/Shaders/TimeThiefWatchMat.tres" type="Material" id=2]

[node name="TimeThiefWatch" instance=ExtResource( 1 )]

[node name="MainWatch" parent="TimeThiefWatch" index="0"]
material/0 = ExtResource( 2 )

[node name="WatchLid" parent="TimeThiefWatch" index="1"]
material/0 = ExtResource( 2 )
