[gd_scene load_steps=6 format=2]

[ext_resource path="res://Battle/Encounters/Encounter.tscn" type="PackedScene" id=1]
[ext_resource path="res://Battle/Encounters/Variants/TheLiarEncounter/TheLiarEncounter.gd" type="Script" id=2]
[ext_resource path="res://Battle/Parties/Variants/DayfarersParty/DayfarersParty.tscn" type="PackedScene" id=3]
[ext_resource path="res://Battle/Arenas/Arena/TheLiarArena/LiarArena.tscn" type="PackedScene" id=4]
[ext_resource path="res://Battle/Parties/Variants/TheLiarParty/TheLiarParty.tscn" type="PackedScene" id=5]

[node name="TheLiarEncounter" instance=ExtResource( 1 )]
script = ExtResource( 2 )
encounter_name = "liar"

[node name="DayfarersParty" parent="PlayerParty" index="0" instance=ExtResource( 3 )]

[node name="TheLiarParty" parent="EnemyParty" index="0" instance=ExtResource( 5 )]

[node name="Arena" parent="Arena" index="0" instance=ExtResource( 4 )]
