[gd_scene load_steps=5 format=2]

[ext_resource path="res://UI/Assets/Themes/MenuTheme.tres" type="Theme" id=1]
[ext_resource path="res://Menus/LevelSelectMenu/Components/Buttons/Variants/StartBattleButton/StartBattleButton.gd" type="Script" id=2]
[ext_resource path="res://Assets/Audio/Scripts/SoundEffect.tscn" type="PackedScene" id=3]
[ext_resource path="res://Assets/Audio/Sounds/WinterAudioUpdate_Julie/SFX/UI/Tick.wav" type="AudioStream" id=4]

[node name="StartBattleButton" type="Button"]
margin_right = 300.0
margin_bottom = 300.0
theme = ExtResource( 1 )
text = "Level"
script = ExtResource( 2 )
__meta__ = {
"_edit_use_anchors_": false
}

[node name="Sound Effect" parent="." instance=ExtResource( 3 )]
path = ExtResource( 4 )
[connection signal="button_up" from="." to="." method="_on_button_up"]
