[gd_scene load_steps=3 format=2]

[ext_resource path="res://Battle/Combatants/Combatant.tscn" type="PackedScene" id=1]
[ext_resource path="res://Battle/Combatants/Variants/PlayerCombatant/PlayerCombatant.gd" type="Script" id=2]

[node name="PlayerCombatant" instance=ExtResource( 1 )]
script = ExtResource( 2 )
