[gd_scene load_steps=7 format=2]

[ext_resource path="res://Menus/LevelSelectMenu/Components/Buttons/Variants/ReplayVideoButton/Assets/replayVideoNorm.png" type="Texture" id=1]
[ext_resource path="res://Menus/LevelSelectMenu/Components/Buttons/Variants/ReplayVideoButton/Assets/replayVideoHover.png" type="Texture" id=2]
[ext_resource path="res://Menus/LevelSelectMenu/Components/Buttons/Variants/ReplayVideoButton/Assets/replayVideoClick.png" type="Texture" id=3]

[sub_resource type="StyleBoxTexture" id=1]
texture = ExtResource( 2 )
region_rect = Rect2( 0, 0, 459, 366 )

[sub_resource type="StyleBoxTexture" id=2]
texture = ExtResource( 3 )
region_rect = Rect2( 0, 0, 464, 324 )

[sub_resource type="StyleBoxTexture" id=3]
texture = ExtResource( 1 )
region_rect = Rect2( 0, 0, 460, 284 )

[node name="PlayAnimaticButton" type="Button"]
margin_left = 3.51617
margin_top = 578.41
margin_right = 463.516
margin_bottom = 858.41
rect_min_size = Vector2( 460, 280 )
rect_scale = Vector2( 0.5, 0.5 )
custom_styles/hover = SubResource( 1 )
custom_styles/pressed = SubResource( 2 )
custom_styles/normal = SubResource( 3 )
__meta__ = {
"_edit_use_anchors_": false
}
