[gd_scene load_steps=8 format=2]

[ext_resource path="res://Menus/LevelSelectMenu/Components/Buttons/Variants/ReplayVideoButton/Assets/replayVideoNorm.png" type="Texture" id=1]
[ext_resource path="res://Menus/LevelSelectMenu/Components/Buttons/Variants/ReplayVideoButton/Assets/replayVideoClick.png" type="Texture" id=2]
[ext_resource path="res://Menus/LevelSelectMenu/Components/Buttons/Variants/ReplayVideoButton/Assets/replayVideoHover.png" type="Texture" id=3]
[ext_resource path="res://Menus/LevelSelectMenu/Components/Buttons/LevelSelectMenuButton.tscn" type="PackedScene" id=4]

[sub_resource type="StyleBoxTexture" id=1]
texture = ExtResource( 3 )
region_rect = Rect2( 0, 0, 459, 366 )

[sub_resource type="StyleBoxTexture" id=2]
texture = ExtResource( 2 )
region_rect = Rect2( 0, 0, 464, 324 )

[sub_resource type="StyleBoxTexture" id=3]
texture = ExtResource( 1 )
region_rect = Rect2( 0, 0, 460, 284 )

[node name="ReplayVideoButton" instance=ExtResource( 4 )]
margin_right = 230.0
margin_bottom = 139.0
rect_min_size = Vector2( 230, 140 )
custom_styles/hover = SubResource( 1 )
custom_styles/pressed = SubResource( 2 )
custom_styles/normal = SubResource( 3 )
text = ""
