[gd_scene load_steps=9 format=2]

[ext_resource path="res://Menus/LevelSelectMenu/Components/Buttons/Variants/StartBattleButton/Variants/TheLiarStartBattleButton/TheLiarStartBattleButton.gd" type="Script" id=1]
[ext_resource path="res://Menus/LevelSelectMenu/Components/Buttons/Variants/StartBattleButton/Variants/TheLiarStartBattleButton/Assets/liarHover2.png" type="Texture" id=2]
[ext_resource path="res://Menus/LevelSelectMenu/Components/Buttons/Variants/StartBattleButton/Variants/TheLiarStartBattleButton/Assets/liarNorm.png" type="Texture" id=3]
[ext_resource path="res://Menus/LevelSelectMenu/Components/Buttons/Variants/StartBattleButton/StartBattleButton.tscn" type="PackedScene" id=4]
[ext_resource path="res://Battle/Encounters/Variants/TheLiarEncounter/TheLiarEncounter.tscn" type="PackedScene" id=5]

[sub_resource type="StyleBoxTexture" id=1]
texture = ExtResource( 2 )
region_rect = Rect2( 0, 0, 304, 398 )

[sub_resource type="StyleBoxTexture" id=2]
texture = ExtResource( 2 )
region_rect = Rect2( 0, 0, 304, 398 )

[sub_resource type="StyleBoxTexture" id=3]
texture = ExtResource( 3 )
region_rect = Rect2( 0, 0, 304, 398 )

[node name="TheLiarStartBattleButton" instance=ExtResource( 4 )]
rect_min_size = Vector2( 320, 365 )
rect_scale = Vector2( 0.75, 0.75 )
theme = null
custom_styles/hover = SubResource( 1 )
custom_styles/pressed = SubResource( 2 )
custom_styles/normal = SubResource( 3 )
text = ""
script = ExtResource( 1 )
encounter_scene = ExtResource( 5 )
