[gd_scene load_steps=3 format=2]

[ext_resource path="res://Assets/Environment/RawMeshes/AlleyBuildingBlock.dae" type="PackedScene" id=1]
[ext_resource path="res://Assets/Shaders/ConcreteWallMat.tres" type="Material" id=2]

[node name="Alley_Building_Block" instance=ExtResource( 1 )]

[node name="Alley_Building_Block" parent="." index="0"]
material/0 = ExtResource( 2 )
