[gd_scene load_steps=3 format=2]

[ext_resource path="res://Assets/Environment/RawMeshes/AlleyCrateNoWonky.dae" type="PackedScene" id=1]
[ext_resource path="res://Assets/Shaders/CrateMat.tres" type="Material" id=2]

[node name="Alley_Crate_NoWonky" instance=ExtResource( 1 )]

[node name="Crate" parent="." index="0"]
material/0 = ExtResource( 2 )
