[gd_scene load_steps=3 format=2]

[ext_resource path="res://Assets/Environment/RawMeshes/AmphPropSkullPodium.dae" type="PackedScene" id=1]
[ext_resource path="res://Assets/Shaders/PropSkullMat.tres" type="Material" id=2]

[node name="AmphPropSkullPodium" instance=ExtResource( 1 )]

[node name="SkullPodium" parent="." index="0"]
material/0 = ExtResource( 2 )
