[gd_scene load_steps=4 format=2]

[ext_resource path="res://Assets/Shaders/ConcreteMat.tres" type="Material" id=1]
[ext_resource path="res://Assets/Environment/RawMeshes/lambert2.material" type="Material" id=2]

[sub_resource type="ArrayMesh" id=1]
resource_name = "Mesh"
surfaces/0 = {
"aabb": AABB( -25.6601, -30.7922, -192.822, 53.8266, 58.1203, 199.684 ),
"array_data": PoolByteArray( 242, 71, 205, 193, 247, 111, 201, 65, 17, 83, 58, 192, 130, 5, 8, 0, 5, 126, 3, 127, 80, 51, 174, 59, 112, 171, 196, 193, 224, 45, 68, 65, 152, 222, 234, 191, 247, 0, 126, 0, 0, 127, 0, 127, 160, 49, 183, 59, 112, 171, 196, 193, 247, 111, 201, 65, 152, 222, 234, 191, 247, 9, 126, 0, 45, 118, 251, 127, 80, 51, 183, 59, 112, 171, 196, 193, 247, 111, 201, 65, 152, 222, 234, 191, 247, 9, 126, 0, 126, 0, 9, 127, 137, 56, 192, 34, 253, 164, 58, 193, 235, 11, 210, 65, 17, 83, 58, 192, 9, 126, 7, 0, 120, 250, 216, 127, 245, 56, 128, 32, 112, 171, 196, 193, 235, 11, 210, 65, 17, 83, 58, 192, 247, 126, 4, 0, 126, 9, 0, 127, 137, 56, 128, 32, 112, 171, 196, 193, 235, 11, 210, 65, 180, 25, 239, 193, 246, 126, 0, 0, 126, 10, 0, 127, 116, 51, 204, 58, 242, 71, 205, 193, 142, 111, 201, 65, 180, 25, 239, 193, 130, 9, 0, 0, 9, 126, 0, 127, 80, 51, 204, 58, 173, 250, 178, 65, 46, 57, 98, 65, 150, 236, 171, 193, 240, 82, 95, 0, 0, 96, 173, 127, 223, 58, 242, 59, 131, 186, 191, 65, 199, 142, 172, 64, 66, 166, 105, 193, 118, 40, 17, 0, 236, 95, 175, 127, 150, 58, 0, 60, 131, 186, 191, 65, 16, 59, 126, 65, 64, 42, 164, 193, 111, 52, 31, 0, 230, 101, 185, 129, 238, 58, 0, 60, 173, 250, 178, 65, 107, 14, 108, 65, 234, 68, 180, 193, 186, 103, 21, 0, 104, 71, 1, 127, 239, 58, 91, 59, 131, 186, 191, 65, 127, 205, 155, 65, 164, 40, 46, 194, 122, 26, 21, 0, 32, 141, 216, 127, 252, 58, 172, 58, 173, 250, 178, 65, 210, 12, 163, 65, 215, 93, 52, 194, 1, 119, 43, 0, 126, 255, 2, 127, 239, 58, 159, 58, 228, 84, 225, 65, 247, 111, 201, 65, 184, 190, 63, 195, 126, 4, 248, 0, 4, 130, 3, 127, 204, 51, 45, 51, 98, 184, 216, 65, 224, 45, 68, 65, 78, 210, 64, 195, 10, 0, 130, 0, 0, 129, 0, 127, 190, 52, 9, 51, 98, 184, 216, 65, 247, 111, 201, 65, 78, 210, 64, 195, 9, 9, 130, 0, 45, 138, 251, 127, 204, 51, 9, 51, 253, 164, 58, 193, 235, 11, 210, 65, 184, 190, 63, 195, 42, 112, 215, 0, 119, 217, 14, 127, 154, 52, 9, 51, 112, 171, 196, 193, 247, 111, 201, 65, 78, 210, 64, 195, 247, 9, 130, 0, 126, 0, 247, 127, 132, 51, 229, 50, 112, 171, 196, 193, 235, 11, 210, 65, 184, 190, 63, 195, 247, 126, 252, 0, 126, 9, 0, 127, 132, 51, 9, 51, 112, 171, 196, 193, 247, 111, 201, 65, 78, 210, 64, 195, 247, 9, 130, 0, 45, 118, 5, 127, 80, 51, 230, 49, 242, 71, 205, 193, 224, 45, 68, 65, 184, 190, 63, 195, 130, 0, 252, 0, 0, 127, 0, 127, 160, 49, 10, 50, 242, 71, 205, 193, 247, 111, 201, 65, 184, 190, 63, 195, 130, 9, 252, 0, 9, 126, 255, 127, 80, 51, 10, 50, 228, 84, 225, 65, 182, 243, 211, 193, 180, 25, 239, 193, 126, 246, 2, 0, 246, 130, 0, 127, 70, 55, 21, 59, 98, 184, 216, 65, 25, 144, 220, 193, 17, 83, 58, 192, 9, 130, 4, 0, 130, 247, 253, 127, 88, 55, 246, 59, 98, 184, 216, 65, 25, 144, 220, 193, 180, 25, 239, 193, 10, 130, 0, 0, 130, 246, 0, 127, 88, 55, 21, 59, 253, 164, 58, 193, 182, 243, 211, 193, 78, 210, 64, 195, 38, 214, 143, 0, 121, 13, 35, 127, 154, 52, 128, 28, 112, 171, 196, 193, 25, 144, 220, 193, 184, 190, 63, 195, 247, 130, 252, 0, 126, 247, 0, 127, 132, 51, 0, 0, 112, 171, 196, 193, 77, 243, 211, 193, 78, 210, 64, 195, 248, 248, 130, 0, 126, 0, 248, 127, 132, 51, 128, 28, 112, 171, 196, 193, 125, 86, 246, 193, 1, 170, 154, 193, 243, 131, 8, 0, 131, 14, 8, 127, 0, 0, 36, 59, 242, 71, 205, 193, 221, 13, 191, 193, 37, 250, 179, 64, 132, 236, 11, 0, 236, 125, 0, 127, 57, 39, 245, 59, 242, 71, 205, 193, 151, 11, 237, 193, 166, 219, 165, 193, 130, 246, 0, 0, 246, 126, 0, 127, 219, 28, 25, 59, 253, 164, 58, 193, 145, 56, 189, 193, 194, 161, 213, 64, 24, 74, 99, 0, 123, 0, 226, 127, 245, 56, 206, 50, 112, 171, 196, 193, 181, 201, 194, 193, 156, 151, 219, 64, 209, 48, 107, 0, 117, 19, 43, 127, 137, 56, 229, 50, 253, 164, 58, 193, 181, 201, 194, 193, 156, 151, 219, 64, 9, 143, 55, 0, 124, 254, 230, 127, 245, 56, 229, 50, 253, 164, 58, 193, 235, 11, 210, 65, 17, 83, 58, 192, 9, 126, 7, 0, 126, 247, 0, 127, 210, 57, 0, 60, 112, 171, 196, 193, 235, 11, 210, 65, 180, 25, 239, 193, 246, 126, 0, 0, 126, 10, 0, 127, 102, 57, 30, 59, 112, 171, 196, 193, 235, 11, 210, 65, 17, 83, 58, 192, 247, 126, 4, 0, 126, 9, 0, 127, 102, 57, 0, 60, 253, 164, 58, 193, 142, 111, 201, 65, 78, 210, 64, 195, 27, 18, 134, 0, 124, 252, 26, 127, 154, 52, 229, 50, 112, 171, 196, 193, 224, 45, 68, 65, 78, 210, 64, 195, 210, 217, 145, 0, 118, 241, 213, 127, 132, 51, 52, 49, 253, 164, 58, 193, 125, 86, 246, 193, 1, 170, 154, 193, 7, 130, 5, 0, 126, 7, 0, 127, 31, 56, 187, 52, 112, 171, 196, 193, 181, 201, 194, 193, 156, 151, 219, 64, 209, 48, 107, 0, 117, 19, 43, 129, 102, 55, 10, 50, 112, 171, 196, 193, 125, 86, 246, 193, 1, 170, 154, 193, 243, 131, 8, 0, 126, 243, 0, 127, 102, 55, 187, 52, 112, 171, 196, 193, 224, 45, 68, 65, 152, 222, 234, 191, 247, 0, 126, 0, 126, 0, 9, 127, 137, 56, 56, 44, 253, 164, 58, 193, 142, 111, 201, 65, 152, 222, 234, 191, 65, 43, 100, 0, 108, 241, 193, 127, 245, 56, 192, 34, 131, 186, 191, 65, 16, 59, 126, 65, 64, 42, 164, 193, 111, 52, 31, 0, 51, 141, 9, 127, 129, 52, 99, 59, 223, 9, 215, 65, 1, 79, 234, 64, 74, 242, 8, 194, 124, 21, 8, 0, 21, 131, 0, 127, 17, 53, 240, 58, 131, 186, 191, 65, 127, 205, 155, 65, 164, 40, 46, 194, 122, 26, 21, 0, 26, 132, 0, 127, 69, 52, 163, 58, 242, 71, 205, 193, 224, 45, 68, 65, 17, 83, 58, 192, 162, 236, 82, 0, 241, 125, 13, 127, 160, 49, 174, 59, 242, 71, 205, 193, 224, 45, 68, 65, 180, 25, 239, 193, 129, 0, 0, 0, 0, 126, 0, 127, 160, 49, 204, 58, 112, 171, 196, 193, 235, 11, 210, 65, 17, 83, 58, 192, 247, 126, 4, 0, 126, 9, 253, 127, 116, 51, 174, 59, 131, 186, 191, 65, 16, 59, 126, 65, 64, 42, 164, 193, 111, 52, 31, 0, 222, 108, 200, 129, 252, 58, 108, 59, 173, 250, 178, 65, 46, 57, 98, 65, 150, 236, 171, 193, 240, 82, 95, 0, 89, 75, 207, 127, 239, 58, 100, 59, 98, 184, 216, 65, 235, 11, 210, 65, 184, 190, 63, 195, 9, 126, 252, 0, 126, 247, 253, 127, 168, 51, 45, 51, 112, 171, 196, 193, 235, 11, 210, 65, 184, 190, 63, 195, 247, 126, 252, 0, 126, 9, 3, 127, 116, 51, 10, 50, 98, 184, 216, 65, 25, 144, 220, 193, 184, 190, 63, 195, 9, 130, 252, 0, 130, 247, 3, 127, 88, 55, 45, 51, 98, 184, 216, 65, 77, 243, 211, 193, 78, 210, 64, 195, 8, 248, 130, 0, 211, 138, 5, 127, 70, 55, 9, 51, 228, 84, 225, 65, 77, 243, 211, 193, 184, 190, 63, 195, 126, 247, 252, 0, 247, 130, 255, 127, 70, 55, 45, 51, 242, 71, 205, 193, 77, 243, 211, 193, 184, 190, 63, 195, 130, 247, 252, 0, 247, 126, 1, 127, 126, 36, 10, 50, 112, 171, 196, 193, 77, 243, 211, 193, 78, 210, 64, 195, 248, 248, 130, 0, 211, 118, 251, 127, 126, 36, 230, 49, 112, 171, 196, 193, 25, 144, 220, 193, 184, 190, 63, 195, 247, 130, 252, 0, 130, 9, 253, 127, 188, 34, 10, 50, 98, 184, 216, 65, 77, 243, 211, 193, 152, 222, 234, 191, 9, 247, 126, 0, 211, 138, 251, 127, 70, 55, 0, 60, 228, 84, 225, 65, 77, 243, 211, 193, 17, 83, 58, 192, 110, 194, 249, 0, 194, 146, 1, 127, 70, 55, 246, 59, 112, 171, 196, 193, 181, 201, 194, 193, 156, 151, 219, 64, 209, 48, 107, 0, 31, 116, 218, 127, 188, 38, 0, 60, 112, 171, 196, 193, 40, 56, 189, 193, 85, 161, 213, 64, 226, 9, 122, 0, 47, 117, 3, 127, 119, 39, 254, 59, 228, 84, 225, 65, 141, 52, 89, 193, 184, 190, 63, 195, 126, 252, 251, 0, 252, 130, 0, 127, 110, 54, 45, 51, 98, 184, 216, 65, 141, 52, 89, 193, 78, 210, 64, 195, 10, 0, 130, 0, 0, 129, 0, 127, 110, 54, 9, 51, 253, 164, 58, 193, 141, 52, 89, 193, 78, 210, 64, 195, 0, 0, 129, 0, 127, 0, 0, 127, 154, 52, 81, 43, 112, 171, 196, 193, 141, 52, 89, 193, 78, 210, 64, 195, 246, 0, 130, 0, 126, 0, 246, 127, 132, 51, 81, 43, 112, 171, 196, 193, 141, 52, 89, 193, 78, 210, 64, 195, 246, 0, 130, 0, 0, 126, 0, 127, 128, 44, 230, 49, 242, 71, 205, 193, 141, 52, 89, 193, 184, 190, 63, 195, 130, 0, 252, 0, 0, 127, 0, 127, 128, 44, 10, 50, 242, 71, 205, 193, 80, 71, 83, 193, 162, 70, 137, 191, 133, 237, 19, 0, 238, 125, 5, 127, 153, 44, 189, 59, 112, 171, 196, 193, 39, 37, 82, 193, 255, 127, 209, 58, 204, 75, 87, 0, 73, 96, 218, 127, 157, 44, 198, 59, 112, 171, 196, 193, 40, 56, 189, 193, 85, 161, 213, 64, 226, 9, 122, 0, 123, 2, 30, 127, 137, 56, 206, 50, 253, 164, 58, 193, 39, 37, 82, 193, 255, 127, 209, 58, 15, 39, 119, 0, 125, 0, 240, 127, 245, 56, 110, 49, 112, 171, 196, 193, 39, 37, 82, 193, 255, 127, 209, 58, 204, 75, 87, 0, 115, 34, 39, 127, 137, 56, 110, 49, 98, 184, 216, 65, 141, 52, 89, 193, 152, 222, 234, 191, 10, 6, 126, 0, 16, 131, 4, 127, 110, 54, 0, 60, 228, 84, 225, 65, 141, 52, 89, 193, 17, 83, 58, 192, 126, 4, 6, 0, 4, 130, 0, 127, 110, 54, 246, 59, 228, 84, 225, 65, 141, 52, 89, 193, 180, 25, 239, 193, 126, 0, 0, 0, 0, 130, 0, 127, 110, 54, 21, 59, 228, 84, 225, 65, 63, 53, 40, 191, 184, 190, 63, 195, 126, 252, 251, 0, 252, 130, 0, 127, 150, 53, 45, 51, 98, 184, 216, 65, 63, 53, 40, 191, 78, 210, 64, 195, 10, 0, 130, 0, 0, 129, 0, 127, 150, 53, 9, 51, 253, 164, 58, 193, 63, 53, 40, 191, 78, 210, 64, 195, 0, 0, 129, 0, 127, 0, 0, 127, 154, 52, 9, 47, 112, 171, 196, 193, 63, 53, 40, 191, 78, 210, 64, 195, 246, 0, 130, 0, 126, 0, 246, 127, 132, 51, 9, 47, 112, 171, 196, 193, 63, 53, 40, 191, 78, 210, 64, 195, 246, 0, 130, 0, 0, 127, 0, 127, 224, 47, 230, 49, 242, 71, 205, 193, 63, 53, 40, 191, 184, 190, 63, 195, 130, 0, 252, 0, 0, 127, 0, 127, 224, 47, 10, 50, 242, 71, 205, 193, 63, 53, 40, 191, 17, 83, 58, 192, 132, 234, 11, 0, 235, 125, 2, 127, 224, 47, 174, 59, 242, 71, 205, 193, 139, 166, 111, 193, 50, 236, 223, 193, 129, 0, 0, 0, 0, 127, 0, 127, 34, 44, 220, 58, 112, 171, 196, 193, 63, 53, 40, 191, 152, 222, 234, 191, 211, 47, 108, 0, 27, 117, 217, 127, 224, 47, 183, 59, 112, 171, 196, 193, 63, 53, 40, 191, 152, 222, 234, 191, 211, 47, 108, 0, 118, 18, 41, 127, 137, 56, 153, 47, 223, 9, 215, 65, 64, 7, 99, 191, 84, 187, 159, 192, 80, 98, 253, 0, 98, 176, 253, 127, 154, 53, 229, 59, 228, 84, 225, 65, 78, 94, 38, 192, 248, 43, 222, 193, 126, 12, 3, 0, 12, 130, 0, 127, 183, 53, 39, 59, 228, 84, 225, 65, 224, 45, 68, 65, 184, 190, 63, 195, 112, 43, 215, 0, 40, 137, 242, 127, 190, 52, 45, 51, 253, 164, 58, 193, 224, 45, 68, 65, 78, 210, 64, 195, 0, 0, 129, 0, 127, 0, 0, 127, 154, 52, 52, 49, 112, 171, 196, 193, 224, 45, 68, 65, 78, 210, 64, 195, 210, 217, 145, 0, 242, 120, 220, 127, 160, 49, 230, 49, 242, 71, 205, 193, 63, 53, 40, 191, 180, 25, 239, 193, 129, 0, 0, 0, 0, 127, 0, 127, 224, 47, 204, 58, 253, 164, 58, 193, 63, 53, 40, 191, 152, 222, 234, 191, 11, 9, 126, 0, 126, 0, 245, 127, 245, 56, 153, 47, 173, 250, 178, 65, 111, 170, 149, 64, 83, 5, 99, 193, 248, 92, 86, 0, 255, 86, 164, 127, 138, 58, 218, 59, 223, 9, 215, 65, 64, 7, 99, 191, 84, 187, 159, 192, 80, 98, 253, 0, 232, 15, 133, 127, 61, 58, 0, 60, 131, 186, 191, 65, 199, 142, 172, 64, 66, 166, 105, 193, 118, 40, 17, 0, 248, 72, 152, 127, 142, 58, 231, 59, 131, 186, 191, 65, 199, 142, 172, 64, 66, 166, 105, 193, 118, 40, 17, 0, 41, 136, 0, 127, 49, 53, 149, 59, 98, 184, 216, 65, 247, 111, 201, 65, 78, 210, 64, 195, 9, 9, 130, 0, 126, 0, 9, 127, 34, 55, 229, 50, 224, 190, 98, 65, 235, 11, 210, 65, 184, 190, 63, 195, 0, 126, 252, 0, 126, 0, 0, 127, 74, 54, 9, 51, 98, 184, 216, 65, 235, 11, 210, 65, 184, 190, 63, 195, 9, 126, 252, 0, 126, 247, 0, 127, 34, 55, 9, 51, 224, 190, 98, 65, 247, 111, 201, 65, 78, 210, 64, 195, 228, 70, 155, 0, 123, 16, 233, 127, 74, 54, 229, 50, 98, 184, 216, 65, 224, 45, 68, 65, 78, 210, 64, 195, 10, 0, 130, 0, 126, 0, 10, 127, 34, 55, 52, 49, 224, 190, 98, 65, 224, 45, 68, 65, 78, 210, 64, 195, 0, 0, 129, 0, 127, 0, 0, 127, 74, 54, 52, 49, 98, 184, 216, 65, 63, 53, 40, 191, 78, 210, 64, 195, 10, 0, 130, 0, 126, 0, 10, 127, 34, 55, 9, 47, 224, 190, 98, 65, 63, 53, 40, 191, 78, 210, 64, 195, 0, 0, 129, 0, 127, 0, 0, 127, 74, 54, 9, 47, 98, 184, 216, 65, 141, 52, 89, 193, 78, 210, 64, 195, 10, 0, 130, 0, 126, 0, 10, 127, 34, 55, 81, 43, 224, 190, 98, 65, 141, 52, 89, 193, 78, 210, 64, 195, 0, 0, 129, 0, 127, 0, 0, 127, 74, 54, 81, 43, 98, 184, 216, 65, 77, 243, 211, 193, 78, 210, 64, 195, 8, 248, 130, 0, 126, 0, 8, 127, 34, 55, 128, 28, 224, 190, 98, 65, 77, 243, 211, 193, 78, 210, 64, 195, 0, 246, 130, 0, 127, 0, 0, 127, 74, 54, 128, 28, 98, 184, 216, 65, 25, 144, 220, 193, 184, 190, 63, 195, 9, 130, 252, 0, 126, 9, 0, 127, 34, 55, 0, 0, 224, 190, 98, 65, 25, 144, 220, 193, 180, 25, 239, 193, 5, 130, 255, 0, 126, 5, 0, 127, 247, 56, 107, 53, 98, 184, 216, 65, 25, 144, 220, 193, 17, 83, 58, 192, 9, 130, 4, 0, 126, 9, 0, 127, 99, 57, 81, 51, 224, 190, 98, 65, 25, 144, 220, 193, 17, 83, 58, 192, 2, 130, 6, 0, 126, 2, 0, 127, 247, 56, 81, 51, 98, 184, 216, 65, 77, 243, 211, 193, 152, 222, 234, 191, 9, 247, 126, 0, 126, 0, 247, 127, 57, 58, 45, 51, 224, 190, 98, 65, 25, 144, 220, 193, 17, 83, 58, 192, 2, 130, 6, 0, 126, 1, 246, 127, 205, 57, 81, 51, 98, 184, 216, 65, 25, 144, 220, 193, 17, 83, 58, 192, 9, 130, 4, 0, 126, 9, 0, 127, 57, 58, 81, 51, 224, 190, 98, 65, 77, 243, 211, 193, 152, 222, 234, 191, 236, 183, 101, 0, 125, 239, 12, 127, 205, 57, 45, 51, 98, 184, 216, 65, 141, 52, 89, 193, 152, 222, 234, 191, 10, 6, 126, 0, 126, 0, 246, 127, 57, 58, 124, 49, 224, 190, 98, 65, 141, 52, 89, 193, 152, 222, 234, 191, 3, 13, 126, 0, 126, 0, 253, 127, 205, 57, 124, 49, 98, 109, 206, 65, 0, 184, 52, 191, 130, 141, 123, 192, 37, 91, 79, 0, 121, 228, 232, 127, 46, 58, 156, 47, 214, 40, 78, 65, 0, 184, 52, 191, 130, 141, 123, 192, 255, 71, 104, 0, 126, 1, 1, 127, 194, 57, 156, 47, 214, 40, 78, 65, 0, 184, 52, 191, 130, 141, 123, 192, 255, 71, 104, 0, 0, 104, 185, 127, 52, 58, 138, 59, 110, 67, 23, 65, 111, 170, 149, 64, 83, 5, 99, 193, 44, 82, 85, 0, 13, 87, 165, 127, 138, 58, 110, 59, 110, 67, 23, 65, 111, 170, 149, 64, 83, 5, 99, 193, 44, 82, 85, 0, 252, 92, 170, 127, 144, 58, 134, 59, 110, 67, 23, 65, 46, 57, 98, 65, 150, 236, 171, 193, 65, 65, 87, 0, 11, 97, 176, 127, 223, 58, 134, 59, 173, 250, 178, 65, 107, 14, 108, 65, 234, 68, 180, 193, 186, 103, 21, 0, 19, 37, 137, 127, 228, 58, 242, 59, 110, 67, 23, 65, 107, 14, 108, 65, 234, 68, 180, 193, 52, 114, 19, 0, 239, 29, 134, 127, 228, 58, 134, 59, 110, 67, 23, 65, 107, 14, 108, 65, 234, 68, 180, 193, 52, 114, 19, 0, 115, 205, 248, 127, 131, 58, 91, 59, 110, 67, 23, 65, 210, 12, 163, 65, 215, 93, 52, 194, 29, 117, 37, 0, 123, 227, 254, 127, 131, 58, 159, 58, 132, 103, 160, 63, 235, 11, 210, 65, 184, 190, 63, 195, 0, 126, 252, 0, 127, 0, 0, 127, 114, 53, 9, 51, 132, 103, 160, 63, 142, 111, 201, 65, 78, 210, 64, 195, 228, 70, 155, 0, 123, 16, 233, 127, 114, 53, 229, 50, 132, 103, 160, 63, 224, 45, 68, 65, 78, 210, 64, 195, 0, 0, 129, 0, 127, 0, 0, 127, 114, 53, 52, 49, 132, 103, 160, 63, 63, 53, 40, 191, 78, 210, 64, 195, 0, 0, 129, 0, 127, 0, 0, 127, 114, 53, 9, 47, 132, 103, 160, 63, 141, 52, 89, 193, 78, 210, 64, 195, 0, 0, 129, 0, 127, 0, 0, 127, 114, 53, 81, 43, 132, 103, 160, 63, 182, 243, 211, 193, 78, 210, 64, 195, 0, 246, 130, 0, 127, 0, 0, 127, 114, 53, 128, 28, 224, 190, 98, 65, 25, 144, 220, 193, 184, 190, 63, 195, 43, 145, 215, 0, 119, 41, 15, 127, 74, 54, 0, 0, 132, 103, 160, 63, 73, 139, 231, 193, 41, 144, 216, 193, 12, 130, 254, 0, 126, 12, 0, 127, 139, 56, 60, 53, 132, 103, 160, 63, 61, 91, 217, 193, 29, 35, 28, 190, 0, 130, 15, 0, 126, 0, 0, 127, 139, 56, 244, 50, 132, 103, 160, 63, 61, 91, 217, 193, 29, 35, 28, 190, 0, 130, 15, 0, 123, 252, 227, 127, 97, 57, 67, 51, 132, 103, 160, 63, 213, 50, 208, 193, 193, 207, 89, 63, 250, 201, 114, 0, 126, 242, 0, 127, 97, 57, 29, 51, 132, 103, 160, 63, 141, 52, 89, 193, 152, 222, 234, 191, 8, 24, 124, 0, 126, 0, 247, 127, 97, 57, 124, 49, 64, 21, 9, 189, 0, 184, 52, 191, 130, 141, 123, 192, 27, 29, 120, 0, 123, 0, 228, 127, 86, 57, 156, 47, 110, 67, 23, 65, 111, 170, 149, 64, 83, 5, 99, 193, 44, 82, 85, 0, 115, 248, 204, 127, 165, 57, 52, 46, 64, 21, 9, 189, 251, 116, 64, 65, 127, 65, 195, 192, 76, 20, 98, 0, 100, 252, 179, 127, 86, 57, 72, 44, 64, 21, 9, 189, 251, 116, 64, 65, 127, 65, 195, 192, 76, 20, 98, 0, 31, 133, 1, 127, 146, 52, 0, 60, 110, 67, 23, 65, 46, 57, 98, 65, 150, 236, 171, 193, 65, 65, 87, 0, 70, 154, 24, 127, 111, 52, 127, 59, 64, 21, 9, 189, 88, 115, 188, 65, 19, 212, 254, 192, 82, 23, 93, 0, 35, 135, 0, 127, 164, 51, 240, 59, 64, 21, 9, 189, 109, 243, 195, 65, 143, 154, 18, 193, 49, 96, 66, 0, 98, 183, 32, 127, 132, 51, 230, 59, 110, 67, 23, 65, 107, 14, 108, 65, 234, 68, 180, 193, 52, 114, 19, 0, 114, 203, 8, 127, 101, 52, 118, 59, 64, 21, 9, 189, 32, 251, 192, 65, 240, 63, 7, 194, 46, 117, 9, 0, 117, 210, 2, 127, 145, 51, 24, 59, 110, 67, 23, 65, 210, 12, 163, 65, 215, 93, 52, 194, 29, 117, 37, 0, 121, 222, 13, 127, 7, 52, 185, 58, 132, 103, 160, 63, 25, 144, 220, 193, 184, 190, 63, 195, 43, 145, 215, 0, 119, 41, 15, 127, 114, 53, 0, 0, 253, 164, 58, 193, 181, 201, 194, 193, 156, 151, 219, 64, 9, 143, 55, 0, 126, 7, 251, 127, 31, 56, 10, 50, 253, 164, 58, 193, 224, 45, 68, 65, 152, 222, 234, 191, 22, 5, 124, 0, 125, 0, 234, 127, 245, 56, 56, 44, 64, 21, 9, 189, 88, 115, 188, 65, 19, 212, 254, 192, 82, 23, 93, 0, 96, 252, 174, 127, 86, 57, 18, 37, 64, 21, 9, 189, 109, 243, 195, 65, 143, 154, 18, 193, 49, 96, 66, 0, 102, 0, 181, 127, 86, 57, 23, 36, 253, 164, 58, 193, 235, 11, 210, 65, 180, 25, 239, 193, 11, 126, 0, 0, 126, 245, 0, 127, 210, 57, 30, 59, 64, 21, 9, 189, 109, 243, 195, 65, 143, 154, 18, 193, 49, 96, 66, 0, 116, 209, 238, 127, 51, 58, 203, 59, 64, 21, 9, 189, 32, 251, 192, 65, 240, 63, 7, 194, 46, 117, 9, 0, 118, 210, 255, 127, 51, 58, 253, 58, 228, 84, 225, 65, 224, 45, 68, 65, 202, 196, 36, 195, 127, 0, 0, 0, 0, 129, 0, 127, 190, 52, 89, 53, 228, 84, 225, 65, 247, 111, 201, 65, 202, 196, 36, 195, 126, 10, 0, 0, 10, 130, 0, 127, 204, 51, 89, 53, 98, 184, 216, 65, 235, 11, 210, 65, 202, 196, 36, 195, 10, 126, 0, 0, 126, 246, 0, 127, 168, 51, 89, 53, 224, 190, 98, 65, 235, 11, 210, 65, 202, 196, 36, 195, 0, 127, 0, 0, 127, 0, 0, 127, 170, 58, 107, 53, 98, 184, 216, 65, 235, 11, 210, 65, 184, 190, 63, 195, 9, 126, 252, 0, 126, 247, 0, 127, 22, 59, 81, 51, 224, 190, 98, 65, 235, 11, 210, 65, 184, 190, 63, 195, 0, 126, 252, 0, 127, 0, 0, 127, 170, 58, 81, 51, 132, 103, 160, 63, 235, 11, 210, 65, 202, 196, 36, 195, 0, 127, 0, 0, 127, 0, 0, 127, 62, 58, 107, 53, 132, 103, 160, 63, 235, 11, 210, 65, 184, 190, 63, 195, 0, 126, 252, 0, 127, 0, 0, 127, 62, 58, 81, 51, 253, 164, 58, 193, 235, 11, 210, 65, 202, 196, 36, 195, 0, 127, 0, 0, 127, 0, 0, 127, 210, 57, 107, 53, 253, 164, 58, 193, 235, 11, 210, 65, 184, 190, 63, 195, 42, 112, 215, 0, 119, 217, 14, 127, 210, 57, 81, 51, 112, 171, 196, 193, 235, 11, 210, 65, 184, 190, 63, 195, 247, 126, 252, 0, 126, 9, 0, 127, 102, 57, 81, 51, 112, 171, 196, 193, 235, 11, 210, 65, 202, 196, 36, 195, 246, 126, 0, 0, 126, 10, 0, 127, 102, 57, 107, 53, 112, 171, 196, 193, 235, 11, 210, 65, 202, 196, 36, 195, 246, 126, 0, 0, 126, 10, 0, 127, 116, 51, 200, 52, 242, 71, 205, 193, 247, 111, 201, 65, 202, 196, 36, 195, 130, 10, 0, 0, 10, 126, 0, 127, 80, 51, 200, 52, 242, 71, 205, 193, 224, 45, 68, 65, 202, 196, 36, 195, 129, 0, 0, 0, 0, 127, 0, 127, 160, 49, 200, 52, 242, 71, 205, 193, 63, 53, 40, 191, 202, 196, 36, 195, 129, 0, 0, 0, 0, 127, 0, 127, 224, 47, 200, 52, 242, 71, 205, 193, 141, 52, 89, 193, 202, 196, 36, 195, 129, 0, 0, 0, 0, 127, 0, 127, 128, 44, 200, 52, 242, 71, 205, 193, 77, 243, 211, 193, 202, 196, 36, 195, 130, 246, 0, 0, 246, 126, 0, 127, 126, 36, 200, 52, 253, 164, 58, 193, 25, 144, 220, 193, 184, 190, 63, 195, 39, 139, 230, 0, 120, 38, 8, 127, 31, 56, 0, 60, 112, 171, 196, 193, 25, 144, 220, 193, 202, 196, 36, 195, 210, 145, 38, 0, 118, 213, 15, 127, 102, 55, 30, 59, 112, 171, 196, 193, 25, 144, 220, 193, 184, 190, 63, 195, 247, 130, 252, 0, 126, 247, 0, 127, 102, 55, 0, 60, 253, 164, 58, 193, 25, 144, 220, 193, 202, 196, 36, 195, 0, 130, 0, 0, 126, 0, 0, 127, 31, 56, 30, 59, 132, 103, 160, 63, 25, 144, 220, 193, 184, 190, 63, 195, 43, 145, 215, 0, 119, 41, 15, 127, 139, 56, 0, 60, 132, 103, 160, 63, 25, 144, 220, 193, 202, 196, 36, 195, 1, 130, 2, 0, 126, 1, 0, 127, 139, 56, 30, 59, 224, 190, 98, 65, 25, 144, 220, 193, 184, 190, 63, 195, 43, 145, 215, 0, 119, 41, 15, 127, 247, 56, 0, 60, 224, 190, 98, 65, 25, 144, 220, 193, 202, 196, 36, 195, 2, 130, 11, 0, 126, 2, 0, 127, 247, 56, 30, 59, 98, 184, 216, 65, 25, 144, 220, 193, 184, 190, 63, 195, 9, 130, 252, 0, 126, 9, 0, 127, 99, 57, 0, 60, 98, 184, 216, 65, 25, 144, 220, 193, 202, 196, 36, 195, 19, 132, 15, 0, 125, 18, 254, 127, 99, 57, 30, 59, 98, 184, 216, 65, 25, 144, 220, 193, 202, 196, 36, 195, 19, 132, 15, 0, 132, 236, 246, 127, 88, 55, 89, 53, 228, 84, 225, 65, 141, 52, 89, 193, 202, 196, 36, 195, 126, 255, 9, 0, 255, 130, 0, 127, 110, 54, 89, 53, 228, 84, 225, 65, 63, 53, 40, 191, 202, 196, 36, 195, 126, 255, 2, 0, 255, 130, 0, 127, 150, 53, 89, 53, 228, 84, 225, 65, 224, 45, 68, 65, 225, 202, 9, 195, 126, 252, 13, 0, 252, 130, 0, 127, 190, 52, 29, 55, 228, 84, 225, 65, 247, 111, 201, 65, 225, 202, 9, 195, 126, 4, 7, 0, 4, 130, 253, 127, 204, 51, 29, 55, 98, 184, 216, 65, 235, 11, 210, 65, 225, 202, 9, 195, 11, 126, 0, 0, 126, 245, 0, 127, 168, 51, 29, 55, 224, 190, 98, 65, 235, 11, 210, 65, 225, 202, 9, 195, 0, 127, 0, 0, 126, 0, 0, 127, 170, 58, 47, 55, 98, 184, 216, 65, 235, 11, 210, 65, 202, 196, 36, 195, 10, 126, 0, 0, 126, 246, 0, 127, 22, 59, 107, 53, 132, 103, 160, 63, 235, 11, 210, 65, 225, 202, 9, 195, 0, 127, 0, 0, 127, 0, 0, 127, 62, 58, 47, 55, 253, 164, 58, 193, 235, 11, 210, 65, 225, 202, 9, 195, 0, 127, 0, 0, 127, 0, 0, 127, 210, 57, 47, 55, 112, 171, 196, 193, 235, 11, 210, 65, 225, 202, 9, 195, 246, 126, 0, 0, 126, 10, 0, 127, 102, 57, 47, 55, 112, 171, 196, 193, 235, 11, 210, 65, 225, 202, 9, 195, 246, 126, 0, 0, 126, 10, 0, 127, 116, 51, 139, 54, 242, 71, 205, 193, 247, 111, 201, 65, 225, 202, 9, 195, 130, 10, 0, 0, 10, 126, 0, 127, 80, 51, 139, 54, 242, 71, 205, 193, 224, 45, 68, 65, 225, 202, 9, 195, 129, 0, 0, 0, 0, 127, 0, 127, 160, 49, 139, 54, 242, 71, 205, 193, 63, 53, 40, 191, 225, 202, 9, 195, 129, 0, 0, 0, 0, 127, 0, 127, 224, 47, 139, 54, 242, 71, 205, 193, 141, 52, 89, 193, 225, 202, 9, 195, 129, 0, 0, 0, 0, 127, 0, 127, 128, 44, 139, 54, 242, 71, 205, 193, 77, 243, 211, 193, 225, 202, 9, 195, 130, 246, 0, 0, 246, 126, 0, 127, 126, 36, 139, 54, 112, 171, 196, 193, 25, 144, 220, 193, 202, 196, 36, 195, 210, 145, 38, 0, 142, 52, 15, 127, 188, 34, 200, 52, 112, 171, 196, 193, 25, 144, 220, 193, 225, 202, 9, 195, 210, 145, 38, 0, 118, 213, 15, 127, 102, 55, 60, 58, 128, 152, 129, 189, 136, 93, 219, 193, 225, 202, 9, 195, 20, 131, 0, 0, 125, 20, 0, 127, 128, 56, 60, 58, 130, 178, 6, 65, 225, 127, 196, 193, 225, 202, 9, 195, 34, 135, 5, 0, 122, 34, 0, 127, 199, 56, 60, 58, 159, 95, 166, 65, 108, 236, 166, 193, 225, 202, 9, 195, 41, 136, 1, 0, 120, 41, 0, 127, 46, 57, 60, 58, 116, 36, 179, 65, 177, 191, 160, 193, 225, 202, 9, 195, 116, 208, 16, 0, 207, 140, 3, 127, 219, 54, 29, 55, 159, 95, 166, 65, 108, 236, 166, 193, 225, 202, 9, 195, 41, 136, 1, 0, 136, 215, 0, 127, 232, 54, 29, 55, 228, 84, 225, 65, 77, 243, 211, 193, 202, 196, 36, 195, 93, 172, 16, 0, 172, 162, 249, 127, 70, 55, 89, 53, 214, 69, 205, 65, 12, 118, 53, 193, 225, 202, 9, 195, 121, 222, 9, 0, 222, 134, 0, 127, 73, 54, 29, 55, 2, 119, 162, 65, 224, 45, 68, 65, 242, 161, 221, 194, 123, 231, 16, 0, 230, 132, 0, 127, 190, 52, 112, 56, 228, 84, 225, 65, 63, 53, 40, 191, 225, 202, 9, 195, 125, 246, 13, 0, 246, 130, 0, 127, 150, 53, 29, 55, 168, 47, 208, 65, 247, 111, 201, 65, 242, 161, 221, 194, 120, 2, 217, 0, 5, 130, 10, 127, 204, 51, 112, 56, 38, 147, 199, 65, 235, 11, 210, 65, 242, 161, 221, 194, 11, 126, 0, 0, 126, 245, 0, 127, 168, 51, 112, 56, 38, 147, 199, 65, 235, 11, 210, 65, 242, 161, 221, 194, 11, 126, 0, 0, 126, 245, 0, 127, 4, 59, 121, 56, 98, 184, 216, 65, 235, 11, 210, 65, 225, 202, 9, 195, 11, 126, 0, 0, 126, 245, 0, 127, 22, 59, 47, 55, 132, 103, 160, 63, 235, 11, 210, 65, 242, 161, 221, 194, 0, 127, 0, 0, 127, 0, 0, 127, 62, 58, 121, 56, 253, 164, 58, 193, 235, 11, 210, 65, 242, 161, 221, 194, 0, 127, 0, 0, 127, 0, 0, 127, 210, 57, 121, 56, 112, 171, 196, 193, 235, 11, 210, 65, 242, 161, 221, 194, 246, 126, 0, 0, 126, 10, 0, 127, 102, 57, 121, 56, 112, 171, 196, 193, 235, 11, 210, 65, 242, 161, 221, 194, 246, 126, 0, 0, 126, 10, 0, 127, 116, 51, 39, 56, 242, 71, 205, 193, 247, 111, 201, 65, 242, 161, 221, 194, 130, 10, 0, 0, 10, 126, 0, 127, 80, 51, 39, 56, 242, 71, 205, 193, 224, 45, 68, 65, 242, 161, 221, 194, 129, 0, 0, 0, 0, 127, 0, 127, 160, 49, 39, 56, 242, 71, 205, 193, 63, 53, 40, 191, 242, 161, 221, 194, 129, 0, 0, 0, 0, 127, 0, 127, 224, 47, 39, 56, 242, 71, 205, 193, 141, 52, 89, 193, 242, 161, 221, 194, 129, 0, 0, 0, 0, 127, 0, 127, 128, 44, 39, 56, 242, 71, 205, 193, 77, 243, 211, 193, 242, 161, 221, 194, 130, 246, 0, 0, 246, 126, 0, 127, 126, 36, 39, 56, 112, 171, 196, 193, 25, 144, 220, 193, 225, 202, 9, 195, 210, 145, 38, 0, 142, 52, 15, 127, 188, 34, 139, 54, 253, 164, 58, 193, 25, 144, 220, 193, 225, 202, 9, 195, 0, 130, 0, 0, 126, 0, 0, 127, 31, 56, 60, 58, 112, 171, 196, 193, 25, 144, 220, 193, 242, 161, 221, 194, 210, 145, 38, 0, 118, 213, 15, 127, 102, 55, 90, 57, 253, 164, 58, 193, 25, 144, 220, 193, 242, 161, 221, 194, 0, 130, 0, 0, 126, 0, 0, 127, 31, 56, 90, 57, 128, 152, 129, 189, 136, 93, 219, 193, 242, 161, 221, 194, 19, 131, 0, 0, 125, 19, 0, 127, 128, 56, 90, 57, 130, 178, 6, 65, 225, 127, 196, 193, 242, 161, 221, 194, 35, 135, 249, 0, 122, 35, 0, 127, 199, 56, 90, 57, 159, 95, 166, 65, 108, 236, 166, 193, 242, 161, 221, 194, 29, 134, 243, 0, 123, 29, 255, 127, 46, 57, 90, 57, 116, 36, 179, 65, 177, 191, 160, 193, 225, 202, 9, 195, 116, 208, 16, 0, 50, 115, 242, 127, 60, 57, 60, 58, 89, 46, 188, 65, 186, 44, 56, 193, 242, 161, 221, 194, 126, 7, 7, 0, 7, 130, 0, 127, 76, 54, 112, 56, 2, 119, 162, 65, 224, 45, 68, 65, 24, 174, 167, 194, 123, 231, 239, 0, 231, 132, 0, 127, 190, 52, 81, 57, 2, 119, 162, 65, 63, 53, 40, 191, 242, 161, 221, 194, 124, 17, 17, 0, 18, 131, 0, 127, 150, 53, 112, 56, 168, 47, 208, 65, 247, 111, 201, 65, 24, 174, 167, 194, 123, 229, 244, 0, 230, 133, 8, 127, 204, 51, 81, 57, 38, 147, 199, 65, 235, 11, 210, 65, 24, 174, 167, 194, 10, 126, 253, 0, 126, 246, 254, 127, 168, 51, 81, 57, 224, 190, 98, 65, 235, 11, 210, 65, 24, 174, 167, 194, 0, 126, 254, 0, 126, 0, 0, 127, 170, 58, 90, 57, 224, 190, 98, 65, 235, 11, 210, 65, 242, 161, 221, 194, 0, 127, 0, 0, 126, 0, 0, 127, 170, 58, 121, 56, 132, 103, 160, 63, 235, 11, 210, 65, 24, 174, 167, 194, 0, 126, 255, 0, 126, 0, 0, 127, 62, 58, 90, 57, 253, 164, 58, 193, 235, 11, 210, 65, 24, 174, 167, 194, 0, 127, 0, 0, 127, 0, 0, 127, 210, 57, 90, 57, 112, 171, 196, 193, 235, 11, 210, 65, 24, 174, 167, 194, 246, 126, 0, 0, 126, 10, 0, 127, 102, 57, 90, 57, 112, 171, 196, 193, 235, 11, 210, 65, 24, 174, 167, 194, 246, 126, 0, 0, 126, 10, 0, 127, 116, 51, 9, 57, 242, 71, 205, 193, 247, 111, 201, 65, 24, 174, 167, 194, 130, 10, 0, 0, 10, 126, 0, 127, 80, 51, 9, 57, 242, 71, 205, 193, 224, 45, 68, 65, 24, 174, 167, 194, 129, 0, 0, 0, 0, 127, 0, 127, 160, 49, 9, 57, 242, 71, 205, 193, 63, 53, 40, 191, 24, 174, 167, 194, 129, 0, 0, 0, 0, 127, 0, 127, 224, 47, 9, 57, 242, 71, 205, 193, 141, 52, 89, 193, 24, 174, 167, 194, 129, 0, 0, 0, 0, 127, 0, 127, 128, 44, 9, 57, 242, 71, 205, 193, 77, 243, 211, 193, 24, 174, 167, 194, 130, 246, 0, 0, 246, 126, 0, 127, 126, 36, 9, 57, 112, 171, 196, 193, 25, 144, 220, 193, 242, 161, 221, 194, 210, 145, 38, 0, 142, 52, 15, 127, 188, 34, 39, 56, 112, 171, 196, 193, 25, 144, 220, 193, 24, 174, 167, 194, 210, 145, 38, 0, 118, 213, 15, 127, 102, 55, 121, 56, 253, 164, 58, 193, 25, 144, 220, 193, 24, 174, 167, 194, 0, 130, 0, 0, 126, 0, 0, 127, 31, 56, 121, 56, 132, 103, 160, 63, 25, 144, 220, 193, 24, 174, 167, 194, 1, 130, 254, 0, 126, 1, 0, 127, 139, 56, 121, 56, 224, 190, 98, 65, 25, 144, 220, 193, 24, 174, 167, 194, 2, 130, 245, 0, 126, 2, 0, 127, 247, 56, 121, 56, 98, 184, 216, 65, 25, 144, 220, 193, 24, 174, 167, 194, 18, 132, 241, 0, 125, 18, 2, 127, 99, 57, 121, 56, 116, 36, 179, 65, 177, 191, 160, 193, 242, 161, 221, 194, 97, 199, 200, 0, 194, 146, 4, 127, 219, 54, 112, 56, 98, 184, 216, 65, 25, 144, 220, 193, 24, 174, 167, 194, 18, 132, 241, 0, 132, 236, 10, 127, 88, 55, 81, 57, 159, 95, 166, 65, 108, 236, 166, 193, 242, 161, 221, 194, 29, 134, 243, 0, 133, 227, 2, 127, 232, 54, 112, 56, 168, 47, 208, 65, 141, 52, 89, 193, 24, 174, 167, 194, 122, 30, 241, 0, 30, 133, 0, 127, 110, 54, 81, 57, 2, 119, 162, 65, 63, 53, 40, 191, 24, 174, 167, 194, 123, 24, 238, 0, 24, 132, 0, 127, 150, 53, 81, 57, 228, 84, 225, 65, 63, 53, 40, 191, 128, 116, 99, 194, 126, 5, 243, 0, 5, 130, 0, 127, 150, 53, 51, 58, 228, 84, 225, 65, 228, 148, 85, 65, 127, 89, 100, 194, 126, 7, 253, 0, 7, 130, 0, 127, 172, 52, 49, 58, 228, 84, 225, 65, 5, 6, 210, 65, 168, 236, 97, 194, 126, 247, 1, 0, 247, 130, 0, 127, 168, 51, 54, 58, 98, 184, 216, 65, 222, 159, 218, 65, 239, 184, 97, 194, 35, 105, 60, 0, 112, 204, 25, 127, 132, 51, 55, 58, 224, 190, 98, 65, 222, 159, 218, 65, 239, 184, 97, 194, 246, 122, 29, 0, 126, 10, 2, 127, 170, 58, 64, 58, 38, 147, 199, 65, 235, 11, 210, 65, 24, 174, 167, 194, 10, 126, 253, 0, 126, 246, 0, 127, 4, 59, 90, 57, 132, 103, 160, 63, 222, 159, 218, 65, 239, 184, 97, 194, 253, 125, 16, 0, 126, 3, 0, 127, 62, 58, 64, 58, 253, 164, 58, 193, 235, 11, 210, 65, 128, 116, 99, 194, 254, 126, 2, 0, 126, 2, 0, 127, 210, 57, 60, 58, 112, 171, 196, 193, 235, 11, 210, 65, 128, 116, 99, 194, 246, 126, 0, 0, 126, 10, 0, 127, 102, 57, 60, 58, 112, 171, 196, 193, 235, 11, 210, 65, 128, 116, 99, 194, 246, 126, 0, 0, 126, 10, 0, 127, 116, 51, 234, 57, 242, 71, 205, 193, 142, 111, 201, 65, 128, 116, 99, 194, 130, 10, 0, 0, 10, 126, 0, 127, 80, 51, 234, 57, 242, 71, 205, 193, 224, 45, 68, 65, 128, 116, 99, 194, 129, 0, 0, 0, 0, 127, 0, 127, 160, 49, 234, 57, 242, 71, 205, 193, 63, 53, 40, 191, 128, 116, 99, 194, 129, 0, 0, 0, 0, 126, 0, 127, 224, 47, 234, 57, 242, 71, 205, 193, 141, 52, 89, 193, 128, 116, 99, 194, 129, 0, 0, 0, 0, 126, 0, 127, 128, 44, 234, 57, 242, 71, 205, 193, 182, 243, 211, 193, 128, 116, 99, 194, 130, 246, 0, 0, 246, 126, 0, 127, 126, 36, 234, 57, 112, 171, 196, 193, 25, 144, 220, 193, 24, 174, 167, 194, 210, 145, 38, 0, 142, 52, 15, 127, 188, 34, 9, 57, 112, 171, 196, 193, 25, 144, 220, 193, 128, 116, 99, 194, 211, 143, 33, 0, 118, 213, 12, 127, 102, 55, 47, 55, 253, 164, 58, 193, 25, 144, 220, 193, 128, 116, 99, 194, 1, 130, 252, 0, 126, 1, 0, 127, 31, 56, 47, 55, 132, 103, 160, 63, 25, 144, 220, 193, 128, 116, 99, 194, 1, 130, 254, 0, 126, 1, 0, 127, 139, 56, 47, 55, 224, 190, 98, 65, 25, 144, 220, 193, 128, 116, 99, 194, 0, 130, 0, 0, 126, 0, 0, 127, 247, 56, 47, 55, 98, 184, 216, 65, 25, 144, 220, 193, 128, 116, 99, 194, 9, 130, 0, 0, 126, 9, 0, 127, 99, 57, 47, 55, 228, 84, 225, 65, 182, 243, 211, 193, 128, 116, 99, 194, 126, 248, 255, 0, 248, 130, 0, 127, 70, 55, 51, 58, 98, 184, 216, 65, 25, 144, 220, 193, 128, 116, 99, 194, 9, 130, 0, 0, 130, 247, 0, 127, 88, 55, 51, 58, 228, 84, 225, 65, 141, 52, 89, 193, 128, 116, 99, 194, 126, 1, 253, 0, 1, 130, 0, 127, 110, 54, 51, 58, 228, 84, 225, 65, 77, 243, 211, 193, 24, 174, 167, 194, 94, 173, 241, 0, 173, 161, 8, 127, 70, 55, 81, 57, 228, 84, 225, 65, 5, 6, 210, 65, 168, 236, 97, 194, 126, 247, 1, 0, 247, 130, 254, 127, 31, 59, 63, 58, 98, 184, 216, 65, 222, 159, 218, 65, 239, 184, 97, 194, 35, 105, 60, 0, 120, 217, 254, 127, 22, 59, 64, 58, 112, 171, 196, 193, 25, 144, 220, 193, 128, 116, 99, 194, 211, 143, 33, 0, 141, 50, 13, 127, 188, 34, 234, 57, 98, 184, 216, 65, 25, 144, 220, 193, 180, 25, 239, 193, 10, 130, 0, 0, 126, 10, 0, 127, 99, 57, 107, 53, 173, 250, 178, 65, 111, 170, 149, 64, 83, 5, 99, 193, 248, 92, 86, 0, 1, 86, 164, 127, 144, 58, 242, 59, 253, 164, 58, 193, 25, 144, 220, 193, 184, 190, 63, 195, 39, 139, 230, 0, 120, 38, 8, 127, 154, 52, 0, 0, 98, 109, 206, 65, 0, 184, 52, 191, 130, 141, 123, 192, 37, 91, 79, 0, 70, 173, 63, 127, 151, 53, 238, 59, 98, 109, 206, 65, 0, 184, 52, 191, 130, 141, 123, 192, 37, 91, 79, 0, 11, 80, 159, 127, 52, 58, 246, 59, 110, 67, 23, 65, 111, 170, 149, 64, 83, 5, 99, 193, 44, 82, 85, 0, 85, 171, 38, 127, 13, 53, 188, 59, 116, 36, 179, 65, 177, 191, 160, 193, 242, 161, 221, 194, 97, 199, 200, 0, 76, 96, 32, 127, 60, 57, 90, 57 ),
"array_index_data": PoolByteArray( 0, 0, 2, 0, 1, 0, 3, 0, 5, 0, 4, 0, 0, 0, 7, 0, 6, 0, 8, 0, 10, 0, 9, 0, 11, 0, 13, 0, 12, 0, 14, 0, 16, 0, 15, 0, 17, 0, 19, 0, 18, 0, 20, 0, 22, 0, 21, 0, 23, 0, 25, 0, 24, 0, 26, 0, 28, 0, 27, 0, 29, 0, 31, 0, 30, 0, 32, 0, 34, 0, 33, 0, 35, 0, 37, 0, 36, 0, 38, 0, 18, 0, 39, 0, 40, 0, 42, 0, 41, 0, 43, 0, 3, 0, 44, 0, 45, 0, 47, 0, 46, 0, 48, 0, 49, 0, 7, 0, 2, 0, 0, 0, 50, 0, 51, 0, 52, 0, 11, 0, 16, 0, 14, 0, 53, 0, 22, 0, 20, 0, 54, 0, 55, 0, 57, 0, 56, 0, 58, 0, 60, 0, 59, 0, 61, 0, 62, 0, 24, 0, 30, 0, 64, 0, 63, 0, 65, 0, 66, 0, 56, 0, 67, 0, 68, 0, 28, 0, 69, 0, 70, 0, 58, 0, 71, 0, 30, 0, 31, 0, 72, 0, 64, 0, 30, 0, 73, 0, 75, 0, 74, 0, 76, 0, 77, 0, 62, 0, 78, 0, 23, 0, 62, 0, 79, 0, 80, 0, 66, 0, 81, 0, 82, 0, 68, 0, 83, 0, 84, 0, 70, 0, 85, 0, 71, 0, 86, 0, 87, 0, 72, 0, 71, 0, 74, 0, 75, 0, 88, 0, 89, 0, 77, 0, 76, 0, 90, 0, 78, 0, 77, 0, 91, 0, 15, 0, 80, 0, 92, 0, 39, 0, 82, 0, 93, 0, 21, 0, 84, 0, 48, 0, 85, 0, 94, 0, 48, 0, 1, 0, 87, 0, 95, 0, 88, 0, 43, 0, 96, 0, 98, 0, 97, 0, 99, 0, 46, 0, 90, 0, 100, 0, 102, 0, 101, 0, 103, 0, 105, 0, 104, 0, 105, 0, 107, 0, 106, 0, 107, 0, 109, 0, 108, 0, 109, 0, 111, 0, 110, 0, 112, 0, 110, 0, 111, 0, 113, 0, 115, 0, 114, 0, 116, 0, 118, 0, 117, 0, 119, 0, 121, 0, 120, 0, 121, 0, 123, 0, 122, 0, 124, 0, 125, 0, 96, 0, 126, 0, 127, 0, 8, 0, 127, 0, 129, 0, 128, 0, 130, 0, 131, 0, 13, 0, 103, 0, 101, 0, 132, 0, 133, 0, 134, 0, 105, 0, 134, 0, 135, 0, 107, 0, 135, 0, 136, 0, 109, 0, 136, 0, 137, 0, 111, 0, 138, 0, 111, 0, 137, 0, 139, 0, 140, 0, 115, 0, 119, 0, 117, 0, 141, 0, 142, 0, 143, 0, 121, 0, 143, 0, 144, 0, 123, 0, 144, 0, 146, 0, 145, 0, 147, 0, 149, 0, 148, 0, 150, 0, 151, 0, 148, 0, 152, 0, 153, 0, 151, 0, 133, 0, 132, 0, 17, 0, 38, 0, 92, 0, 134, 0, 92, 0, 81, 0, 135, 0, 81, 0, 67, 0, 136, 0, 67, 0, 26, 0, 137, 0, 154, 0, 137, 0, 26, 0, 40, 0, 155, 0, 140, 0, 142, 0, 141, 0, 34, 0, 74, 0, 143, 0, 142, 0, 74, 0, 95, 0, 144, 0, 156, 0, 146, 0, 144, 0, 156, 0, 44, 0, 157, 0, 4, 0, 158, 0, 157, 0, 159, 0, 161, 0, 160, 0, 162, 0, 91, 0, 79, 0, 162, 0, 163, 0, 14, 0, 163, 0, 164, 0, 53, 0, 165, 0, 167, 0, 166, 0, 168, 0, 169, 0, 167, 0, 170, 0, 171, 0, 169, 0, 170, 0, 173, 0, 172, 0, 174, 0, 175, 0, 22, 0, 175, 0, 176, 0, 21, 0, 176, 0, 177, 0, 84, 0, 177, 0, 178, 0, 70, 0, 178, 0, 179, 0, 58, 0, 60, 0, 58, 0, 179, 0, 180, 0, 182, 0, 181, 0, 183, 0, 185, 0, 184, 0, 185, 0, 187, 0, 186, 0, 187, 0, 189, 0, 188, 0, 57, 0, 55, 0, 190, 0, 191, 0, 65, 0, 57, 0, 192, 0, 79, 0, 65, 0, 193, 0, 162, 0, 192, 0, 193, 0, 194, 0, 163, 0, 194, 0, 195, 0, 164, 0, 196, 0, 165, 0, 197, 0, 198, 0, 168, 0, 165, 0, 199, 0, 170, 0, 168, 0, 199, 0, 200, 0, 173, 0, 201, 0, 202, 0, 175, 0, 202, 0, 203, 0, 176, 0, 203, 0, 204, 0, 177, 0, 204, 0, 205, 0, 178, 0, 205, 0, 206, 0, 179, 0, 207, 0, 179, 0, 206, 0, 183, 0, 181, 0, 208, 0, 209, 0, 185, 0, 183, 0, 210, 0, 187, 0, 185, 0, 211, 0, 189, 0, 187, 0, 190, 0, 213, 0, 212, 0, 191, 0, 214, 0, 212, 0, 192, 0, 191, 0, 215, 0, 216, 0, 193, 0, 217, 0, 218, 0, 194, 0, 193, 0, 218, 0, 219, 0, 195, 0, 196, 0, 221, 0, 220, 0, 222, 0, 198, 0, 196, 0, 223, 0, 199, 0, 198, 0, 223, 0, 224, 0, 200, 0, 225, 0, 226, 0, 202, 0, 226, 0, 227, 0, 203, 0, 227, 0, 228, 0, 204, 0, 228, 0, 229, 0, 205, 0, 229, 0, 230, 0, 206, 0, 231, 0, 206, 0, 230, 0, 232, 0, 208, 0, 233, 0, 234, 0, 235, 0, 209, 0, 235, 0, 236, 0, 210, 0, 236, 0, 237, 0, 211, 0, 238, 0, 211, 0, 237, 0, 239, 0, 215, 0, 212, 0, 217, 0, 215, 0, 239, 0, 240, 0, 216, 0, 241, 0, 240, 0, 242, 0, 218, 0, 242, 0, 243, 0, 219, 0, 244, 0, 245, 0, 220, 0, 246, 0, 222, 0, 245, 0, 247, 0, 223, 0, 222, 0, 247, 0, 248, 0, 224, 0, 249, 0, 250, 0, 226, 0, 250, 0, 251, 0, 227, 0, 251, 0, 252, 0, 228, 0, 252, 0, 253, 0, 229, 0, 253, 0, 254, 0, 230, 0, 255, 0, 230, 0, 254, 0, 234, 0, 233, 0, 0, 1, 1, 1, 2, 1, 235, 0, 2, 1, 3, 1, 236, 0, 3, 1, 4, 1, 237, 0, 5, 1, 7, 1, 6, 1, 8, 1, 239, 0, 5, 1, 239, 0, 8, 1, 9, 1, 240, 0, 9, 1, 10, 1, 11, 1, 12, 1, 242, 0, 13, 1, 243, 0, 242, 0, 14, 1, 244, 0, 15, 1, 16, 1, 246, 0, 244, 0, 17, 1, 247, 0, 246, 0, 17, 1, 18, 1, 248, 0, 19, 1, 20, 1, 250, 0, 20, 1, 21, 1, 251, 0, 21, 1, 22, 1, 252, 0, 22, 1, 23, 1, 253, 0, 23, 1, 24, 1, 254, 0, 25, 1, 254, 0, 24, 1, 1, 1, 0, 1, 26, 1, 27, 1, 28, 1, 2, 1, 28, 1, 29, 1, 3, 1, 29, 1, 30, 1, 4, 1, 6, 1, 32, 1, 31, 1, 33, 1, 8, 1, 34, 1, 8, 1, 33, 1, 10, 1, 46, 0, 11, 1, 10, 1, 47, 0, 12, 1, 11, 1, 13, 0, 36, 1, 35, 1, 14, 1, 36, 1, 13, 0, 16, 1, 14, 1, 131, 0, 17, 1, 16, 1, 161, 0, 159, 0, 36, 0, 18, 1, 6, 0, 7, 0, 20, 1, 7, 0, 49, 0, 21, 1, 49, 0, 94, 0, 22, 1, 94, 0, 86, 0, 23, 1, 86, 0, 31, 0, 24, 1, 37, 1, 24, 1, 31, 0, 27, 1, 26, 1, 42, 0, 139, 0, 28, 1, 27, 1, 113, 0, 29, 1, 28, 1, 113, 0, 38, 1, 30, 1, 31, 1, 32, 1, 25, 0, 78, 0, 33, 1, 31, 1, 10, 1, 33, 1, 78, 0, 0, 0, 1, 0, 48, 0, 3, 0, 4, 0, 44, 0, 0, 0, 6, 0, 50, 0, 8, 0, 9, 0, 39, 1, 11, 0, 12, 0, 51, 0, 14, 0, 15, 0, 91, 0, 17, 0, 18, 0, 38, 0, 20, 0, 21, 0, 93, 0, 23, 0, 24, 0, 62, 0, 26, 0, 27, 0, 40, 1, 29, 0, 30, 0, 63, 0, 32, 0, 33, 0, 73, 0, 35, 0, 36, 0, 159, 0, 38, 0, 39, 0, 92, 0, 40, 0, 41, 0, 155, 0, 43, 0, 44, 0, 156, 0, 45, 0, 46, 0, 99, 0, 48, 0, 7, 0, 0, 0, 65, 0, 56, 0, 57, 0, 67, 0, 28, 0, 26, 0, 69, 0, 58, 0, 59, 0, 71, 0, 31, 0, 86, 0, 72, 0, 30, 0, 71, 0, 73, 0, 74, 0, 32, 0, 76, 0, 62, 0, 61, 0, 78, 0, 62, 0, 77, 0, 79, 0, 66, 0, 65, 0, 81, 0, 68, 0, 67, 0, 83, 0, 70, 0, 69, 0, 85, 0, 86, 0, 94, 0, 87, 0, 71, 0, 85, 0, 74, 0, 88, 0, 95, 0, 89, 0, 76, 0, 41, 1, 90, 0, 77, 0, 89, 0, 91, 0, 80, 0, 79, 0, 92, 0, 82, 0, 81, 0, 93, 0, 84, 0, 83, 0, 48, 0, 94, 0, 49, 0, 48, 0, 87, 0, 85, 0, 95, 0, 43, 0, 156, 0, 96, 0, 97, 0, 42, 1, 99, 0, 90, 0, 89, 0, 100, 0, 101, 0, 103, 0, 103, 0, 104, 0, 100, 0, 105, 0, 106, 0, 104, 0, 107, 0, 108, 0, 106, 0, 109, 0, 110, 0, 108, 0, 112, 0, 111, 0, 138, 0, 113, 0, 114, 0, 38, 1, 116, 0, 117, 0, 119, 0, 119, 0, 120, 0, 116, 0, 121, 0, 122, 0, 120, 0, 124, 0, 96, 0, 42, 1, 126, 0, 8, 0, 39, 1, 127, 0, 128, 0, 8, 0, 130, 0, 13, 0, 11, 0, 103, 0, 132, 0, 133, 0, 133, 0, 105, 0, 103, 0, 134, 0, 107, 0, 105, 0, 135, 0, 109, 0, 107, 0, 136, 0, 111, 0, 109, 0, 138, 0, 137, 0, 154, 0, 139, 0, 115, 0, 113, 0, 119, 0, 141, 0, 142, 0, 142, 0, 121, 0, 119, 0, 143, 0, 123, 0, 121, 0, 144, 0, 145, 0, 123, 0, 147, 0, 148, 0, 43, 1, 150, 0, 148, 0, 149, 0, 152, 0, 151, 0, 150, 0, 133, 0, 17, 0, 38, 0, 38, 0, 134, 0, 133, 0, 92, 0, 135, 0, 134, 0, 81, 0, 136, 0, 135, 0, 67, 0, 137, 0, 136, 0, 154, 0, 26, 0, 40, 1, 40, 0, 140, 0, 139, 0, 142, 0, 34, 0, 32, 0, 74, 0, 142, 0, 32, 0, 74, 0, 144, 0, 143, 0, 156, 0, 144, 0, 95, 0, 156, 0, 157, 0, 146, 0, 4, 0, 157, 0, 44, 0, 159, 0, 160, 0, 35, 0, 162, 0, 79, 0, 192, 0, 162, 0, 14, 0, 91, 0, 163, 0, 53, 0, 14, 0, 165, 0, 166, 0, 197, 0, 168, 0, 167, 0, 165, 0, 170, 0, 169, 0, 168, 0, 170, 0, 172, 0, 171, 0, 174, 0, 22, 0, 54, 0, 175, 0, 21, 0, 22, 0, 176, 0, 84, 0, 21, 0, 177, 0, 70, 0, 84, 0, 178, 0, 58, 0, 70, 0, 60, 0, 179, 0, 207, 0, 180, 0, 181, 0, 183, 0, 183, 0, 184, 0, 180, 0, 185, 0, 186, 0, 184, 0, 187, 0, 188, 0, 186, 0, 57, 0, 190, 0, 214, 0, 191, 0, 57, 0, 214, 0, 192, 0, 65, 0, 191, 0, 193, 0, 192, 0, 217, 0, 193, 0, 163, 0, 162, 0, 194, 0, 164, 0, 163, 0, 196, 0, 197, 0, 221, 0, 198, 0, 165, 0, 196, 0, 199, 0, 168, 0, 198, 0, 199, 0, 173, 0, 170, 0, 201, 0, 175, 0, 174, 0, 202, 0, 176, 0, 175, 0, 203, 0, 177, 0, 176, 0, 204, 0, 178, 0, 177, 0, 205, 0, 179, 0, 178, 0, 207, 0, 206, 0, 231, 0, 183, 0, 208, 0, 232, 0, 209, 0, 183, 0, 232, 0, 210, 0, 185, 0, 209, 0, 211, 0, 187, 0, 210, 0, 190, 0, 212, 0, 214, 0, 191, 0, 212, 0, 215, 0, 192, 0, 215, 0, 217, 0, 216, 0, 217, 0, 241, 0, 218, 0, 193, 0, 216, 0, 218, 0, 195, 0, 194, 0, 196, 0, 220, 0, 245, 0, 222, 0, 196, 0, 245, 0, 223, 0, 198, 0, 222, 0, 223, 0, 200, 0, 199, 0, 225, 0, 202, 0, 201, 0, 226, 0, 203, 0, 202, 0, 227, 0, 204, 0, 203, 0, 228, 0, 205, 0, 204, 0, 229, 0, 206, 0, 205, 0, 231, 0, 230, 0, 255, 0, 232, 0, 233, 0, 234, 0, 234, 0, 209, 0, 232, 0, 235, 0, 210, 0, 209, 0, 236, 0, 211, 0, 210, 0, 238, 0, 237, 0, 44, 1, 239, 0, 212, 0, 5, 1, 217, 0, 239, 0, 241, 0, 240, 0, 241, 0, 9, 1, 240, 0, 218, 0, 216, 0, 242, 0, 219, 0, 218, 0, 244, 0, 220, 0, 15, 1, 246, 0, 245, 0, 244, 0, 247, 0, 222, 0, 246, 0, 247, 0, 224, 0, 223, 0, 249, 0, 226, 0, 225, 0, 250, 0, 227, 0, 226, 0, 251, 0, 228, 0, 227, 0, 252, 0, 229, 0, 228, 0, 253, 0, 230, 0, 229, 0, 255, 0, 254, 0, 25, 1, 234, 0, 0, 1, 1, 1, 1, 1, 235, 0, 234, 0, 2, 1, 236, 0, 235, 0, 3, 1, 237, 0, 236, 0, 5, 1, 6, 1, 34, 1, 8, 1, 5, 1, 34, 1, 239, 0, 9, 1, 241, 0, 240, 0, 10, 1, 11, 1, 11, 1, 242, 0, 240, 0, 13, 1, 242, 0, 12, 1, 14, 1, 15, 1, 36, 1, 16, 1, 244, 0, 14, 1, 17, 1, 246, 0, 16, 1, 17, 1, 248, 0, 247, 0, 19, 1, 250, 0, 249, 0, 20, 1, 251, 0, 250, 0, 21, 1, 252, 0, 251, 0, 22, 1, 253, 0, 252, 0, 23, 1, 254, 0, 253, 0, 25, 1, 24, 1, 37, 1, 1, 1, 26, 1, 27, 1, 27, 1, 2, 1, 1, 1, 28, 1, 3, 1, 2, 1, 29, 1, 4, 1, 3, 1, 6, 1, 31, 1, 34, 1, 33, 1, 34, 1, 31, 1, 8, 1, 10, 1, 9, 1, 46, 0, 10, 1, 90, 0, 47, 0, 11, 1, 46, 0, 13, 0, 35, 1, 12, 0, 14, 1, 13, 0, 131, 0, 16, 1, 131, 0, 161, 0, 17, 1, 161, 0, 159, 0, 159, 0, 18, 1, 17, 1, 6, 0, 20, 1, 19, 1, 7, 0, 21, 1, 20, 1, 49, 0, 22, 1, 21, 1, 94, 0, 23, 1, 22, 1, 86, 0, 24, 1, 23, 1, 37, 1, 31, 0, 29, 0, 27, 1, 42, 0, 40, 0, 139, 0, 27, 1, 40, 0, 113, 0, 28, 1, 139, 0, 113, 0, 30, 1, 29, 1, 31, 1, 25, 0, 23, 0, 78, 0, 31, 1, 23, 0, 10, 1, 78, 0, 90, 0 ),
"blend_shape_data": [  ],
"format": 97559,
"index_count": 1248,
"material": ExtResource( 2 ),
"name": "lambert2",
"primitive": 4,
"skeleton_aabb": [  ],
"vertex_count": 301
}

[node name="BrokenPillarTop" type="Spatial"]
transform = Transform( 0.87, 0, 0, 0, 0.87, 0, 0, 0, 0.87, 0, 0, 0 )

[node name="BrokenPillarTop" type="MeshInstance" parent="."]
transform = Transform( 0.01, 0, 0, 0, -1.62921e-09, -0.01, 0, 0.01, -1.62921e-09, 7.56979e-10, 0, 0 )
mesh = SubResource( 1 )
material/0 = ExtResource( 1 )

[node name="AnimationPlayer" type="AnimationPlayer" parent="."]
