[gd_scene load_steps=3 format=2]

[ext_resource path="res://Assets/Environment/Textures/HQMaterial.tres" type="Material" id=1]
[ext_resource path="res://Assets/Environment/RawMeshes/EliteHQReimport.dae" type="PackedScene" id=2]

[node name="EliteHQReimport" instance=ExtResource( 2 )]

[node name="EliteHQ" parent="." index="0"]
material/0 = ExtResource( 1 )
