[gd_scene load_steps=4 format=2]

[ext_resource path="res://Assets/Environment/RawMeshes/lambert1.material" type="Material" id=1]
[ext_resource path="res://Assets/Environment/RawMeshes/lambert5.material" type="Material" id=2]


[sub_resource type="ArrayMesh" id=1]
resource_name = "GutterMesh"
surfaces/0 = {
"aabb": AABB( -24.1755, -5.30676, -3.95278, 48.351, 6.14199, 7.90556 ),
"array_data": PoolByteArray( 110, 113, 31, 192, 155, 208, 85, 63, 71, 250, 124, 64, 0, 0, 127, 0, 127, 0, 0, 127, 252, 49, 71, 27, 99, 103, 193, 193, 155, 208, 85, 63, 71, 250, 124, 64, 0, 0, 127, 0, 127, 0, 0, 127, 0, 0, 71, 27, 99, 103, 193, 193, 45, 161, 34, 62, 71, 250, 124, 64, 0, 0, 127, 0, 126, 0, 0, 127, 0, 0, 37, 34, 110, 113, 31, 192, 45, 161, 34, 62, 71, 250, 124, 64, 0, 0, 127, 0, 127, 0, 0, 127, 252, 49, 37, 34, 110, 113, 31, 192, 247, 32, 4, 61, 236, 143, 253, 190, 1, 126, 0, 0, 126, 255, 0, 127, 51, 50, 40, 59, 99, 103, 193, 193, 199, 148, 143, 62, 236, 143, 253, 62, 1, 126, 0, 0, 126, 255, 0, 127, 0, 0, 59, 59, 110, 113, 31, 192, 247, 32, 4, 61, 236, 143, 253, 62, 1, 126, 0, 0, 126, 255, 0, 127, 51, 50, 59, 59, 99, 103, 193, 193, 199, 148, 143, 62, 236, 143, 253, 190, 1, 126, 0, 0, 126, 255, 0, 127, 0, 0, 40, 59, 110, 113, 31, 192, 45, 161, 34, 62, 71, 250, 124, 192, 0, 0, 129, 0, 127, 0, 0, 129, 220, 56, 37, 34, 99, 103, 193, 193, 45, 161, 34, 62, 71, 250, 124, 192, 0, 0, 129, 0, 127, 0, 0, 129, 186, 54, 37, 34, 99, 103, 193, 193, 155, 208, 85, 63, 71, 250, 124, 192, 0, 0, 129, 0, 126, 0, 0, 129, 186, 54, 71, 27, 110, 113, 31, 192, 155, 208, 85, 63, 71, 250, 124, 192, 0, 0, 129, 0, 127, 0, 0, 129, 220, 56, 71, 27, 110, 113, 31, 192, 247, 32, 4, 189, 236, 143, 253, 62, 0, 129, 0, 0, 126, 0, 0, 129, 51, 50, 189, 59, 99, 103, 193, 193, 247, 32, 4, 189, 236, 143, 253, 62, 0, 129, 0, 0, 127, 0, 0, 129, 0, 0, 189, 59, 99, 103, 193, 193, 247, 32, 4, 189, 236, 143, 253, 190, 0, 129, 0, 0, 126, 0, 0, 129, 0, 0, 170, 59, 110, 113, 31, 192, 247, 32, 4, 189, 236, 143, 253, 190, 0, 129, 0, 0, 127, 0, 0, 129, 51, 50, 170, 59, 99, 103, 193, 65, 199, 148, 143, 62, 236, 143, 253, 190, 127, 0, 0, 0, 0, 226, 133, 127, 119, 58, 46, 59, 99, 103, 193, 65, 199, 148, 143, 62, 236, 143, 253, 62, 127, 0, 0, 0, 0, 30, 133, 127, 94, 58, 46, 59, 99, 103, 193, 65, 247, 32, 4, 189, 236, 143, 253, 62, 127, 0, 0, 0, 0, 27, 133, 127, 94, 58, 48, 59, 99, 103, 193, 65, 247, 32, 4, 189, 236, 143, 253, 190, 127, 0, 0, 0, 0, 229, 133, 127, 119, 58, 48, 59, 99, 103, 193, 193, 199, 148, 143, 62, 236, 143, 253, 62, 129, 0, 0, 0, 0, 30, 133, 129, 86, 59, 61, 59, 99, 103, 193, 193, 247, 32, 4, 189, 236, 143, 253, 190, 129, 0, 0, 0, 0, 229, 133, 129, 111, 59, 62, 59, 99, 103, 193, 193, 247, 32, 4, 189, 236, 143, 253, 62, 129, 0, 0, 0, 0, 27, 133, 129, 86, 59, 62, 59, 99, 103, 193, 193, 199, 148, 143, 62, 236, 143, 253, 190, 129, 0, 0, 0, 0, 226, 133, 129, 111, 59, 61, 59, 110, 113, 31, 192, 45, 161, 34, 62, 160, 76, 253, 63, 0, 131, 16, 0, 127, 0, 0, 129, 51, 50, 217, 59, 99, 103, 193, 193, 45, 161, 34, 62, 160, 76, 253, 63, 0, 131, 16, 0, 127, 0, 0, 129, 0, 0, 217, 59, 99, 103, 193, 193, 247, 32, 4, 189, 236, 143, 253, 62, 0, 131, 16, 0, 127, 0, 0, 129, 0, 0, 189, 59, 110, 113, 31, 192, 247, 32, 4, 189, 236, 143, 253, 62, 0, 131, 16, 0, 127, 0, 0, 129, 51, 50, 189, 59, 99, 103, 193, 65, 45, 161, 34, 62, 160, 76, 253, 63, 127, 0, 0, 0, 0, 35, 135, 127, 57, 58, 43, 59, 99, 103, 193, 65, 125, 105, 241, 62, 160, 76, 253, 63, 127, 0, 0, 0, 0, 35, 135, 127, 57, 58, 42, 59, 99, 103, 193, 193, 125, 105, 241, 62, 160, 76, 253, 63, 1, 125, 240, 0, 126, 255, 0, 127, 0, 0, 87, 59, 110, 113, 31, 192, 170, 177, 100, 62, 160, 76, 253, 63, 1, 125, 240, 0, 126, 255, 0, 127, 51, 50, 87, 59, 110, 113, 31, 192, 247, 32, 4, 61, 236, 143, 253, 62, 1, 125, 240, 0, 126, 255, 0, 127, 51, 50, 59, 59, 99, 103, 193, 193, 199, 148, 143, 62, 236, 143, 253, 62, 1, 125, 240, 0, 126, 255, 0, 127, 0, 0, 59, 59, 99, 103, 193, 193, 125, 105, 241, 62, 160, 76, 253, 63, 129, 0, 0, 0, 0, 35, 135, 129, 49, 59, 56, 59, 99, 103, 193, 193, 45, 161, 34, 62, 160, 76, 253, 63, 129, 0, 0, 0, 0, 35, 135, 129, 49, 59, 58, 59, 99, 103, 193, 193, 199, 148, 143, 62, 236, 143, 253, 190, 1, 125, 16, 0, 126, 255, 0, 127, 0, 0, 40, 59, 110, 113, 31, 192, 247, 32, 4, 61, 236, 143, 253, 190, 1, 125, 16, 0, 126, 255, 0, 127, 51, 50, 40, 59, 110, 113, 31, 192, 170, 177, 100, 62, 160, 76, 253, 191, 1, 125, 16, 0, 126, 255, 0, 127, 51, 50, 11, 59, 99, 103, 193, 193, 125, 105, 241, 62, 160, 76, 253, 191, 1, 125, 16, 0, 126, 255, 0, 127, 0, 0, 11, 59, 99, 103, 193, 65, 45, 161, 34, 62, 160, 76, 253, 191, 127, 0, 0, 0, 0, 221, 135, 127, 156, 58, 43, 59, 99, 103, 193, 65, 125, 105, 241, 62, 160, 76, 253, 191, 127, 0, 0, 0, 0, 221, 135, 127, 156, 58, 42, 59, 110, 113, 31, 192, 247, 32, 4, 189, 236, 143, 253, 190, 0, 131, 240, 0, 127, 0, 0, 129, 51, 50, 170, 59, 99, 103, 193, 193, 247, 32, 4, 189, 236, 143, 253, 190, 0, 131, 240, 0, 127, 0, 0, 129, 0, 0, 170, 59, 99, 103, 193, 193, 45, 161, 34, 62, 160, 76, 253, 191, 0, 131, 240, 0, 127, 0, 0, 129, 0, 0, 141, 59, 110, 113, 31, 192, 45, 161, 34, 62, 160, 76, 253, 191, 0, 131, 240, 0, 127, 0, 0, 129, 51, 50, 141, 59, 99, 103, 193, 193, 45, 161, 34, 62, 160, 76, 253, 191, 129, 0, 0, 0, 0, 221, 135, 129, 149, 59, 58, 59, 99, 103, 193, 193, 125, 105, 241, 62, 160, 76, 253, 191, 129, 0, 0, 0, 0, 221, 135, 129, 149, 59, 56, 59, 110, 113, 31, 192, 21, 164, 54, 62, 203, 186, 50, 64, 0, 130, 3, 0, 127, 0, 0, 129, 51, 50, 233, 59, 99, 103, 193, 193, 21, 164, 54, 62, 203, 186, 50, 64, 0, 130, 3, 0, 127, 0, 0, 129, 0, 0, 233, 59, 99, 103, 193, 193, 45, 161, 34, 62, 160, 76, 253, 63, 0, 130, 3, 0, 127, 0, 0, 129, 0, 0, 217, 59, 110, 113, 31, 192, 45, 161, 34, 62, 160, 76, 253, 63, 0, 130, 3, 0, 127, 0, 0, 129, 51, 50, 217, 59, 99, 103, 193, 65, 21, 164, 54, 62, 203, 186, 50, 64, 127, 0, 0, 0, 0, 9, 130, 127, 37, 58, 43, 59, 99, 103, 193, 65, 127, 141, 76, 63, 203, 186, 50, 64, 127, 0, 0, 0, 0, 84, 162, 127, 37, 58, 34, 59, 99, 103, 193, 193, 127, 141, 76, 63, 203, 186, 50, 64, 1, 117, 209, 0, 126, 255, 0, 127, 0, 0, 103, 59, 110, 113, 31, 192, 43, 5, 13, 63, 203, 186, 50, 64, 1, 117, 209, 0, 126, 255, 0, 127, 51, 50, 103, 59, 110, 113, 31, 192, 170, 177, 100, 62, 160, 76, 253, 63, 1, 117, 209, 0, 126, 255, 0, 127, 51, 50, 87, 59, 99, 103, 193, 193, 125, 105, 241, 62, 160, 76, 253, 63, 1, 117, 209, 0, 126, 255, 0, 127, 0, 0, 87, 59, 99, 103, 193, 193, 127, 141, 76, 63, 203, 186, 50, 64, 129, 0, 0, 0, 0, 84, 162, 129, 29, 59, 49, 59, 99, 103, 193, 193, 21, 164, 54, 62, 203, 186, 50, 64, 129, 0, 0, 0, 0, 9, 130, 129, 29, 59, 57, 59, 99, 103, 193, 193, 125, 105, 241, 62, 160, 76, 253, 191, 1, 117, 47, 0, 126, 255, 0, 127, 0, 0, 11, 59, 110, 113, 31, 192, 170, 177, 100, 62, 160, 76, 253, 191, 1, 117, 47, 0, 126, 255, 0, 127, 51, 50, 11, 59, 110, 113, 31, 192, 43, 5, 13, 63, 203, 186, 50, 192, 1, 117, 47, 0, 126, 255, 0, 127, 51, 50, 251, 58, 99, 103, 193, 193, 127, 141, 76, 63, 203, 186, 50, 192, 1, 117, 47, 0, 126, 255, 0, 127, 0, 0, 251, 58, 99, 103, 193, 65, 21, 164, 54, 62, 203, 186, 50, 192, 127, 0, 0, 0, 0, 247, 130, 127, 177, 58, 43, 59, 99, 103, 193, 65, 127, 141, 76, 63, 203, 186, 50, 192, 127, 0, 0, 0, 0, 172, 162, 127, 177, 58, 34, 59, 110, 113, 31, 192, 45, 161, 34, 62, 160, 76, 253, 191, 0, 130, 253, 0, 127, 0, 0, 129, 51, 50, 141, 59, 99, 103, 193, 193, 45, 161, 34, 62, 160, 76, 253, 191, 0, 130, 253, 0, 127, 0, 0, 129, 0, 0, 141, 59, 99, 103, 193, 193, 21, 164, 54, 62, 203, 186, 50, 192, 0, 130, 253, 0, 127, 0, 0, 129, 0, 0, 125, 59, 110, 113, 31, 192, 21, 164, 54, 62, 203, 186, 50, 192, 0, 130, 253, 0, 127, 0, 0, 129, 51, 50, 125, 59, 99, 103, 193, 193, 21, 164, 54, 62, 203, 186, 50, 192, 129, 0, 0, 0, 0, 247, 130, 129, 169, 59, 57, 59, 99, 103, 193, 193, 127, 141, 76, 63, 203, 186, 50, 192, 129, 0, 0, 0, 0, 172, 162, 129, 169, 59, 49, 59, 110, 113, 31, 192, 45, 161, 34, 62, 52, 215, 62, 64, 0, 130, 243, 0, 127, 0, 0, 129, 51, 50, 237, 59, 99, 103, 193, 193, 45, 161, 34, 62, 52, 215, 62, 64, 0, 130, 243, 0, 127, 0, 0, 129, 0, 0, 237, 59, 99, 103, 193, 193, 21, 164, 54, 62, 203, 186, 50, 64, 0, 130, 243, 0, 127, 0, 0, 129, 0, 0, 233, 59, 110, 113, 31, 192, 21, 164, 54, 62, 203, 186, 50, 64, 0, 130, 243, 0, 127, 0, 0, 129, 51, 50, 233, 59, 99, 103, 193, 65, 45, 161, 34, 62, 52, 215, 62, 64, 127, 0, 0, 0, 0, 0, 130, 127, 32, 58, 43, 59, 99, 103, 193, 65, 155, 208, 85, 63, 171, 94, 54, 64, 127, 0, 0, 0, 0, 63, 147, 127, 35, 58, 28, 59, 99, 103, 193, 193, 127, 141, 76, 63, 203, 186, 50, 64, 0, 42, 137, 0, 126, 0, 0, 129, 186, 54, 71, 27, 110, 113, 31, 192, 155, 208, 85, 63, 171, 94, 54, 64, 0, 37, 135, 0, 126, 0, 0, 129, 220, 56, 0, 0, 110, 113, 31, 192, 43, 5, 13, 63, 203, 186, 50, 64, 0, 37, 135, 0, 126, 0, 0, 129, 220, 56, 71, 27, 99, 103, 193, 193, 155, 208, 85, 63, 171, 94, 54, 64, 0, 42, 137, 0, 126, 0, 0, 129, 186, 54, 0, 0, 99, 103, 193, 193, 45, 161, 34, 62, 52, 215, 62, 64, 129, 0, 0, 0, 0, 0, 130, 129, 24, 59, 58, 59, 99, 103, 193, 193, 155, 208, 85, 63, 171, 94, 54, 64, 129, 0, 0, 0, 0, 63, 147, 129, 27, 59, 42, 59, 110, 113, 31, 192, 155, 208, 85, 63, 171, 94, 54, 192, 0, 37, 121, 0, 126, 0, 0, 127, 252, 49, 0, 0, 99, 103, 193, 193, 155, 208, 85, 63, 171, 94, 54, 192, 0, 42, 119, 0, 126, 0, 0, 127, 0, 0, 0, 0, 99, 103, 193, 193, 127, 141, 76, 63, 203, 186, 50, 192, 0, 42, 119, 0, 126, 0, 0, 127, 0, 0, 71, 27, 110, 113, 31, 192, 43, 5, 13, 63, 203, 186, 50, 192, 0, 37, 121, 0, 126, 0, 0, 127, 252, 49, 71, 27, 99, 103, 193, 65, 45, 161, 34, 62, 52, 215, 62, 192, 127, 0, 0, 0, 0, 0, 130, 127, 182, 58, 43, 59, 99, 103, 193, 65, 155, 208, 85, 63, 171, 94, 54, 192, 127, 0, 0, 0, 0, 193, 147, 127, 178, 58, 28, 59, 110, 113, 31, 192, 21, 164, 54, 62, 203, 186, 50, 192, 0, 130, 13, 0, 127, 0, 0, 129, 51, 50, 125, 59, 99, 103, 193, 193, 21, 164, 54, 62, 203, 186, 50, 192, 0, 130, 13, 0, 127, 0, 0, 129, 0, 0, 125, 59, 99, 103, 193, 193, 45, 161, 34, 62, 52, 215, 62, 192, 0, 130, 13, 0, 127, 0, 0, 129, 0, 0, 122, 59, 110, 113, 31, 192, 45, 161, 34, 62, 52, 215, 62, 192, 0, 130, 13, 0, 126, 0, 0, 129, 51, 50, 122, 59, 99, 103, 193, 193, 45, 161, 34, 62, 52, 215, 62, 192, 129, 0, 0, 0, 0, 0, 130, 129, 174, 59, 58, 59, 99, 103, 193, 193, 155, 208, 85, 63, 171, 94, 54, 192, 129, 0, 0, 0, 0, 193, 147, 129, 170, 59, 42, 59, 110, 113, 31, 192, 45, 161, 34, 62, 71, 250, 124, 64, 0, 129, 0, 0, 126, 0, 0, 129, 51, 50, 0, 60, 99, 103, 193, 193, 45, 161, 34, 62, 71, 250, 124, 64, 0, 129, 0, 0, 127, 0, 0, 129, 0, 0, 0, 60, 99, 103, 193, 193, 45, 161, 34, 62, 52, 215, 62, 64, 0, 129, 0, 0, 127, 0, 0, 129, 0, 0, 237, 59, 110, 113, 31, 192, 45, 161, 34, 62, 52, 215, 62, 64, 0, 129, 0, 0, 127, 0, 0, 129, 51, 50, 237, 59, 99, 103, 193, 65, 155, 208, 85, 63, 71, 250, 124, 64, 127, 0, 0, 0, 0, 0, 129, 127, 7, 58, 28, 59, 99, 103, 193, 65, 45, 161, 34, 62, 71, 250, 124, 64, 127, 0, 0, 0, 0, 0, 129, 127, 7, 58, 43, 59, 99, 103, 193, 193, 155, 208, 85, 63, 71, 250, 124, 64, 0, 127, 0, 0, 127, 0, 0, 127, 46, 54, 188, 37, 110, 113, 31, 192, 155, 208, 85, 63, 71, 250, 124, 64, 0, 127, 0, 0, 127, 0, 0, 127, 164, 56, 188, 37, 110, 113, 31, 192, 155, 208, 85, 63, 171, 94, 54, 64, 0, 127, 0, 0, 127, 0, 0, 127, 164, 56, 37, 34, 99, 103, 193, 193, 155, 208, 85, 63, 171, 94, 54, 64, 0, 127, 0, 0, 127, 0, 0, 127, 46, 54, 37, 34, 99, 103, 193, 193, 155, 208, 85, 63, 71, 250, 124, 64, 129, 0, 0, 0, 0, 0, 129, 129, 0, 59, 42, 59, 99, 103, 193, 193, 45, 161, 34, 62, 71, 250, 124, 64, 129, 0, 0, 0, 0, 0, 129, 129, 0, 59, 58, 59, 99, 103, 193, 193, 155, 208, 85, 63, 171, 94, 54, 192, 0, 127, 0, 0, 127, 0, 0, 127, 46, 54, 50, 40, 110, 113, 31, 192, 155, 208, 85, 63, 171, 94, 54, 192, 0, 127, 0, 0, 127, 0, 0, 127, 164, 56, 50, 40, 110, 113, 31, 192, 155, 208, 85, 63, 71, 250, 124, 192, 0, 127, 0, 0, 126, 0, 0, 127, 164, 56, 188, 37, 99, 103, 193, 193, 155, 208, 85, 63, 71, 250, 124, 192, 0, 127, 0, 0, 127, 0, 0, 127, 46, 54, 188, 37, 99, 103, 193, 65, 155, 208, 85, 63, 71, 250, 124, 192, 127, 0, 0, 0, 0, 0, 129, 127, 206, 58, 28, 59, 99, 103, 193, 65, 45, 161, 34, 62, 71, 250, 124, 192, 127, 0, 0, 0, 0, 0, 129, 127, 206, 58, 43, 59, 110, 113, 31, 192, 45, 161, 34, 62, 52, 215, 62, 192, 0, 129, 0, 0, 127, 0, 0, 129, 51, 50, 122, 59, 99, 103, 193, 193, 45, 161, 34, 62, 52, 215, 62, 192, 0, 129, 0, 0, 127, 0, 0, 129, 0, 0, 122, 59, 99, 103, 193, 193, 45, 161, 34, 62, 71, 250, 124, 192, 0, 129, 0, 0, 127, 0, 0, 129, 0, 0, 103, 59, 110, 113, 31, 192, 45, 161, 34, 62, 71, 250, 124, 192, 0, 129, 0, 0, 127, 0, 0, 129, 51, 50, 103, 59, 99, 103, 193, 193, 155, 208, 85, 63, 71, 250, 124, 192, 129, 0, 0, 0, 0, 0, 129, 129, 198, 59, 42, 59, 99, 103, 193, 193, 45, 161, 34, 62, 71, 250, 124, 192, 129, 0, 0, 0, 0, 0, 129, 129, 198, 59, 58, 59, 114, 133, 33, 64, 155, 208, 85, 63, 71, 250, 124, 64, 0, 127, 0, 0, 127, 0, 0, 127, 255, 56, 188, 37, 114, 133, 33, 64, 155, 208, 85, 63, 171, 94, 54, 64, 0, 127, 0, 0, 127, 0, 0, 127, 255, 56, 37, 34, 114, 133, 33, 64, 43, 5, 13, 63, 203, 186, 50, 64, 0, 37, 135, 0, 126, 0, 0, 129, 53, 57, 71, 27, 114, 133, 33, 64, 155, 208, 85, 63, 171, 94, 54, 64, 0, 37, 135, 0, 126, 0, 0, 129, 53, 57, 0, 0, 114, 133, 33, 64, 43, 5, 13, 63, 203, 186, 50, 64, 255, 117, 209, 0, 126, 1, 0, 127, 162, 51, 103, 59, 114, 133, 33, 64, 170, 177, 100, 62, 160, 76, 253, 63, 255, 117, 209, 0, 126, 1, 0, 127, 162, 51, 87, 59, 114, 133, 33, 64, 170, 177, 100, 62, 160, 76, 253, 191, 255, 117, 47, 0, 126, 1, 0, 127, 162, 51, 11, 59, 114, 133, 33, 64, 43, 5, 13, 63, 203, 186, 50, 192, 255, 117, 47, 0, 126, 1, 0, 127, 162, 51, 251, 58, 114, 133, 33, 64, 43, 5, 13, 63, 203, 186, 50, 192, 0, 37, 121, 0, 126, 0, 0, 127, 95, 51, 71, 27, 114, 133, 33, 64, 155, 208, 85, 63, 171, 94, 54, 192, 0, 37, 121, 0, 126, 0, 0, 127, 95, 51, 0, 0, 114, 133, 33, 64, 155, 208, 85, 63, 171, 94, 54, 192, 0, 127, 0, 0, 127, 0, 0, 127, 255, 56, 50, 40, 114, 133, 33, 64, 155, 208, 85, 63, 71, 250, 124, 192, 0, 127, 0, 0, 127, 0, 0, 127, 255, 56, 188, 37, 114, 133, 33, 64, 155, 208, 85, 63, 71, 250, 124, 192, 0, 0, 129, 0, 127, 0, 0, 129, 53, 57, 71, 27, 114, 133, 33, 64, 45, 161, 34, 62, 71, 250, 124, 192, 0, 0, 129, 0, 127, 0, 0, 129, 53, 57, 37, 34, 114, 133, 33, 64, 45, 161, 34, 62, 52, 215, 62, 192, 0, 129, 0, 0, 127, 0, 0, 129, 162, 51, 122, 59, 114, 133, 33, 64, 45, 161, 34, 62, 71, 250, 124, 192, 0, 129, 0, 0, 127, 0, 0, 129, 162, 51, 103, 59, 114, 133, 33, 64, 21, 164, 54, 62, 203, 186, 50, 192, 0, 130, 13, 0, 126, 0, 0, 129, 162, 51, 125, 59, 114, 133, 33, 64, 45, 161, 34, 62, 52, 215, 62, 192, 0, 130, 13, 0, 126, 0, 0, 129, 162, 51, 122, 59, 114, 133, 33, 64, 45, 161, 34, 62, 160, 76, 253, 191, 0, 130, 253, 0, 127, 0, 0, 129, 162, 51, 141, 59, 114, 133, 33, 64, 21, 164, 54, 62, 203, 186, 50, 192, 0, 130, 253, 0, 127, 0, 0, 129, 162, 51, 125, 59, 114, 133, 33, 64, 45, 161, 34, 62, 160, 76, 253, 63, 0, 130, 3, 0, 127, 0, 0, 129, 162, 51, 217, 59, 114, 133, 33, 64, 21, 164, 54, 62, 203, 186, 50, 64, 0, 130, 3, 0, 127, 0, 0, 129, 162, 51, 233, 59, 114, 133, 33, 64, 21, 164, 54, 62, 203, 186, 50, 64, 0, 130, 243, 0, 126, 0, 0, 129, 162, 51, 233, 59, 114, 133, 33, 64, 45, 161, 34, 62, 52, 215, 62, 64, 0, 130, 243, 0, 126, 0, 0, 129, 162, 51, 237, 59, 114, 133, 33, 64, 45, 161, 34, 62, 52, 215, 62, 64, 0, 129, 0, 0, 127, 0, 0, 129, 162, 51, 237, 59, 114, 133, 33, 64, 45, 161, 34, 62, 71, 250, 124, 64, 0, 129, 0, 0, 127, 0, 0, 129, 162, 51, 0, 60, 114, 133, 33, 64, 155, 208, 85, 63, 71, 250, 124, 64, 0, 0, 127, 0, 127, 0, 0, 127, 95, 51, 71, 27, 114, 133, 33, 64, 45, 161, 34, 62, 71, 250, 124, 64, 0, 0, 127, 0, 127, 0, 0, 127, 95, 51, 37, 34, 99, 103, 193, 65, 155, 208, 85, 63, 71, 250, 124, 64, 0, 127, 0, 0, 127, 0, 0, 127, 140, 58, 188, 37, 99, 103, 193, 65, 155, 208, 85, 63, 171, 94, 54, 64, 0, 127, 0, 0, 127, 0, 0, 127, 140, 58, 37, 34, 99, 103, 193, 65, 127, 141, 76, 63, 203, 186, 50, 64, 0, 42, 137, 0, 126, 0, 0, 129, 179, 58, 71, 27, 99, 103, 193, 65, 155, 208, 85, 63, 171, 94, 54, 64, 0, 42, 137, 0, 126, 0, 0, 129, 179, 58, 0, 0, 99, 103, 193, 65, 127, 141, 76, 63, 203, 186, 50, 64, 255, 117, 209, 0, 126, 1, 0, 127, 233, 54, 103, 59, 99, 103, 193, 65, 125, 105, 241, 62, 160, 76, 253, 63, 255, 117, 209, 0, 126, 1, 0, 127, 233, 54, 87, 59, 114, 133, 33, 64, 170, 177, 100, 62, 160, 76, 253, 63, 255, 125, 240, 0, 126, 1, 0, 127, 162, 51, 87, 59, 99, 103, 193, 65, 125, 105, 241, 62, 160, 76, 253, 63, 255, 125, 240, 0, 126, 1, 0, 127, 233, 54, 87, 59, 99, 103, 193, 65, 199, 148, 143, 62, 236, 143, 253, 62, 255, 125, 240, 0, 126, 1, 0, 127, 233, 54, 59, 59, 114, 133, 33, 64, 247, 32, 4, 61, 236, 143, 253, 62, 255, 125, 240, 0, 126, 1, 0, 127, 162, 51, 59, 59, 99, 103, 193, 65, 199, 148, 143, 62, 236, 143, 253, 62, 255, 126, 0, 0, 126, 1, 0, 127, 233, 54, 59, 59, 114, 133, 33, 64, 247, 32, 4, 61, 236, 143, 253, 190, 255, 126, 0, 0, 126, 1, 0, 127, 162, 51, 40, 59, 114, 133, 33, 64, 247, 32, 4, 61, 236, 143, 253, 62, 255, 126, 0, 0, 126, 1, 0, 127, 162, 51, 59, 59, 99, 103, 193, 65, 199, 148, 143, 62, 236, 143, 253, 190, 255, 126, 0, 0, 126, 1, 0, 127, 233, 54, 40, 59, 99, 103, 193, 65, 199, 148, 143, 62, 236, 143, 253, 190, 255, 125, 16, 0, 126, 1, 0, 127, 233, 54, 40, 59, 114, 133, 33, 64, 170, 177, 100, 62, 160, 76, 253, 191, 255, 125, 16, 0, 126, 1, 0, 127, 162, 51, 11, 59, 114, 133, 33, 64, 247, 32, 4, 61, 236, 143, 253, 190, 255, 125, 16, 0, 126, 1, 0, 127, 162, 51, 40, 59, 99, 103, 193, 65, 125, 105, 241, 62, 160, 76, 253, 191, 255, 125, 16, 0, 126, 1, 0, 127, 233, 54, 11, 59, 99, 103, 193, 65, 125, 105, 241, 62, 160, 76, 253, 191, 255, 117, 47, 0, 126, 1, 0, 127, 233, 54, 11, 59, 99, 103, 193, 65, 127, 141, 76, 63, 203, 186, 50, 192, 255, 117, 47, 0, 126, 1, 0, 127, 233, 54, 251, 58, 99, 103, 193, 65, 127, 141, 76, 63, 203, 186, 50, 192, 0, 42, 119, 0, 126, 0, 0, 127, 173, 54, 71, 27, 99, 103, 193, 65, 155, 208, 85, 63, 171, 94, 54, 192, 0, 42, 119, 0, 126, 0, 0, 127, 173, 54, 0, 0, 99, 103, 193, 65, 155, 208, 85, 63, 171, 94, 54, 192, 0, 127, 0, 0, 127, 0, 0, 127, 140, 58, 50, 40, 99, 103, 193, 65, 155, 208, 85, 63, 71, 250, 124, 192, 0, 127, 0, 0, 127, 0, 0, 127, 140, 58, 188, 37, 99, 103, 193, 65, 45, 161, 34, 62, 71, 250, 124, 192, 0, 0, 129, 0, 127, 0, 0, 129, 179, 58, 37, 34, 99, 103, 193, 65, 155, 208, 85, 63, 71, 250, 124, 192, 0, 0, 129, 0, 127, 0, 0, 129, 179, 58, 71, 27, 99, 103, 193, 65, 45, 161, 34, 62, 52, 215, 62, 192, 0, 129, 0, 0, 127, 0, 0, 129, 233, 54, 122, 59, 99, 103, 193, 65, 45, 161, 34, 62, 71, 250, 124, 192, 0, 129, 0, 0, 127, 0, 0, 129, 233, 54, 103, 59, 99, 103, 193, 65, 21, 164, 54, 62, 203, 186, 50, 192, 0, 130, 13, 0, 127, 0, 0, 129, 233, 54, 125, 59, 99, 103, 193, 65, 45, 161, 34, 62, 52, 215, 62, 192, 0, 130, 13, 0, 127, 0, 0, 129, 233, 54, 122, 59, 99, 103, 193, 65, 45, 161, 34, 62, 160, 76, 253, 191, 0, 130, 253, 0, 126, 0, 0, 129, 233, 54, 141, 59, 99, 103, 193, 65, 21, 164, 54, 62, 203, 186, 50, 192, 0, 130, 253, 0, 127, 0, 0, 129, 233, 54, 125, 59, 99, 103, 193, 65, 247, 32, 4, 189, 236, 143, 253, 190, 0, 131, 240, 0, 127, 0, 0, 129, 233, 54, 170, 59, 114, 133, 33, 64, 247, 32, 4, 189, 236, 143, 253, 190, 0, 131, 240, 0, 127, 0, 0, 129, 162, 51, 170, 59, 114, 133, 33, 64, 45, 161, 34, 62, 160, 76, 253, 191, 0, 131, 240, 0, 127, 0, 0, 129, 162, 51, 141, 59, 99, 103, 193, 65, 45, 161, 34, 62, 160, 76, 253, 191, 0, 131, 240, 0, 127, 0, 0, 129, 233, 54, 141, 59, 114, 133, 33, 64, 247, 32, 4, 189, 236, 143, 253, 190, 0, 129, 0, 0, 127, 0, 0, 129, 162, 51, 170, 59, 99, 103, 193, 65, 247, 32, 4, 189, 236, 143, 253, 190, 0, 129, 0, 0, 126, 0, 0, 129, 233, 54, 170, 59, 114, 133, 33, 64, 247, 32, 4, 189, 236, 143, 253, 62, 0, 129, 0, 0, 126, 0, 0, 129, 162, 51, 189, 59, 99, 103, 193, 65, 247, 32, 4, 189, 236, 143, 253, 62, 0, 129, 0, 0, 127, 0, 0, 129, 233, 54, 189, 59, 114, 133, 33, 64, 247, 32, 4, 189, 236, 143, 253, 62, 0, 131, 16, 0, 127, 0, 0, 129, 162, 51, 189, 59, 99, 103, 193, 65, 247, 32, 4, 189, 236, 143, 253, 62, 0, 131, 16, 0, 127, 0, 0, 129, 233, 54, 189, 59, 114, 133, 33, 64, 45, 161, 34, 62, 160, 76, 253, 63, 0, 131, 16, 0, 127, 0, 0, 129, 162, 51, 217, 59, 99, 103, 193, 65, 45, 161, 34, 62, 160, 76, 253, 63, 0, 131, 16, 0, 127, 0, 0, 129, 233, 54, 217, 59, 99, 103, 193, 65, 45, 161, 34, 62, 160, 76, 253, 63, 0, 130, 3, 0, 126, 0, 0, 129, 233, 54, 217, 59, 99, 103, 193, 65, 21, 164, 54, 62, 203, 186, 50, 64, 0, 130, 3, 0, 127, 0, 0, 129, 233, 54, 233, 59, 99, 103, 193, 65, 21, 164, 54, 62, 203, 186, 50, 64, 0, 130, 243, 0, 127, 0, 0, 129, 233, 54, 233, 59, 99, 103, 193, 65, 45, 161, 34, 62, 52, 215, 62, 64, 0, 130, 243, 0, 127, 0, 0, 129, 233, 54, 237, 59, 99, 103, 193, 65, 45, 161, 34, 62, 52, 215, 62, 64, 0, 129, 0, 0, 127, 0, 0, 129, 233, 54, 237, 59, 99, 103, 193, 65, 45, 161, 34, 62, 71, 250, 124, 64, 0, 129, 0, 0, 127, 0, 0, 129, 233, 54, 0, 60, 99, 103, 193, 65, 45, 161, 34, 62, 71, 250, 124, 64, 0, 0, 127, 0, 127, 0, 0, 127, 173, 54, 37, 34, 99, 103, 193, 65, 155, 208, 85, 63, 71, 250, 124, 64, 0, 0, 127, 0, 127, 0, 0, 127, 173, 54, 71, 27, 110, 113, 31, 192, 247, 32, 4, 61, 236, 143, 253, 62, 5, 125, 240, 0, 126, 250, 0, 127, 85, 58, 111, 59, 110, 113, 31, 192, 170, 177, 100, 62, 160, 76, 253, 63, 5, 125, 240, 0, 126, 250, 0, 127, 85, 58, 149, 59, 193, 66, 217, 191, 21, 57, 215, 61, 43, 25, 173, 63, 5, 125, 240, 0, 126, 250, 0, 127, 101, 58, 133, 59, 193, 66, 217, 191, 107, 202, 208, 188, 40, 71, 173, 62, 5, 125, 240, 0, 126, 250, 0, 127, 101, 58, 107, 59, 114, 133, 33, 64, 170, 177, 100, 62, 160, 76, 253, 63, 0, 124, 233, 0, 127, 0, 0, 127, 186, 58, 149, 59, 193, 66, 217, 191, 21, 57, 215, 61, 43, 25, 173, 63, 0, 124, 233, 0, 127, 0, 0, 127, 101, 58, 133, 59, 110, 113, 31, 192, 170, 177, 100, 62, 160, 76, 253, 63, 0, 124, 233, 0, 127, 0, 0, 127, 85, 58, 149, 59, 203, 106, 221, 63, 21, 57, 215, 61, 43, 25, 173, 63, 0, 124, 233, 0, 127, 0, 0, 127, 170, 58, 133, 59, 114, 133, 33, 64, 247, 32, 4, 61, 236, 143, 253, 62, 251, 125, 240, 0, 126, 6, 0, 127, 186, 58, 111, 59, 203, 106, 221, 63, 21, 57, 215, 61, 43, 25, 173, 63, 251, 125, 240, 0, 126, 6, 0, 127, 170, 58, 133, 59, 114, 133, 33, 64, 170, 177, 100, 62, 160, 76, 253, 63, 251, 125, 240, 0, 126, 6, 0, 127, 186, 58, 149, 59, 203, 106, 221, 63, 107, 202, 208, 188, 40, 71, 173, 62, 251, 125, 240, 0, 126, 6, 0, 127, 170, 58, 107, 59, 193, 66, 217, 191, 107, 202, 208, 188, 40, 71, 173, 62, 9, 126, 0, 0, 126, 247, 0, 127, 101, 58, 107, 59, 110, 113, 31, 192, 247, 32, 4, 61, 236, 143, 253, 190, 9, 126, 0, 0, 126, 247, 0, 127, 85, 58, 86, 59, 110, 113, 31, 192, 247, 32, 4, 61, 236, 143, 253, 62, 9, 126, 0, 0, 126, 247, 0, 127, 85, 58, 111, 59, 193, 66, 217, 191, 107, 202, 208, 188, 40, 71, 173, 190, 9, 126, 0, 0, 126, 247, 0, 127, 101, 58, 90, 59, 203, 106, 221, 63, 107, 202, 208, 188, 40, 71, 173, 62, 247, 126, 0, 0, 126, 9, 0, 127, 170, 58, 107, 59, 114, 133, 33, 64, 247, 32, 4, 61, 236, 143, 253, 62, 247, 126, 0, 0, 126, 9, 0, 127, 186, 58, 111, 59, 203, 106, 221, 63, 107, 202, 208, 188, 40, 71, 173, 190, 247, 126, 0, 0, 126, 9, 0, 127, 170, 58, 90, 59, 114, 133, 33, 64, 247, 32, 4, 61, 236, 143, 253, 190, 247, 126, 0, 0, 126, 9, 0, 127, 186, 58, 86, 59, 110, 113, 31, 192, 247, 32, 4, 61, 236, 143, 253, 190, 5, 125, 16, 0, 126, 251, 0, 127, 85, 58, 86, 59, 193, 66, 217, 191, 21, 57, 215, 61, 43, 25, 173, 191, 5, 125, 16, 0, 126, 251, 0, 127, 101, 58, 64, 59, 110, 113, 31, 192, 170, 177, 100, 62, 160, 76, 253, 191, 5, 125, 16, 0, 126, 251, 0, 127, 85, 58, 48, 59, 193, 66, 217, 191, 107, 202, 208, 188, 40, 71, 173, 190, 5, 125, 16, 0, 126, 251, 0, 127, 101, 58, 90, 59, 203, 106, 221, 63, 107, 202, 208, 188, 40, 71, 173, 190, 251, 125, 16, 0, 126, 5, 0, 127, 170, 58, 90, 59, 114, 133, 33, 64, 247, 32, 4, 61, 236, 143, 253, 190, 251, 125, 16, 0, 126, 5, 0, 127, 186, 58, 86, 59, 203, 106, 221, 63, 21, 57, 215, 61, 43, 25, 173, 191, 251, 125, 16, 0, 126, 5, 0, 127, 170, 58, 64, 59, 114, 133, 33, 64, 170, 177, 100, 62, 160, 76, 253, 191, 251, 125, 16, 0, 126, 5, 0, 127, 186, 58, 48, 59, 114, 133, 33, 64, 170, 177, 100, 62, 160, 76, 253, 191, 0, 124, 23, 0, 127, 0, 0, 127, 186, 58, 48, 59, 110, 113, 31, 192, 170, 177, 100, 62, 160, 76, 253, 191, 0, 124, 23, 0, 127, 0, 0, 127, 85, 58, 48, 59, 193, 66, 217, 191, 21, 57, 215, 61, 43, 25, 173, 191, 0, 124, 23, 0, 127, 0, 0, 127, 101, 58, 64, 59, 203, 106, 221, 63, 21, 57, 215, 61, 43, 25, 173, 191, 0, 124, 23, 0, 127, 0, 0, 127, 170, 58, 64, 59, 110, 113, 31, 192, 30, 159, 156, 192, 160, 76, 253, 191, 0, 141, 205, 0, 127, 0, 0, 129, 232, 57, 47, 59, 114, 133, 33, 64, 30, 159, 156, 192, 160, 76, 253, 191, 0, 141, 205, 0, 127, 0, 0, 129, 78, 58, 47, 59, 134, 79, 220, 63, 181, 168, 165, 192, 156, 57, 172, 191, 0, 141, 205, 0, 127, 0, 0, 129, 62, 58, 63, 59, 126, 39, 216, 191, 181, 168, 165, 192, 156, 57, 172, 191, 0, 141, 205, 0, 127, 0, 0, 129, 249, 57, 63, 59, 126, 39, 216, 191, 254, 208, 169, 192, 95, 103, 172, 190, 226, 134, 241, 0, 123, 226, 0, 129, 249, 57, 89, 59, 110, 113, 31, 192, 105, 188, 162, 192, 236, 143, 253, 190, 226, 134, 241, 0, 123, 226, 0, 129, 232, 57, 85, 59, 126, 39, 216, 191, 181, 168, 165, 192, 156, 57, 172, 191, 226, 134, 241, 0, 123, 226, 0, 129, 249, 57, 63, 59, 110, 113, 31, 192, 30, 159, 156, 192, 160, 76, 253, 191, 226, 134, 241, 0, 123, 226, 0, 129, 232, 57, 47, 59, 126, 39, 216, 191, 254, 208, 169, 192, 95, 103, 172, 62, 223, 134, 0, 0, 122, 223, 0, 129, 249, 57, 107, 59, 110, 113, 31, 192, 105, 188, 162, 192, 236, 143, 253, 62, 223, 134, 0, 0, 122, 223, 0, 129, 232, 57, 111, 59, 126, 39, 216, 191, 254, 208, 169, 192, 95, 103, 172, 190, 223, 134, 0, 0, 122, 223, 0, 129, 249, 57, 89, 59, 110, 113, 31, 192, 105, 188, 162, 192, 236, 143, 253, 190, 223, 134, 0, 0, 122, 223, 0, 129, 232, 57, 85, 59, 114, 133, 33, 64, 30, 159, 156, 192, 160, 76, 253, 63, 0, 141, 51, 0, 127, 0, 0, 129, 78, 58, 149, 59, 110, 113, 31, 192, 30, 159, 156, 192, 160, 76, 253, 63, 0, 141, 51, 0, 127, 0, 0, 129, 232, 57, 149, 59, 126, 39, 216, 191, 181, 168, 165, 192, 156, 57, 172, 63, 0, 141, 51, 0, 127, 0, 0, 129, 249, 57, 133, 59, 134, 79, 220, 63, 181, 168, 165, 192, 156, 57, 172, 63, 0, 141, 51, 0, 127, 0, 0, 129, 62, 58, 133, 59, 110, 113, 31, 192, 105, 188, 162, 192, 236, 143, 253, 62, 226, 134, 15, 0, 123, 226, 0, 129, 232, 57, 111, 59, 126, 39, 216, 191, 181, 168, 165, 192, 156, 57, 172, 63, 226, 134, 15, 0, 123, 226, 0, 129, 249, 57, 133, 59, 110, 113, 31, 192, 30, 159, 156, 192, 160, 76, 253, 63, 226, 134, 15, 0, 123, 226, 0, 129, 232, 57, 149, 59, 126, 39, 216, 191, 254, 208, 169, 192, 95, 103, 172, 62, 226, 134, 15, 0, 123, 226, 0, 129, 249, 57, 107, 59, 114, 133, 33, 64, 105, 188, 162, 192, 236, 143, 253, 190, 30, 134, 241, 0, 123, 30, 0, 129, 78, 58, 85, 59, 134, 79, 220, 63, 181, 168, 165, 192, 156, 57, 172, 191, 30, 134, 241, 0, 123, 30, 0, 129, 62, 58, 63, 59, 114, 133, 33, 64, 30, 159, 156, 192, 160, 76, 253, 191, 30, 134, 241, 0, 123, 30, 0, 129, 78, 58, 47, 59, 134, 79, 220, 63, 254, 208, 169, 192, 95, 103, 172, 190, 30, 134, 241, 0, 123, 30, 0, 129, 62, 58, 89, 59, 134, 79, 220, 63, 254, 208, 169, 192, 95, 103, 172, 62, 33, 134, 0, 0, 122, 33, 0, 129, 62, 58, 107, 59, 114, 133, 33, 64, 105, 188, 162, 192, 236, 143, 253, 190, 33, 134, 0, 0, 122, 33, 0, 129, 78, 58, 85, 59, 114, 133, 33, 64, 105, 188, 162, 192, 236, 143, 253, 62, 33, 134, 0, 0, 122, 33, 0, 129, 78, 58, 111, 59, 134, 79, 220, 63, 254, 208, 169, 192, 95, 103, 172, 190, 33, 134, 0, 0, 122, 33, 0, 129, 62, 58, 89, 59, 114, 133, 33, 64, 105, 188, 162, 192, 236, 143, 253, 62, 30, 134, 15, 0, 123, 30, 0, 129, 78, 58, 111, 59, 114, 133, 33, 64, 30, 159, 156, 192, 160, 76, 253, 63, 30, 134, 15, 0, 123, 30, 0, 129, 78, 58, 149, 59, 134, 79, 220, 63, 181, 168, 165, 192, 156, 57, 172, 63, 30, 134, 15, 0, 123, 30, 0, 129, 62, 58, 133, 59, 134, 79, 220, 63, 254, 208, 169, 192, 95, 103, 172, 62, 30, 134, 15, 0, 123, 30, 0, 129, 62, 58, 107, 59, 126, 39, 216, 191, 128, 35, 253, 189, 156, 57, 172, 63, 126, 4, 0, 0, 0, 0, 130, 127, 62, 59, 65, 59, 193, 66, 217, 191, 107, 202, 208, 188, 40, 71, 173, 62, 126, 4, 0, 0, 0, 0, 130, 127, 89, 59, 63, 59, 193, 66, 217, 191, 21, 57, 215, 61, 43, 25, 173, 63, 126, 4, 0, 0, 0, 0, 130, 127, 62, 59, 61, 59, 126, 39, 216, 191, 122, 205, 129, 190, 95, 103, 172, 62, 126, 4, 0, 0, 0, 0, 130, 127, 89, 59, 68, 59, 134, 79, 220, 63, 133, 35, 253, 189, 156, 57, 172, 63, 0, 3, 130, 0, 127, 0, 0, 129, 227, 59, 72, 59, 126, 39, 216, 191, 128, 35, 253, 189, 156, 57, 172, 63, 0, 3, 130, 0, 127, 0, 0, 129, 155, 59, 72, 59, 193, 66, 217, 191, 21, 57, 215, 61, 43, 25, 173, 63, 0, 3, 130, 0, 127, 0, 0, 129, 155, 59, 67, 59, 203, 106, 221, 63, 21, 57, 215, 61, 43, 25, 173, 63, 0, 3, 130, 0, 127, 0, 0, 129, 228, 59, 67, 59, 134, 79, 220, 63, 133, 35, 253, 189, 156, 57, 172, 63, 130, 4, 0, 0, 0, 0, 130, 129, 209, 58, 65, 59, 203, 106, 221, 63, 107, 202, 208, 188, 40, 71, 173, 62, 130, 4, 0, 0, 0, 0, 130, 129, 236, 58, 63, 59, 134, 79, 220, 63, 122, 205, 129, 190, 95, 103, 172, 62, 130, 4, 0, 0, 0, 0, 130, 129, 236, 58, 68, 59, 203, 106, 221, 63, 21, 57, 215, 61, 43, 25, 173, 63, 130, 4, 0, 0, 0, 0, 130, 129, 209, 58, 61, 59, 134, 79, 220, 63, 122, 205, 129, 190, 95, 103, 172, 190, 130, 4, 0, 0, 0, 0, 129, 129, 254, 58, 68, 59, 134, 79, 220, 63, 122, 205, 129, 190, 95, 103, 172, 62, 130, 4, 0, 0, 0, 0, 129, 129, 236, 58, 68, 59, 203, 106, 221, 63, 107, 202, 208, 188, 40, 71, 173, 62, 130, 4, 0, 0, 0, 0, 129, 129, 236, 58, 63, 59, 203, 106, 221, 63, 107, 202, 208, 188, 40, 71, 173, 190, 130, 4, 0, 0, 0, 0, 129, 129, 254, 58, 63, 59, 134, 79, 220, 63, 133, 35, 253, 189, 156, 57, 172, 191, 130, 4, 0, 0, 0, 0, 130, 129, 25, 59, 65, 59, 134, 79, 220, 63, 122, 205, 129, 190, 95, 103, 172, 190, 130, 4, 0, 0, 0, 0, 130, 129, 254, 58, 68, 59, 203, 106, 221, 63, 107, 202, 208, 188, 40, 71, 173, 190, 130, 4, 0, 0, 0, 0, 130, 129, 254, 58, 63, 59, 203, 106, 221, 63, 21, 57, 215, 61, 43, 25, 173, 191, 130, 4, 0, 0, 0, 0, 130, 129, 25, 59, 61, 59, 193, 66, 217, 191, 21, 57, 215, 61, 43, 25, 173, 191, 0, 3, 126, 0, 127, 0, 0, 127, 155, 59, 161, 59, 134, 79, 220, 63, 133, 35, 253, 189, 156, 57, 172, 191, 0, 3, 126, 0, 127, 0, 0, 127, 227, 59, 166, 59, 203, 106, 221, 63, 21, 57, 215, 61, 43, 25, 173, 191, 0, 3, 126, 0, 127, 0, 0, 127, 228, 59, 161, 59, 126, 39, 216, 191, 128, 35, 253, 189, 156, 57, 172, 191, 0, 3, 126, 0, 127, 0, 0, 127, 155, 59, 166, 59, 126, 39, 216, 191, 128, 35, 253, 189, 156, 57, 172, 191, 126, 4, 0, 0, 0, 0, 130, 127, 134, 59, 65, 59, 193, 66, 217, 191, 107, 202, 208, 188, 40, 71, 173, 190, 126, 4, 0, 0, 0, 0, 130, 127, 107, 59, 63, 59, 126, 39, 216, 191, 122, 205, 129, 190, 95, 103, 172, 190, 126, 4, 0, 0, 0, 0, 130, 127, 107, 59, 68, 59, 193, 66, 217, 191, 21, 57, 215, 61, 43, 25, 173, 191, 126, 4, 0, 0, 0, 0, 130, 127, 134, 59, 61, 59, 126, 39, 216, 191, 122, 205, 129, 190, 95, 103, 172, 62, 126, 4, 0, 0, 0, 0, 129, 127, 89, 59, 68, 59, 193, 66, 217, 191, 107, 202, 208, 188, 40, 71, 173, 190, 126, 4, 0, 0, 0, 0, 129, 127, 107, 59, 63, 59, 193, 66, 217, 191, 107, 202, 208, 188, 40, 71, 173, 62, 126, 4, 0, 0, 0, 0, 129, 127, 89, 59, 63, 59, 126, 39, 216, 191, 122, 205, 129, 190, 95, 103, 172, 190, 126, 4, 0, 0, 0, 0, 129, 127, 107, 59, 68, 59, 110, 113, 31, 192, 114, 185, 130, 192, 160, 76, 253, 191, 0, 0, 129, 0, 127, 0, 0, 129, 232, 57, 238, 59, 114, 133, 33, 64, 45, 161, 34, 62, 160, 76, 253, 191, 0, 0, 129, 0, 127, 0, 0, 129, 83, 58, 149, 59, 114, 133, 33, 64, 114, 185, 130, 192, 160, 76, 253, 191, 0, 0, 129, 0, 127, 0, 0, 129, 83, 58, 238, 59, 110, 113, 31, 192, 45, 161, 34, 62, 160, 76, 253, 191, 0, 0, 129, 0, 127, 0, 0, 129, 232, 57, 149, 59, 126, 39, 216, 191, 128, 35, 253, 189, 156, 57, 172, 191, 0, 0, 127, 0, 127, 0, 0, 127, 155, 59, 166, 59, 126, 39, 216, 191, 9, 195, 139, 192, 156, 57, 172, 191, 0, 0, 127, 0, 126, 0, 0, 127, 155, 59, 0, 60, 134, 79, 220, 63, 133, 35, 253, 189, 156, 57, 172, 191, 0, 0, 127, 0, 126, 0, 0, 127, 227, 59, 166, 59, 134, 79, 220, 63, 9, 195, 139, 192, 156, 57, 172, 191, 0, 0, 127, 0, 127, 0, 0, 127, 227, 59, 0, 60, 110, 113, 31, 192, 45, 161, 34, 62, 160, 76, 253, 191, 129, 0, 0, 0, 0, 0, 129, 129, 152, 59, 150, 59, 110, 113, 31, 192, 114, 185, 130, 192, 160, 76, 253, 191, 129, 0, 0, 0, 0, 0, 129, 129, 152, 59, 235, 59, 110, 113, 31, 192, 247, 32, 4, 189, 236, 143, 253, 190, 129, 0, 0, 0, 0, 0, 130, 129, 112, 59, 154, 59, 110, 113, 31, 192, 189, 214, 136, 192, 236, 143, 253, 190, 129, 0, 0, 0, 0, 0, 129, 129, 112, 59, 239, 59, 126, 39, 216, 191, 122, 205, 129, 190, 95, 103, 172, 190, 127, 0, 0, 0, 0, 0, 129, 127, 107, 59, 68, 59, 126, 39, 216, 191, 9, 195, 139, 192, 156, 57, 172, 191, 127, 0, 0, 0, 0, 0, 130, 127, 134, 59, 151, 59, 126, 39, 216, 191, 128, 35, 253, 189, 156, 57, 172, 191, 127, 0, 0, 0, 0, 0, 130, 127, 134, 59, 65, 59, 126, 39, 216, 191, 82, 235, 143, 192, 95, 103, 172, 190, 127, 0, 0, 0, 0, 0, 129, 127, 107, 59, 153, 59, 110, 113, 31, 192, 247, 32, 4, 189, 236, 143, 253, 62, 129, 0, 0, 0, 0, 0, 129, 129, 86, 59, 154, 59, 110, 113, 31, 192, 189, 214, 136, 192, 236, 143, 253, 62, 129, 0, 0, 0, 0, 0, 129, 129, 86, 59, 239, 59, 126, 39, 216, 191, 82, 235, 143, 192, 95, 103, 172, 62, 127, 0, 0, 0, 0, 0, 129, 127, 89, 59, 153, 59, 126, 39, 216, 191, 122, 205, 129, 190, 95, 103, 172, 62, 127, 0, 0, 0, 0, 0, 130, 127, 89, 59, 68, 59, 110, 113, 31, 192, 45, 161, 34, 62, 160, 76, 253, 63, 0, 0, 127, 0, 127, 0, 0, 127, 85, 58, 149, 59, 110, 113, 31, 192, 114, 185, 130, 192, 160, 76, 253, 63, 0, 0, 127, 0, 127, 0, 0, 127, 85, 58, 238, 59, 114, 133, 33, 64, 45, 161, 34, 62, 160, 76, 253, 63, 0, 0, 127, 0, 127, 0, 0, 127, 191, 58, 149, 59, 114, 133, 33, 64, 114, 185, 130, 192, 160, 76, 253, 63, 0, 0, 127, 0, 127, 0, 0, 127, 191, 58, 238, 59, 126, 39, 216, 191, 9, 195, 139, 192, 156, 57, 172, 63, 0, 0, 129, 0, 126, 0, 0, 129, 155, 59, 161, 59, 134, 79, 220, 63, 133, 35, 253, 189, 156, 57, 172, 63, 0, 0, 129, 0, 126, 0, 0, 129, 227, 59, 72, 59, 134, 79, 220, 63, 9, 195, 139, 192, 156, 57, 172, 63, 0, 0, 129, 0, 127, 0, 0, 129, 227, 59, 161, 59, 126, 39, 216, 191, 128, 35, 253, 189, 156, 57, 172, 63, 0, 0, 129, 0, 127, 0, 0, 129, 155, 59, 72, 59, 110, 113, 31, 192, 114, 185, 130, 192, 160, 76, 253, 63, 129, 0, 0, 0, 0, 0, 129, 129, 46, 59, 235, 59, 110, 113, 31, 192, 45, 161, 34, 62, 160, 76, 253, 63, 129, 0, 0, 0, 0, 0, 129, 129, 46, 59, 150, 59, 126, 39, 216, 191, 9, 195, 139, 192, 156, 57, 172, 63, 127, 0, 0, 0, 0, 0, 130, 127, 62, 59, 151, 59, 126, 39, 216, 191, 128, 35, 253, 189, 156, 57, 172, 63, 127, 0, 0, 0, 0, 0, 130, 127, 62, 59, 65, 59, 114, 133, 33, 64, 247, 32, 4, 189, 236, 143, 253, 190, 127, 0, 0, 0, 0, 0, 129, 127, 4, 59, 154, 59, 114, 133, 33, 64, 114, 185, 130, 192, 160, 76, 253, 191, 127, 0, 0, 0, 0, 0, 129, 127, 43, 59, 235, 59, 114, 133, 33, 64, 45, 161, 34, 62, 160, 76, 253, 191, 127, 0, 0, 0, 0, 0, 129, 127, 43, 59, 150, 59, 114, 133, 33, 64, 189, 214, 136, 192, 236, 143, 253, 190, 127, 0, 0, 0, 0, 0, 129, 127, 4, 59, 239, 59, 134, 79, 220, 63, 133, 35, 253, 189, 156, 57, 172, 191, 129, 0, 0, 0, 0, 0, 130, 129, 25, 59, 65, 59, 134, 79, 220, 63, 9, 195, 139, 192, 156, 57, 172, 191, 129, 0, 0, 0, 0, 0, 130, 129, 25, 59, 151, 59, 134, 79, 220, 63, 122, 205, 129, 190, 95, 103, 172, 190, 129, 0, 0, 0, 0, 0, 130, 129, 254, 58, 68, 59, 134, 79, 220, 63, 82, 235, 143, 192, 95, 103, 172, 190, 129, 0, 0, 0, 0, 0, 129, 129, 254, 58, 153, 59, 114, 133, 33, 64, 189, 214, 136, 192, 236, 143, 253, 62, 127, 0, 0, 0, 0, 0, 129, 127, 233, 58, 239, 59, 114, 133, 33, 64, 247, 32, 4, 189, 236, 143, 253, 62, 127, 0, 0, 0, 0, 0, 130, 127, 233, 58, 154, 59, 134, 79, 220, 63, 122, 205, 129, 190, 95, 103, 172, 62, 129, 0, 0, 0, 0, 0, 129, 129, 236, 58, 68, 59, 134, 79, 220, 63, 82, 235, 143, 192, 95, 103, 172, 62, 129, 0, 0, 0, 0, 0, 129, 129, 236, 58, 153, 59, 114, 133, 33, 64, 114, 185, 130, 192, 160, 76, 253, 63, 127, 0, 0, 0, 0, 0, 129, 127, 194, 58, 235, 59, 114, 133, 33, 64, 45, 161, 34, 62, 160, 76, 253, 63, 127, 0, 0, 0, 0, 0, 129, 127, 194, 58, 150, 59, 134, 79, 220, 63, 9, 195, 139, 192, 156, 57, 172, 63, 129, 0, 0, 0, 0, 0, 130, 129, 209, 58, 151, 59, 134, 79, 220, 63, 133, 35, 253, 189, 156, 57, 172, 63, 129, 0, 0, 0, 0, 0, 130, 129, 209, 58, 65, 59, 114, 133, 33, 64, 30, 159, 156, 192, 160, 76, 253, 191, 0, 0, 129, 0, 127, 0, 0, 129, 83, 58, 0, 60, 110, 113, 31, 192, 30, 159, 156, 192, 160, 76, 253, 191, 0, 0, 129, 0, 127, 0, 0, 129, 232, 57, 0, 60, 110, 113, 31, 192, 30, 159, 156, 192, 160, 76, 253, 191, 129, 0, 0, 0, 0, 0, 130, 129, 152, 59, 252, 59, 110, 113, 31, 192, 105, 188, 162, 192, 236, 143, 253, 190, 129, 0, 0, 0, 0, 0, 129, 129, 112, 59, 0, 60, 110, 113, 31, 192, 105, 188, 162, 192, 236, 143, 253, 62, 129, 0, 0, 0, 0, 0, 129, 129, 86, 59, 0, 60, 110, 113, 31, 192, 30, 159, 156, 192, 160, 76, 253, 63, 0, 0, 127, 0, 127, 0, 0, 127, 85, 58, 0, 60, 114, 133, 33, 64, 30, 159, 156, 192, 160, 76, 253, 63, 0, 0, 127, 0, 127, 0, 0, 127, 191, 58, 0, 60, 110, 113, 31, 192, 30, 159, 156, 192, 160, 76, 253, 63, 129, 0, 0, 0, 0, 0, 130, 129, 46, 59, 252, 59, 114, 133, 33, 64, 30, 159, 156, 192, 160, 76, 253, 191, 127, 0, 0, 0, 0, 0, 130, 127, 43, 59, 252, 59, 114, 133, 33, 64, 105, 188, 162, 192, 236, 143, 253, 190, 127, 0, 0, 0, 0, 0, 129, 127, 4, 59, 0, 60, 114, 133, 33, 64, 105, 188, 162, 192, 236, 143, 253, 62, 127, 0, 0, 0, 0, 0, 129, 127, 233, 58, 0, 60, 114, 133, 33, 64, 30, 159, 156, 192, 160, 76, 253, 63, 127, 0, 0, 0, 0, 0, 130, 127, 194, 58, 252, 59, 134, 79, 220, 63, 9, 195, 139, 192, 156, 57, 172, 191, 0, 110, 62, 0, 127, 0, 0, 127, 216, 58, 88, 58, 126, 39, 216, 191, 9, 195, 139, 192, 156, 57, 172, 191, 0, 110, 62, 0, 127, 0, 0, 127, 147, 58, 88, 58, 244, 0, 133, 60, 35, 31, 164, 192, 0, 0, 0, 0, 0, 110, 62, 0, 126, 0, 0, 127, 182, 58, 122, 58, 126, 39, 216, 191, 181, 168, 165, 192, 156, 57, 172, 191, 0, 130, 4, 0, 127, 0, 0, 129, 249, 57, 63, 59, 134, 79, 220, 63, 181, 168, 165, 192, 156, 57, 172, 191, 0, 130, 4, 0, 127, 0, 0, 129, 62, 58, 63, 59, 244, 0, 133, 60, 35, 31, 164, 192, 0, 0, 0, 0, 0, 130, 4, 0, 127, 0, 0, 129, 27, 58, 98, 59, 126, 39, 216, 191, 9, 195, 139, 192, 156, 57, 172, 191, 41, 119, 15, 0, 120, 215, 0, 127, 108, 58, 98, 59, 126, 39, 216, 191, 82, 235, 143, 192, 95, 103, 172, 190, 41, 119, 15, 0, 120, 215, 0, 127, 108, 58, 124, 59, 244, 0, 133, 60, 35, 31, 164, 192, 0, 0, 0, 0, 41, 119, 15, 0, 120, 215, 0, 127, 143, 58, 133, 59, 126, 39, 216, 191, 254, 208, 169, 192, 95, 103, 172, 190, 16, 132, 240, 0, 125, 16, 0, 129, 249, 57, 89, 59, 126, 39, 216, 191, 181, 168, 165, 192, 156, 57, 172, 191, 16, 132, 240, 0, 125, 16, 0, 129, 249, 57, 63, 59, 244, 0, 133, 60, 35, 31, 164, 192, 0, 0, 0, 0, 16, 132, 240, 0, 125, 16, 0, 129, 27, 58, 98, 59, 126, 39, 216, 191, 82, 235, 143, 192, 95, 103, 172, 190, 44, 119, 0, 0, 119, 212, 0, 127, 77, 50, 141, 59, 126, 39, 216, 191, 82, 235, 143, 192, 95, 103, 172, 62, 44, 119, 0, 0, 119, 212, 0, 127, 77, 50, 159, 59, 244, 0, 133, 60, 35, 31, 164, 192, 0, 0, 0, 0, 44, 119, 0, 0, 119, 212, 0, 127, 216, 50, 150, 59, 126, 39, 216, 191, 254, 208, 169, 192, 95, 103, 172, 62, 13, 130, 0, 0, 126, 13, 0, 129, 249, 57, 107, 59, 126, 39, 216, 191, 254, 208, 169, 192, 95, 103, 172, 190, 13, 130, 0, 0, 126, 13, 0, 129, 249, 57, 89, 59, 244, 0, 133, 60, 35, 31, 164, 192, 0, 0, 0, 0, 13, 130, 0, 0, 126, 13, 0, 129, 27, 58, 98, 59, 126, 39, 216, 191, 9, 195, 139, 192, 156, 57, 172, 63, 0, 110, 194, 0, 127, 0, 0, 127, 232, 57, 108, 58, 134, 79, 220, 63, 9, 195, 139, 192, 156, 57, 172, 63, 0, 110, 194, 0, 127, 0, 0, 127, 46, 58, 108, 58, 244, 0, 133, 60, 35, 31, 164, 192, 0, 0, 0, 0, 0, 110, 194, 0, 126, 0, 0, 127, 11, 58, 73, 58, 134, 79, 220, 63, 181, 168, 165, 192, 156, 57, 172, 63, 0, 130, 252, 0, 127, 0, 0, 129, 62, 58, 133, 59, 126, 39, 216, 191, 181, 168, 165, 192, 156, 57, 172, 63, 0, 130, 252, 0, 127, 0, 0, 129, 249, 57, 133, 59, 244, 0, 133, 60, 35, 31, 164, 192, 0, 0, 0, 0, 0, 130, 252, 0, 127, 0, 0, 129, 27, 58, 98, 59, 126, 39, 216, 191, 82, 235, 143, 192, 95, 103, 172, 62, 41, 119, 241, 0, 120, 215, 0, 127, 15, 59, 16, 59, 126, 39, 216, 191, 9, 195, 139, 192, 156, 57, 172, 63, 41, 119, 241, 0, 120, 215, 0, 127, 15, 59, 42, 59, 244, 0, 133, 60, 35, 31, 164, 192, 0, 0, 0, 0, 41, 119, 241, 0, 120, 215, 0, 127, 50, 59, 7, 59, 126, 39, 216, 191, 181, 168, 165, 192, 156, 57, 172, 63, 16, 132, 16, 0, 125, 16, 0, 129, 249, 57, 133, 59, 126, 39, 216, 191, 254, 208, 169, 192, 95, 103, 172, 62, 16, 132, 16, 0, 125, 16, 0, 129, 249, 57, 107, 59, 244, 0, 133, 60, 35, 31, 164, 192, 0, 0, 0, 0, 16, 132, 16, 0, 125, 16, 0, 129, 27, 58, 98, 59, 134, 79, 220, 63, 82, 235, 143, 192, 95, 103, 172, 190, 215, 119, 15, 0, 120, 41, 0, 127, 65, 59, 41, 59, 134, 79, 220, 63, 9, 195, 139, 192, 156, 57, 172, 191, 215, 119, 15, 0, 120, 41, 0, 127, 65, 59, 15, 59, 244, 0, 133, 60, 35, 31, 164, 192, 0, 0, 0, 0, 215, 119, 15, 0, 120, 41, 0, 127, 31, 59, 49, 59, 134, 79, 220, 63, 181, 168, 165, 192, 156, 57, 172, 191, 240, 132, 240, 0, 125, 240, 0, 129, 62, 58, 63, 59, 134, 79, 220, 63, 254, 208, 169, 192, 95, 103, 172, 190, 240, 132, 240, 0, 125, 240, 0, 129, 62, 58, 89, 59, 244, 0, 133, 60, 35, 31, 164, 192, 0, 0, 0, 0, 240, 132, 240, 0, 125, 240, 0, 129, 27, 58, 98, 59, 134, 79, 220, 63, 82, 235, 143, 192, 95, 103, 172, 62, 212, 119, 0, 0, 119, 44, 0, 127, 244, 58, 63, 59, 134, 79, 220, 63, 82, 235, 143, 192, 95, 103, 172, 190, 212, 119, 0, 0, 119, 44, 0, 127, 244, 58, 46, 59, 244, 0, 133, 60, 35, 31, 164, 192, 0, 0, 0, 0, 212, 119, 0, 0, 119, 44, 0, 127, 209, 58, 54, 59, 134, 79, 220, 63, 254, 208, 169, 192, 95, 103, 172, 190, 243, 130, 0, 0, 126, 243, 0, 129, 62, 58, 89, 59, 134, 79, 220, 63, 254, 208, 169, 192, 95, 103, 172, 62, 243, 130, 0, 0, 126, 243, 0, 129, 62, 58, 107, 59, 244, 0, 133, 60, 35, 31, 164, 192, 0, 0, 0, 0, 243, 130, 0, 0, 126, 243, 0, 129, 27, 58, 98, 59, 134, 79, 220, 63, 9, 195, 139, 192, 156, 57, 172, 63, 215, 119, 241, 0, 120, 41, 0, 127, 151, 58, 133, 59, 134, 79, 220, 63, 82, 235, 143, 192, 95, 103, 172, 62, 215, 119, 241, 0, 120, 41, 0, 127, 151, 58, 107, 59, 244, 0, 133, 60, 35, 31, 164, 192, 0, 0, 0, 0, 215, 119, 241, 0, 120, 41, 0, 127, 116, 58, 98, 59, 134, 79, 220, 63, 254, 208, 169, 192, 95, 103, 172, 62, 240, 132, 16, 0, 125, 240, 0, 129, 62, 58, 107, 59, 134, 79, 220, 63, 181, 168, 165, 192, 156, 57, 172, 63, 240, 132, 16, 0, 125, 240, 0, 129, 62, 58, 133, 59, 244, 0, 133, 60, 35, 31, 164, 192, 0, 0, 0, 0, 240, 132, 16, 0, 125, 240, 0, 129, 27, 58, 98, 59 ),
"array_index_data": PoolByteArray( 0, 0, 2, 0, 1, 0, 0, 0, 3, 0, 2, 0, 4, 0, 6, 0, 5, 0, 5, 0, 7, 0, 4, 0, 8, 0, 10, 0, 9, 0, 8, 0, 11, 0, 10, 0, 12, 0, 14, 0, 13, 0, 12, 0, 15, 0, 14, 0, 16, 0, 18, 0, 17, 0, 18, 0, 16, 0, 19, 0, 20, 0, 22, 0, 21, 0, 21, 0, 23, 0, 20, 0, 24, 0, 26, 0, 25, 0, 24, 0, 27, 0, 26, 0, 28, 0, 29, 0, 17, 0, 17, 0, 18, 0, 28, 0, 30, 0, 32, 0, 31, 0, 30, 0, 33, 0, 32, 0, 34, 0, 35, 0, 20, 0, 20, 0, 35, 0, 22, 0, 36, 0, 38, 0, 37, 0, 36, 0, 39, 0, 38, 0, 19, 0, 16, 0, 40, 0, 16, 0, 41, 0, 40, 0, 42, 0, 44, 0, 43, 0, 42, 0, 45, 0, 44, 0, 23, 0, 21, 0, 46, 0, 46, 0, 47, 0, 23, 0, 48, 0, 50, 0, 49, 0, 48, 0, 51, 0, 50, 0, 52, 0, 53, 0, 29, 0, 29, 0, 28, 0, 52, 0, 54, 0, 56, 0, 55, 0, 54, 0, 57, 0, 56, 0, 58, 0, 59, 0, 34, 0, 59, 0, 35, 0, 34, 0, 60, 0, 62, 0, 61, 0, 60, 0, 63, 0, 62, 0, 40, 0, 41, 0, 64, 0, 41, 0, 65, 0, 64, 0, 66, 0, 68, 0, 67, 0, 66, 0, 69, 0, 68, 0, 47, 0, 46, 0, 70, 0, 70, 0, 71, 0, 47, 0, 72, 0, 74, 0, 73, 0, 72, 0, 75, 0, 74, 0, 76, 0, 77, 0, 53, 0, 53, 0, 52, 0, 76, 0, 78, 0, 80, 0, 79, 0, 79, 0, 81, 0, 78, 0, 82, 0, 58, 0, 83, 0, 82, 0, 59, 0, 58, 0, 84, 0, 86, 0, 85, 0, 84, 0, 87, 0, 86, 0, 65, 0, 88, 0, 64, 0, 65, 0, 89, 0, 88, 0, 90, 0, 92, 0, 91, 0, 90, 0, 93, 0, 92, 0, 71, 0, 70, 0, 94, 0, 94, 0, 95, 0, 71, 0, 96, 0, 98, 0, 97, 0, 96, 0, 99, 0, 98, 0, 100, 0, 76, 0, 101, 0, 100, 0, 77, 0, 76, 0, 102, 0, 104, 0, 103, 0, 102, 0, 105, 0, 104, 0, 106, 0, 107, 0, 82, 0, 82, 0, 83, 0, 106, 0, 108, 0, 110, 0, 109, 0, 108, 0, 111, 0, 110, 0, 88, 0, 89, 0, 112, 0, 112, 0, 113, 0, 88, 0, 114, 0, 116, 0, 115, 0, 114, 0, 117, 0, 116, 0, 95, 0, 94, 0, 118, 0, 94, 0, 119, 0, 118, 0, 103, 0, 121, 0, 120, 0, 103, 0, 104, 0, 121, 0, 122, 0, 79, 0, 80, 0, 122, 0, 123, 0, 79, 0, 55, 0, 125, 0, 124, 0, 55, 0, 56, 0, 125, 0, 126, 0, 61, 0, 62, 0, 62, 0, 127, 0, 126, 0, 87, 0, 84, 0, 128, 0, 129, 0, 128, 0, 84, 0, 130, 0, 109, 0, 110, 0, 110, 0, 131, 0, 130, 0, 11, 0, 8, 0, 132, 0, 133, 0, 132, 0, 8, 0, 134, 0, 117, 0, 114, 0, 134, 0, 135, 0, 117, 0, 136, 0, 93, 0, 90, 0, 136, 0, 137, 0, 93, 0, 138, 0, 69, 0, 66, 0, 138, 0, 139, 0, 69, 0, 51, 0, 48, 0, 140, 0, 141, 0, 140, 0, 48, 0, 75, 0, 72, 0, 142, 0, 143, 0, 142, 0, 72, 0, 99, 0, 96, 0, 144, 0, 145, 0, 144, 0, 96, 0, 3, 0, 0, 0, 146, 0, 146, 0, 147, 0, 3, 0, 120, 0, 149, 0, 148, 0, 120, 0, 121, 0, 149, 0, 150, 0, 123, 0, 122, 0, 150, 0, 151, 0, 123, 0, 124, 0, 153, 0, 152, 0, 124, 0, 125, 0, 153, 0, 154, 0, 156, 0, 155, 0, 154, 0, 157, 0, 156, 0, 158, 0, 160, 0, 159, 0, 159, 0, 161, 0, 158, 0, 162, 0, 164, 0, 163, 0, 163, 0, 165, 0, 162, 0, 166, 0, 126, 0, 127, 0, 127, 0, 167, 0, 166, 0, 128, 0, 129, 0, 168, 0, 169, 0, 168, 0, 129, 0, 170, 0, 130, 0, 131, 0, 131, 0, 171, 0, 170, 0, 132, 0, 133, 0, 172, 0, 172, 0, 173, 0, 132, 0, 135, 0, 134, 0, 174, 0, 174, 0, 175, 0, 135, 0, 176, 0, 137, 0, 136, 0, 176, 0, 177, 0, 137, 0, 139, 0, 138, 0, 178, 0, 178, 0, 179, 0, 139, 0, 180, 0, 182, 0, 181, 0, 180, 0, 183, 0, 182, 0, 184, 0, 186, 0, 185, 0, 187, 0, 185, 0, 186, 0, 188, 0, 190, 0, 189, 0, 191, 0, 189, 0, 190, 0, 140, 0, 141, 0, 192, 0, 193, 0, 192, 0, 141, 0, 142, 0, 143, 0, 194, 0, 195, 0, 194, 0, 143, 0, 144, 0, 145, 0, 196, 0, 197, 0, 196, 0, 145, 0, 147, 0, 146, 0, 198, 0, 199, 0, 198, 0, 146, 0, 200, 0, 202, 0, 201, 0, 200, 0, 203, 0, 202, 0, 204, 0, 206, 0, 205, 0, 205, 0, 207, 0, 204, 0, 208, 0, 210, 0, 209, 0, 209, 0, 211, 0, 208, 0, 212, 0, 214, 0, 213, 0, 213, 0, 215, 0, 212, 0, 216, 0, 218, 0, 217, 0, 217, 0, 218, 0, 219, 0, 220, 0, 222, 0, 221, 0, 221, 0, 223, 0, 220, 0, 224, 0, 226, 0, 225, 0, 225, 0, 226, 0, 227, 0, 228, 0, 230, 0, 229, 0, 228, 0, 231, 0, 230, 0, 232, 0, 234, 0, 233, 0, 232, 0, 235, 0, 234, 0, 236, 0, 238, 0, 237, 0, 237, 0, 238, 0, 239, 0, 240, 0, 242, 0, 241, 0, 241, 0, 242, 0, 243, 0, 244, 0, 246, 0, 245, 0, 244, 0, 247, 0, 246, 0, 248, 0, 250, 0, 249, 0, 249, 0, 251, 0, 248, 0, 252, 0, 254, 0, 253, 0, 253, 0, 255, 0, 252, 0, 0, 1, 2, 1, 1, 1, 1, 1, 3, 1, 0, 1, 4, 1, 6, 1, 5, 1, 4, 1, 7, 1, 6, 1, 8, 1, 10, 1, 9, 1, 9, 1, 11, 1, 8, 1, 12, 1, 14, 1, 13, 1, 12, 1, 15, 1, 14, 1, 16, 1, 18, 1, 17, 1, 17, 1, 19, 1, 16, 1, 20, 1, 22, 1, 21, 1, 22, 1, 20, 1, 23, 1, 24, 1, 26, 1, 25, 1, 26, 1, 24, 1, 27, 1, 28, 1, 30, 1, 29, 1, 29, 1, 31, 1, 28, 1, 32, 1, 34, 1, 33, 1, 33, 1, 35, 1, 32, 1, 36, 1, 38, 1, 37, 1, 37, 1, 39, 1, 36, 1, 40, 1, 42, 1, 41, 1, 41, 1, 43, 1, 40, 1, 44, 1, 46, 1, 45, 1, 46, 1, 47, 1, 45, 1, 48, 1, 50, 1, 49, 1, 51, 1, 49, 1, 50, 1, 52, 1, 54, 1, 53, 1, 53, 1, 55, 1, 52, 1, 50, 1, 56, 1, 51, 1, 57, 1, 51, 1, 56, 1, 58, 1, 59, 1, 52, 1, 52, 1, 55, 1, 58, 1, 60, 1, 62, 1, 61, 1, 62, 1, 63, 1, 61, 1, 64, 1, 66, 1, 65, 1, 65, 1, 67, 1, 64, 1, 56, 1, 69, 1, 68, 1, 68, 1, 57, 1, 56, 1, 70, 1, 71, 1, 59, 1, 59, 1, 58, 1, 70, 1, 72, 1, 74, 1, 73, 1, 73, 1, 75, 1, 72, 1, 76, 1, 78, 1, 77, 1, 79, 1, 77, 1, 78, 1, 80, 1, 81, 1, 72, 1, 72, 1, 75, 1, 80, 1, 78, 1, 82, 1, 79, 1, 83, 1, 79, 1, 82, 1, 84, 1, 85, 1, 81, 1, 81, 1, 80, 1, 84, 1, 82, 1, 87, 1, 86, 1, 86, 1, 83, 1, 82, 1, 88, 1, 40, 1, 89, 1, 88, 1, 42, 1, 40, 1, 90, 1, 51, 1, 91, 1, 51, 1, 90, 1, 49, 1, 92, 1, 91, 1, 57, 1, 57, 1, 91, 1, 51, 1, 63, 1, 93, 1, 61, 1, 63, 1, 94, 1, 93, 1, 57, 1, 68, 1, 95, 1, 95, 1, 92, 1, 57, 1, 96, 1, 97, 1, 75, 1, 75, 1, 73, 1, 96, 1, 98, 1, 80, 1, 75, 1, 75, 1, 97, 1, 98, 1, 99, 1, 84, 1, 80, 1, 80, 1, 98, 1, 99, 1, 100, 1, 102, 1, 101, 1, 103, 1, 105, 1, 104, 1, 106, 1, 108, 1, 107, 1, 109, 1, 111, 1, 110, 1, 112, 1, 114, 1, 113, 1, 115, 1, 117, 1, 116, 1, 118, 1, 120, 1, 119, 1, 121, 1, 123, 1, 122, 1, 124, 1, 126, 1, 125, 1, 127, 1, 129, 1, 128, 1, 130, 1, 132, 1, 131, 1, 133, 1, 135, 1, 134, 1, 136, 1, 138, 1, 137, 1, 139, 1, 141, 1, 140, 1, 142, 1, 144, 1, 143, 1, 145, 1, 147, 1, 146, 1 ),
"blend_shape_data": [  ],
"format": 97559,
"index_count": 768,
"material": ExtResource( 1 ),
"name": "lambert1",
"primitive": 4,
"skeleton_aabb": [  ],
"vertex_count": 404
}
surfaces/1 = {
"aabb": AABB( -1.87204, -0.215053, -1.31769, 3.74407, 0.27871, 2.63539 ),
"array_data": PoolByteArray( 43, 195, 199, 63, 201, 54, 92, 190, 0, 170, 168, 63, 0, 0, 127, 0, 127, 0, 0, 127, 155, 59, 122, 58, 51, 21, 236, 63, 201, 54, 92, 190, 0, 170, 168, 63, 0, 0, 127, 0, 127, 0, 0, 127, 213, 59, 122, 58, 43, 195, 199, 63, 115, 114, 251, 189, 0, 170, 168, 63, 0, 0, 127, 0, 127, 0, 0, 127, 155, 59, 64, 58, 51, 21, 236, 63, 115, 114, 251, 189, 0, 170, 168, 63, 0, 0, 127, 0, 127, 0, 0, 127, 213, 59, 64, 58, 43, 195, 199, 63, 115, 114, 251, 189, 0, 170, 168, 63, 0, 127, 0, 0, 127, 0, 0, 127, 100, 56, 0, 60, 51, 21, 236, 63, 115, 114, 251, 189, 0, 170, 168, 63, 0, 127, 0, 0, 127, 0, 0, 127, 173, 56, 0, 60, 43, 195, 199, 63, 115, 114, 251, 189, 0, 170, 168, 191, 0, 127, 0, 0, 127, 0, 0, 127, 100, 56, 236, 56, 51, 21, 236, 63, 115, 114, 251, 189, 0, 170, 168, 191, 0, 127, 0, 0, 127, 0, 0, 127, 173, 56, 236, 56, 43, 195, 199, 63, 115, 114, 251, 189, 0, 170, 168, 191, 0, 0, 129, 0, 127, 0, 0, 127, 77, 50, 87, 59, 51, 21, 236, 63, 115, 114, 251, 189, 0, 170, 168, 191, 0, 0, 129, 0, 127, 0, 0, 127, 56, 51, 87, 59, 43, 195, 199, 63, 201, 54, 92, 190, 0, 170, 168, 191, 0, 0, 129, 0, 127, 0, 0, 127, 77, 50, 29, 59, 51, 21, 236, 63, 201, 54, 92, 190, 0, 170, 168, 191, 0, 0, 129, 0, 127, 0, 0, 127, 56, 51, 29, 59, 43, 195, 199, 63, 201, 54, 92, 190, 0, 170, 168, 191, 0, 129, 0, 0, 127, 0, 0, 127, 0, 0, 251, 58, 51, 21, 236, 63, 201, 54, 92, 190, 0, 170, 168, 191, 0, 129, 0, 0, 127, 0, 0, 127, 131, 40, 251, 58, 43, 195, 199, 63, 201, 54, 92, 190, 0, 170, 168, 63, 0, 129, 0, 0, 127, 0, 0, 127, 0, 0, 209, 55, 51, 21, 236, 63, 201, 54, 92, 190, 0, 170, 168, 63, 0, 129, 0, 0, 127, 0, 0, 127, 131, 40, 209, 55, 51, 21, 236, 63, 201, 54, 92, 190, 0, 170, 168, 63, 127, 0, 0, 0, 0, 0, 129, 127, 0, 0, 133, 54, 51, 21, 236, 63, 201, 54, 92, 190, 0, 170, 168, 191, 127, 0, 0, 0, 0, 0, 129, 127, 226, 53, 133, 54, 51, 21, 236, 63, 115, 114, 251, 189, 0, 170, 168, 63, 127, 0, 0, 0, 0, 0, 129, 127, 0, 0, 22, 54, 51, 21, 236, 63, 115, 114, 251, 189, 0, 170, 168, 191, 127, 0, 0, 0, 0, 0, 129, 127, 226, 53, 22, 54, 43, 195, 199, 63, 201, 54, 92, 190, 0, 170, 168, 191, 129, 0, 0, 0, 0, 0, 127, 127, 0, 0, 89, 48, 43, 195, 199, 63, 201, 54, 92, 190, 0, 170, 168, 63, 129, 0, 0, 0, 0, 0, 127, 127, 38, 54, 89, 48, 43, 195, 199, 63, 115, 114, 251, 189, 0, 170, 168, 191, 129, 0, 0, 0, 0, 0, 127, 127, 0, 0, 97, 47, 43, 195, 199, 63, 115, 114, 251, 189, 0, 170, 168, 63, 129, 0, 0, 0, 0, 0, 127, 127, 38, 54, 97, 47, 51, 21, 236, 191, 201, 54, 92, 190, 0, 170, 168, 63, 0, 0, 127, 0, 127, 0, 0, 127, 100, 58, 167, 58, 43, 195, 199, 191, 201, 54, 92, 190, 0, 170, 168, 63, 0, 0, 127, 0, 127, 0, 0, 127, 159, 58, 167, 58, 51, 21, 236, 191, 115, 114, 251, 189, 0, 170, 168, 63, 0, 0, 127, 0, 127, 0, 0, 127, 100, 58, 108, 58, 43, 195, 199, 191, 115, 114, 251, 189, 0, 170, 168, 63, 0, 0, 127, 0, 127, 0, 0, 127, 159, 58, 108, 58, 51, 21, 236, 191, 115, 114, 251, 189, 0, 170, 168, 63, 0, 127, 0, 0, 127, 0, 0, 127, 170, 54, 236, 56, 43, 195, 199, 191, 115, 114, 251, 189, 0, 170, 168, 63, 0, 127, 0, 0, 127, 0, 0, 127, 59, 55, 236, 56, 51, 21, 236, 191, 115, 114, 251, 189, 0, 170, 168, 191, 0, 127, 0, 0, 127, 0, 0, 127, 170, 54, 102, 51, 43, 195, 199, 191, 115, 114, 251, 189, 0, 170, 168, 191, 0, 127, 0, 0, 127, 0, 0, 127, 59, 55, 102, 51, 51, 21, 236, 191, 115, 114, 251, 189, 0, 170, 168, 191, 0, 0, 129, 0, 127, 0, 0, 127, 201, 58, 239, 58, 43, 195, 199, 191, 115, 114, 251, 189, 0, 170, 168, 191, 0, 0, 129, 0, 127, 0, 0, 127, 4, 59, 239, 58, 51, 21, 236, 191, 201, 54, 92, 190, 0, 170, 168, 191, 0, 0, 129, 0, 127, 0, 0, 127, 201, 58, 181, 58, 43, 195, 199, 191, 201, 54, 92, 190, 0, 170, 168, 191, 0, 0, 129, 0, 127, 0, 0, 127, 4, 59, 181, 58, 51, 21, 236, 191, 201, 54, 92, 190, 0, 170, 168, 191, 0, 129, 0, 0, 127, 0, 0, 127, 69, 51, 251, 58, 43, 195, 199, 191, 201, 54, 92, 190, 0, 170, 168, 191, 0, 129, 0, 0, 127, 0, 0, 127, 51, 52, 251, 58, 51, 21, 236, 191, 201, 54, 92, 190, 0, 170, 168, 63, 0, 129, 0, 0, 127, 0, 0, 127, 69, 51, 209, 55, 43, 195, 199, 191, 201, 54, 92, 190, 0, 170, 168, 63, 0, 129, 0, 0, 127, 0, 0, 127, 51, 52, 209, 55, 43, 195, 199, 191, 201, 54, 92, 190, 0, 170, 168, 63, 127, 0, 0, 0, 0, 0, 129, 127, 240, 53, 102, 51, 43, 195, 199, 191, 201, 54, 92, 190, 0, 170, 168, 191, 127, 0, 0, 0, 0, 0, 129, 127, 233, 57, 102, 51, 43, 195, 199, 191, 115, 114, 251, 189, 0, 170, 168, 63, 127, 0, 0, 0, 0, 0, 129, 127, 240, 53, 137, 50, 43, 195, 199, 191, 115, 114, 251, 189, 0, 170, 168, 191, 127, 0, 0, 0, 0, 0, 129, 127, 233, 57, 137, 50, 51, 21, 236, 191, 201, 54, 92, 190, 0, 170, 168, 191, 129, 0, 0, 0, 0, 0, 127, 127, 0, 0, 189, 44, 51, 21, 236, 191, 201, 54, 92, 190, 0, 170, 168, 63, 129, 0, 0, 0, 0, 0, 127, 127, 38, 54, 189, 44, 51, 21, 236, 191, 115, 114, 251, 189, 0, 170, 168, 191, 129, 0, 0, 0, 0, 0, 127, 127, 0, 0, 214, 42, 51, 21, 236, 191, 115, 114, 251, 189, 0, 170, 168, 63, 129, 0, 0, 0, 0, 0, 127, 127, 38, 54, 214, 42, 35, 113, 163, 191, 201, 54, 92, 190, 0, 170, 168, 63, 0, 0, 127, 0, 127, 0, 0, 127, 232, 57, 167, 58, 54, 62, 126, 191, 201, 54, 92, 190, 0, 170, 168, 63, 0, 0, 127, 0, 127, 0, 0, 127, 35, 58, 167, 58, 35, 113, 163, 191, 115, 114, 251, 189, 0, 170, 168, 63, 0, 0, 127, 0, 127, 0, 0, 127, 232, 57, 108, 58, 54, 62, 126, 191, 115, 114, 251, 189, 0, 170, 168, 63, 0, 0, 127, 0, 127, 0, 0, 127, 35, 58, 108, 58, 35, 113, 163, 191, 115, 114, 251, 189, 0, 170, 168, 63, 0, 127, 0, 0, 127, 0, 0, 127, 116, 57, 236, 56, 54, 62, 126, 191, 115, 114, 251, 189, 0, 170, 168, 63, 0, 127, 0, 0, 127, 0, 0, 127, 188, 57, 236, 56, 35, 113, 163, 191, 115, 114, 251, 189, 0, 170, 168, 191, 0, 127, 0, 0, 127, 0, 0, 127, 116, 57, 102, 51, 54, 62, 126, 191, 115, 114, 251, 189, 0, 170, 168, 191, 0, 127, 0, 0, 127, 0, 0, 127, 188, 57, 102, 51, 35, 113, 163, 191, 115, 114, 251, 189, 0, 170, 168, 191, 0, 0, 129, 0, 127, 0, 0, 127, 139, 59, 239, 58, 54, 62, 126, 191, 115, 114, 251, 189, 0, 170, 168, 191, 0, 0, 129, 0, 127, 0, 0, 127, 198, 59, 239, 58, 35, 113, 163, 191, 201, 54, 92, 190, 0, 170, 168, 191, 0, 0, 129, 0, 127, 0, 0, 127, 139, 59, 181, 58, 54, 62, 126, 191, 201, 54, 92, 190, 0, 170, 168, 191, 0, 0, 129, 0, 127, 0, 0, 127, 198, 59, 181, 58, 35, 113, 163, 191, 201, 54, 92, 190, 0, 170, 168, 191, 0, 129, 0, 0, 127, 0, 0, 127, 23, 56, 0, 60, 54, 62, 126, 191, 201, 54, 92, 190, 0, 170, 168, 191, 0, 129, 0, 0, 127, 0, 0, 127, 95, 56, 0, 60, 35, 113, 163, 191, 201, 54, 92, 190, 0, 170, 168, 63, 0, 129, 0, 0, 127, 0, 0, 127, 23, 56, 236, 56, 54, 62, 126, 191, 201, 54, 92, 190, 0, 170, 168, 63, 0, 129, 0, 0, 127, 0, 0, 127, 95, 56, 236, 56, 54, 62, 126, 191, 201, 54, 92, 190, 0, 170, 168, 63, 127, 0, 0, 0, 0, 0, 129, 127, 0, 0, 202, 52, 54, 62, 126, 191, 201, 54, 92, 190, 0, 170, 168, 191, 127, 0, 0, 0, 0, 0, 129, 127, 226, 53, 202, 52, 54, 62, 126, 191, 115, 114, 251, 189, 0, 170, 168, 63, 127, 0, 0, 0, 0, 0, 129, 127, 0, 0, 91, 52, 54, 62, 126, 191, 115, 114, 251, 189, 0, 170, 168, 191, 127, 0, 0, 0, 0, 0, 129, 127, 226, 53, 91, 52, 35, 113, 163, 191, 201, 54, 92, 190, 0, 170, 168, 191, 129, 0, 0, 0, 0, 0, 127, 127, 46, 54, 89, 48, 35, 113, 163, 191, 201, 54, 92, 190, 0, 170, 168, 63, 129, 0, 0, 0, 0, 0, 127, 127, 42, 58, 89, 48, 35, 113, 163, 191, 115, 114, 251, 189, 0, 170, 168, 191, 129, 0, 0, 0, 0, 0, 127, 127, 46, 54, 97, 47, 35, 113, 163, 191, 115, 114, 251, 189, 0, 170, 168, 63, 129, 0, 0, 0, 0, 0, 127, 127, 42, 58, 97, 47, 54, 62, 126, 63, 201, 54, 92, 190, 0, 170, 168, 63, 0, 0, 127, 0, 127, 0, 0, 127, 194, 59, 181, 58, 35, 113, 163, 63, 201, 54, 92, 190, 0, 170, 168, 63, 0, 0, 127, 0, 127, 0, 0, 127, 252, 59, 181, 58, 54, 62, 126, 63, 115, 114, 251, 189, 0, 170, 168, 63, 0, 0, 127, 0, 127, 0, 0, 127, 194, 59, 122, 58, 35, 113, 163, 63, 115, 114, 251, 189, 0, 170, 168, 63, 0, 0, 127, 0, 127, 0, 0, 127, 252, 59, 122, 58, 54, 62, 126, 63, 115, 114, 251, 189, 0, 170, 168, 63, 0, 127, 0, 0, 127, 0, 0, 127, 217, 56, 236, 56, 35, 113, 163, 63, 115, 114, 251, 189, 0, 170, 168, 63, 0, 127, 0, 0, 127, 0, 0, 127, 33, 57, 236, 56, 54, 62, 126, 63, 115, 114, 251, 189, 0, 170, 168, 191, 0, 127, 0, 0, 127, 0, 0, 127, 217, 56, 102, 51, 35, 113, 163, 63, 115, 114, 251, 189, 0, 170, 168, 191, 0, 127, 0, 0, 127, 0, 0, 127, 33, 57, 102, 51, 54, 62, 126, 63, 115, 114, 251, 189, 0, 170, 168, 191, 0, 0, 129, 0, 127, 0, 0, 127, 209, 58, 42, 59, 35, 113, 163, 63, 115, 114, 251, 189, 0, 170, 168, 191, 0, 0, 129, 0, 127, 0, 0, 127, 12, 59, 42, 59, 54, 62, 126, 63, 201, 54, 92, 190, 0, 170, 168, 191, 0, 0, 129, 0, 127, 0, 0, 127, 209, 58, 239, 58, 35, 113, 163, 63, 201, 54, 92, 190, 0, 170, 168, 191, 0, 0, 129, 0, 127, 0, 0, 127, 12, 59, 239, 58, 54, 62, 126, 63, 201, 54, 92, 190, 0, 170, 168, 191, 0, 129, 0, 0, 127, 0, 0, 127, 15, 50, 251, 58, 35, 113, 163, 63, 201, 54, 92, 190, 0, 170, 168, 191, 0, 129, 0, 0, 127, 0, 0, 127, 48, 51, 251, 58, 54, 62, 126, 63, 201, 54, 92, 190, 0, 170, 168, 63, 0, 129, 0, 0, 127, 0, 0, 127, 15, 50, 209, 55, 35, 113, 163, 63, 201, 54, 92, 190, 0, 170, 168, 63, 0, 129, 0, 0, 127, 0, 0, 127, 48, 51, 209, 55, 35, 113, 163, 63, 201, 54, 92, 190, 0, 170, 168, 63, 127, 0, 0, 0, 0, 0, 129, 127, 0, 0, 91, 52, 35, 113, 163, 63, 201, 54, 92, 190, 0, 170, 168, 191, 127, 0, 0, 0, 0, 0, 129, 127, 226, 53, 91, 52, 35, 113, 163, 63, 115, 114, 251, 189, 0, 170, 168, 63, 127, 0, 0, 0, 0, 0, 129, 127, 0, 0, 218, 51, 35, 113, 163, 63, 115, 114, 251, 189, 0, 170, 168, 191, 127, 0, 0, 0, 0, 0, 129, 127, 226, 53, 218, 51, 54, 62, 126, 63, 201, 54, 92, 190, 0, 170, 168, 191, 129, 0, 0, 0, 0, 0, 127, 127, 46, 54, 214, 42, 54, 62, 126, 63, 201, 54, 92, 190, 0, 170, 168, 63, 129, 0, 0, 0, 0, 0, 127, 127, 42, 58, 214, 42, 54, 62, 126, 63, 115, 114, 251, 189, 0, 170, 168, 191, 129, 0, 0, 0, 0, 0, 127, 127, 46, 54, 50, 40, 54, 62, 126, 63, 115, 114, 251, 189, 0, 170, 168, 63, 129, 0, 0, 0, 0, 0, 127, 127, 42, 58, 50, 40, 46, 236, 217, 62, 201, 54, 92, 190, 0, 170, 168, 63, 0, 0, 127, 0, 127, 0, 0, 127, 69, 59, 181, 58, 39, 154, 53, 63, 201, 54, 92, 190, 0, 170, 168, 63, 0, 0, 127, 0, 127, 0, 0, 127, 128, 59, 181, 58, 46, 236, 217, 62, 115, 114, 251, 189, 0, 170, 168, 63, 0, 0, 127, 0, 127, 0, 0, 127, 69, 59, 122, 58, 39, 154, 53, 63, 115, 114, 251, 189, 0, 170, 168, 63, 0, 0, 127, 0, 127, 0, 0, 127, 128, 59, 122, 58, 46, 236, 217, 62, 115, 114, 251, 189, 0, 170, 168, 63, 0, 127, 0, 0, 127, 0, 0, 127, 38, 57, 236, 56, 39, 154, 53, 63, 115, 114, 251, 189, 0, 170, 168, 63, 0, 127, 0, 0, 127, 0, 0, 127, 111, 57, 236, 56, 46, 236, 217, 62, 115, 114, 251, 189, 0, 170, 168, 191, 0, 127, 0, 0, 127, 0, 0, 127, 38, 57, 102, 51, 39, 154, 53, 63, 115, 114, 251, 189, 0, 170, 168, 191, 0, 127, 0, 0, 127, 0, 0, 127, 111, 57, 102, 51, 46, 236, 217, 62, 115, 114, 251, 189, 0, 170, 168, 191, 0, 0, 129, 0, 127, 0, 0, 127, 77, 58, 44, 59, 39, 154, 53, 63, 115, 114, 251, 189, 0, 170, 168, 191, 0, 0, 129, 0, 127, 0, 0, 127, 136, 58, 44, 59, 46, 236, 217, 62, 201, 54, 92, 190, 0, 170, 168, 191, 0, 0, 129, 0, 127, 0, 0, 127, 77, 58, 241, 58, 39, 154, 53, 63, 201, 54, 92, 190, 0, 170, 168, 191, 0, 0, 129, 0, 127, 0, 0, 127, 136, 58, 241, 58, 46, 236, 217, 62, 201, 54, 92, 190, 0, 170, 168, 191, 0, 129, 0, 0, 127, 0, 0, 127, 15, 54, 251, 58, 39, 154, 53, 63, 201, 54, 92, 190, 0, 170, 168, 191, 0, 129, 0, 0, 127, 0, 0, 127, 160, 54, 251, 58, 46, 236, 217, 62, 201, 54, 92, 190, 0, 170, 168, 63, 0, 129, 0, 0, 127, 0, 0, 127, 15, 54, 209, 55, 39, 154, 53, 63, 201, 54, 92, 190, 0, 170, 168, 63, 0, 129, 0, 0, 127, 0, 0, 127, 160, 54, 209, 55, 39, 154, 53, 63, 201, 54, 92, 190, 0, 170, 168, 63, 127, 0, 0, 0, 0, 0, 129, 127, 0, 0, 252, 50, 39, 154, 53, 63, 201, 54, 92, 190, 0, 170, 168, 191, 127, 0, 0, 0, 0, 0, 129, 127, 226, 53, 252, 50, 39, 154, 53, 63, 115, 114, 251, 189, 0, 170, 168, 63, 127, 0, 0, 0, 0, 0, 129, 127, 0, 0, 31, 50, 39, 154, 53, 63, 115, 114, 251, 189, 0, 170, 168, 191, 127, 0, 0, 0, 0, 0, 129, 127, 226, 53, 31, 50, 46, 236, 217, 62, 201, 54, 92, 190, 0, 170, 168, 191, 129, 0, 0, 0, 0, 0, 127, 127, 0, 0, 214, 42, 46, 236, 217, 62, 201, 54, 92, 190, 0, 170, 168, 63, 129, 0, 0, 0, 0, 0, 127, 127, 38, 54, 214, 42, 46, 236, 217, 62, 115, 114, 251, 189, 0, 170, 168, 191, 129, 0, 0, 0, 0, 0, 127, 127, 0, 0, 50, 40, 46, 236, 217, 62, 115, 114, 251, 189, 0, 170, 168, 63, 129, 0, 0, 0, 0, 0, 127, 127, 38, 54, 50, 40, 39, 154, 53, 191, 201, 54, 92, 190, 0, 170, 168, 63, 0, 0, 127, 0, 127, 0, 0, 127, 232, 57, 225, 58, 46, 236, 217, 190, 201, 54, 92, 190, 0, 170, 168, 63, 0, 0, 127, 0, 127, 0, 0, 127, 35, 58, 225, 58, 39, 154, 53, 191, 115, 114, 251, 189, 0, 170, 168, 63, 0, 0, 127, 0, 127, 0, 0, 127, 232, 57, 167, 58, 46, 236, 217, 190, 115, 114, 251, 189, 0, 170, 168, 63, 0, 0, 127, 0, 127, 0, 0, 127, 35, 58, 167, 58, 39, 154, 53, 191, 115, 114, 251, 189, 0, 170, 168, 63, 0, 127, 0, 0, 127, 0, 0, 127, 178, 56, 0, 60, 46, 236, 217, 190, 115, 114, 251, 189, 0, 170, 168, 63, 0, 127, 0, 0, 127, 0, 0, 127, 250, 56, 0, 60, 39, 154, 53, 191, 115, 114, 251, 189, 0, 170, 168, 191, 0, 127, 0, 0, 127, 0, 0, 127, 178, 56, 236, 56, 46, 236, 217, 190, 115, 114, 251, 189, 0, 170, 168, 191, 0, 127, 0, 0, 127, 0, 0, 127, 250, 56, 236, 56, 39, 154, 53, 191, 115, 114, 251, 189, 0, 170, 168, 191, 0, 0, 129, 0, 127, 0, 0, 127, 15, 59, 0, 59, 46, 236, 217, 190, 115, 114, 251, 189, 0, 170, 168, 191, 0, 0, 129, 0, 127, 0, 0, 127, 74, 59, 0, 59, 39, 154, 53, 191, 201, 54, 92, 190, 0, 170, 168, 191, 0, 0, 129, 0, 127, 0, 0, 127, 15, 59, 197, 58, 46, 236, 217, 190, 201, 54, 92, 190, 0, 170, 168, 191, 0, 0, 129, 0, 127, 0, 0, 127, 74, 59, 197, 58, 39, 154, 53, 191, 201, 54, 92, 190, 0, 170, 168, 191, 0, 129, 0, 0, 127, 0, 0, 127, 69, 47, 251, 58, 46, 236, 217, 190, 201, 54, 92, 190, 0, 170, 168, 191, 0, 129, 0, 0, 127, 0, 0, 127, 195, 48, 251, 58, 39, 154, 53, 191, 201, 54, 92, 190, 0, 170, 168, 63, 0, 129, 0, 0, 127, 0, 0, 127, 69, 47, 209, 55, 46, 236, 217, 190, 201, 54, 92, 190, 0, 170, 168, 63, 0, 129, 0, 0, 127, 0, 0, 127, 195, 48, 209, 55, 46, 236, 217, 190, 201, 54, 92, 190, 0, 170, 168, 63, 127, 0, 0, 0, 0, 0, 129, 127, 0, 0, 167, 53, 46, 236, 217, 190, 201, 54, 92, 190, 0, 170, 168, 191, 127, 0, 0, 0, 0, 0, 129, 127, 226, 53, 167, 53, 46, 236, 217, 190, 115, 114, 251, 189, 0, 170, 168, 63, 127, 0, 0, 0, 0, 0, 129, 127, 0, 0, 57, 53, 46, 236, 217, 190, 115, 114, 251, 189, 0, 170, 168, 191, 127, 0, 0, 0, 0, 0, 129, 127, 226, 53, 57, 53, 39, 154, 53, 191, 201, 54, 92, 190, 0, 170, 168, 191, 129, 0, 0, 0, 0, 0, 127, 127, 0, 0, 3, 49, 39, 154, 53, 191, 201, 54, 92, 190, 0, 170, 168, 63, 129, 0, 0, 0, 0, 0, 127, 127, 38, 54, 3, 49, 39, 154, 53, 191, 115, 114, 251, 189, 0, 170, 168, 191, 129, 0, 0, 0, 0, 0, 127, 127, 0, 0, 89, 48, 39, 154, 53, 191, 115, 114, 251, 189, 0, 170, 168, 63, 129, 0, 0, 0, 0, 0, 127, 127, 38, 54, 89, 48, 31, 72, 17, 190, 201, 54, 92, 190, 0, 170, 168, 63, 0, 0, 127, 0, 127, 0, 0, 127, 38, 58, 183, 58, 31, 72, 17, 62, 201, 54, 92, 190, 0, 170, 168, 63, 0, 0, 127, 0, 127, 0, 0, 127, 97, 58, 183, 58, 31, 72, 17, 190, 115, 114, 251, 189, 0, 170, 168, 63, 0, 0, 127, 0, 127, 0, 0, 127, 38, 58, 124, 58, 31, 72, 17, 62, 115, 114, 251, 189, 0, 170, 168, 63, 0, 0, 127, 0, 127, 0, 0, 127, 97, 58, 124, 58, 31, 72, 17, 190, 115, 114, 251, 189, 0, 170, 168, 63, 0, 127, 0, 0, 127, 0, 0, 127, 0, 57, 0, 60, 31, 72, 17, 62, 115, 114, 251, 189, 0, 170, 168, 63, 0, 127, 0, 0, 127, 0, 0, 127, 72, 57, 0, 60, 31, 72, 17, 190, 115, 114, 251, 189, 0, 170, 168, 191, 0, 127, 0, 0, 127, 0, 0, 127, 0, 57, 236, 56, 31, 72, 17, 62, 115, 114, 251, 189, 0, 170, 168, 191, 0, 127, 0, 0, 127, 0, 0, 127, 72, 57, 236, 56, 31, 72, 17, 190, 115, 114, 251, 189, 0, 170, 168, 191, 0, 0, 129, 0, 127, 0, 0, 127, 69, 59, 58, 59, 31, 72, 17, 62, 115, 114, 251, 189, 0, 170, 168, 191, 0, 0, 129, 0, 127, 0, 0, 127, 128, 59, 58, 59, 31, 72, 17, 190, 201, 54, 92, 190, 0, 170, 168, 191, 0, 0, 129, 0, 127, 0, 0, 127, 69, 59, 0, 59, 31, 72, 17, 62, 201, 54, 92, 190, 0, 170, 168, 191, 0, 0, 129, 0, 127, 0, 0, 127, 128, 59, 0, 59, 31, 72, 17, 190, 201, 54, 92, 190, 0, 170, 168, 191, 0, 129, 0, 0, 127, 0, 0, 127, 116, 53, 251, 58, 31, 72, 17, 62, 201, 54, 92, 190, 0, 170, 168, 191, 0, 129, 0, 0, 127, 0, 0, 127, 4, 54, 251, 58, 31, 72, 17, 190, 201, 54, 92, 190, 0, 170, 168, 63, 0, 129, 0, 0, 127, 0, 0, 127, 116, 53, 209, 55, 31, 72, 17, 62, 201, 54, 92, 190, 0, 170, 168, 63, 0, 129, 0, 0, 127, 0, 0, 127, 4, 54, 209, 55, 31, 72, 17, 62, 201, 54, 92, 190, 0, 170, 168, 63, 127, 0, 0, 0, 0, 0, 129, 127, 0, 0, 31, 50, 31, 72, 17, 62, 201, 54, 92, 190, 0, 170, 168, 191, 127, 0, 0, 0, 0, 0, 129, 127, 226, 53, 31, 50, 31, 72, 17, 62, 115, 114, 251, 189, 0, 170, 168, 63, 127, 0, 0, 0, 0, 0, 129, 127, 0, 0, 66, 49, 31, 72, 17, 62, 115, 114, 251, 189, 0, 170, 168, 191, 127, 0, 0, 0, 0, 0, 129, 127, 226, 53, 66, 49, 31, 72, 17, 190, 201, 54, 92, 190, 0, 170, 168, 191, 129, 0, 0, 0, 0, 0, 127, 127, 0, 0, 50, 40, 31, 72, 17, 190, 201, 54, 92, 190, 0, 170, 168, 63, 129, 0, 0, 0, 0, 0, 127, 127, 38, 54, 50, 40, 31, 72, 17, 190, 115, 114, 251, 189, 0, 170, 168, 191, 129, 0, 0, 0, 0, 0, 127, 127, 0, 0, 57, 34, 31, 72, 17, 190, 115, 114, 251, 189, 0, 170, 168, 63, 129, 0, 0, 0, 0, 0, 127, 127, 38, 54, 57, 34, 228, 158, 239, 63, 83, 114, 234, 188, 66, 128, 140, 191, 127, 0, 0, 0, 0, 0, 129, 127, 31, 59, 122, 58, 228, 158, 239, 63, 83, 114, 234, 188, 240, 11, 166, 191, 127, 0, 0, 0, 0, 0, 129, 127, 89, 59, 122, 58, 228, 158, 239, 63, 133, 94, 130, 61, 66, 128, 140, 191, 127, 0, 0, 0, 0, 0, 129, 127, 31, 59, 64, 58, 228, 158, 239, 63, 133, 94, 130, 61, 240, 11, 166, 191, 127, 0, 0, 0, 0, 0, 129, 127, 89, 59, 64, 58, 228, 158, 239, 63, 133, 94, 130, 61, 66, 128, 140, 191, 0, 127, 0, 0, 0, 0, 129, 127, 77, 57, 0, 60, 228, 158, 239, 63, 133, 94, 130, 61, 240, 11, 166, 191, 0, 127, 0, 0, 0, 0, 129, 127, 149, 57, 0, 60, 228, 158, 239, 191, 133, 94, 130, 61, 66, 128, 140, 191, 0, 127, 0, 0, 0, 0, 129, 127, 77, 57, 236, 56, 228, 158, 239, 191, 133, 94, 130, 61, 240, 11, 166, 191, 0, 127, 0, 0, 0, 0, 129, 127, 149, 57, 236, 56, 228, 158, 239, 191, 133, 94, 130, 61, 66, 128, 140, 191, 129, 0, 0, 0, 0, 0, 129, 127, 77, 50, 217, 59, 228, 158, 239, 191, 133, 94, 130, 61, 240, 11, 166, 191, 129, 0, 0, 0, 0, 0, 129, 127, 56, 51, 217, 59, 228, 158, 239, 191, 83, 114, 234, 188, 66, 128, 140, 191, 129, 0, 0, 0, 0, 0, 129, 127, 77, 50, 159, 59, 228, 158, 239, 191, 83, 114, 234, 188, 240, 11, 166, 191, 129, 0, 0, 0, 0, 0, 129, 127, 56, 51, 159, 59, 228, 158, 239, 191, 83, 114, 234, 188, 66, 128, 140, 191, 0, 129, 0, 0, 0, 0, 129, 127, 217, 52, 251, 58, 228, 158, 239, 191, 83, 114, 234, 188, 240, 11, 166, 191, 0, 129, 0, 0, 0, 0, 129, 127, 105, 53, 251, 58, 228, 158, 239, 63, 83, 114, 234, 188, 66, 128, 140, 191, 0, 129, 0, 0, 0, 0, 129, 127, 217, 52, 209, 55, 228, 158, 239, 63, 83, 114, 234, 188, 240, 11, 166, 191, 0, 129, 0, 0, 0, 0, 129, 127, 105, 53, 209, 55, 228, 158, 239, 63, 83, 114, 234, 188, 240, 11, 166, 191, 0, 0, 129, 0, 129, 0, 0, 127, 240, 53, 137, 50, 228, 158, 239, 191, 83, 114, 234, 188, 240, 11, 166, 191, 0, 0, 129, 0, 129, 0, 0, 127, 233, 57, 137, 50, 228, 158, 239, 63, 133, 94, 130, 61, 240, 11, 166, 191, 0, 0, 129, 0, 129, 0, 0, 127, 240, 53, 172, 49, 228, 158, 239, 191, 133, 94, 130, 61, 240, 11, 166, 191, 0, 0, 129, 0, 129, 0, 0, 127, 233, 57, 172, 49, 228, 158, 239, 191, 83, 114, 234, 188, 66, 128, 140, 191, 0, 0, 127, 0, 127, 0, 0, 127, 46, 54, 189, 44, 228, 158, 239, 63, 83, 114, 234, 188, 66, 128, 140, 191, 0, 0, 127, 0, 127, 0, 0, 127, 42, 58, 189, 44, 228, 158, 239, 191, 133, 94, 130, 61, 66, 128, 140, 191, 0, 0, 127, 0, 127, 0, 0, 127, 46, 54, 214, 42, 228, 158, 239, 63, 133, 94, 130, 61, 66, 128, 140, 191, 0, 0, 127, 0, 127, 0, 0, 127, 42, 58, 214, 42, 228, 158, 239, 63, 83, 114, 234, 188, 240, 11, 166, 63, 127, 0, 0, 0, 0, 0, 129, 127, 163, 58, 181, 58, 228, 158, 239, 63, 83, 114, 234, 188, 66, 128, 140, 63, 127, 0, 0, 0, 0, 0, 129, 127, 221, 58, 181, 58, 228, 158, 239, 63, 133, 94, 130, 61, 240, 11, 166, 63, 127, 0, 0, 0, 0, 0, 129, 127, 163, 58, 122, 58, 228, 158, 239, 63, 133, 94, 130, 61, 66, 128, 140, 63, 127, 0, 0, 0, 0, 0, 129, 127, 221, 58, 122, 58, 228, 158, 239, 63, 133, 94, 130, 61, 240, 11, 166, 63, 0, 127, 0, 0, 0, 0, 129, 127, 155, 57, 0, 60, 228, 158, 239, 63, 133, 94, 130, 61, 66, 128, 140, 63, 0, 127, 0, 0, 0, 0, 129, 127, 227, 57, 0, 60, 228, 158, 239, 191, 133, 94, 130, 61, 240, 11, 166, 63, 0, 127, 0, 0, 0, 0, 129, 127, 155, 57, 236, 56, 228, 158, 239, 191, 133, 94, 130, 61, 66, 128, 140, 63, 0, 127, 0, 0, 0, 0, 129, 127, 227, 57, 236, 56, 228, 158, 239, 191, 133, 94, 130, 61, 240, 11, 166, 63, 129, 0, 0, 0, 0, 0, 129, 127, 232, 57, 28, 59, 228, 158, 239, 191, 133, 94, 130, 61, 66, 128, 140, 63, 129, 0, 0, 0, 0, 0, 129, 127, 35, 58, 28, 59, 228, 158, 239, 191, 83, 114, 234, 188, 240, 11, 166, 63, 129, 0, 0, 0, 0, 0, 129, 127, 232, 57, 225, 58, 228, 158, 239, 191, 83, 114, 234, 188, 66, 128, 140, 63, 129, 0, 0, 0, 0, 0, 129, 127, 35, 58, 225, 58, 228, 158, 239, 191, 83, 114, 234, 188, 240, 11, 166, 63, 0, 129, 0, 0, 0, 0, 129, 127, 62, 52, 251, 58, 228, 158, 239, 191, 83, 114, 234, 188, 66, 128, 140, 63, 0, 129, 0, 0, 0, 0, 129, 127, 206, 52, 251, 58, 228, 158, 239, 63, 83, 114, 234, 188, 240, 11, 166, 63, 0, 129, 0, 0, 0, 0, 129, 127, 62, 52, 209, 55, 228, 158, 239, 63, 83, 114, 234, 188, 66, 128, 140, 63, 0, 129, 0, 0, 0, 0, 129, 127, 206, 52, 209, 55, 228, 158, 239, 63, 83, 114, 234, 188, 66, 128, 140, 63, 0, 0, 129, 0, 129, 0, 0, 127, 0, 0, 218, 51, 228, 158, 239, 191, 83, 114, 234, 188, 66, 128, 140, 63, 0, 0, 129, 0, 129, 0, 0, 127, 226, 53, 218, 51, 228, 158, 239, 63, 133, 94, 130, 61, 66, 128, 140, 63, 0, 0, 129, 0, 129, 0, 0, 127, 0, 0, 252, 50, 228, 158, 239, 191, 133, 94, 130, 61, 66, 128, 140, 63, 0, 0, 129, 0, 129, 0, 0, 127, 226, 53, 252, 50, 228, 158, 239, 191, 83, 114, 234, 188, 240, 11, 166, 63, 0, 0, 127, 0, 127, 0, 0, 127, 0, 0, 97, 47, 228, 158, 239, 63, 83, 114, 234, 188, 240, 11, 166, 63, 0, 0, 127, 0, 127, 0, 0, 127, 38, 54, 97, 47, 228, 158, 239, 191, 133, 94, 130, 61, 240, 11, 166, 63, 0, 0, 127, 0, 127, 0, 0, 127, 0, 0, 15, 46, 228, 158, 239, 63, 133, 94, 130, 61, 240, 11, 166, 63, 0, 0, 127, 0, 127, 0, 0, 127, 38, 54, 15, 46, 228, 158, 239, 63, 126, 130, 155, 189, 37, 233, 101, 63, 127, 0, 0, 0, 0, 0, 129, 127, 93, 59, 122, 58, 228, 158, 239, 63, 126, 130, 155, 189, 200, 209, 50, 63, 127, 0, 0, 0, 0, 0, 129, 127, 151, 59, 122, 58, 228, 158, 239, 63, 112, 226, 133, 60, 37, 233, 101, 63, 127, 0, 0, 0, 0, 0, 129, 127, 93, 59, 64, 58, 228, 158, 239, 63, 112, 226, 133, 60, 200, 209, 50, 63, 127, 0, 0, 0, 0, 0, 129, 127, 151, 59, 64, 58, 228, 158, 239, 63, 112, 226, 133, 60, 37, 233, 101, 63, 0, 127, 0, 0, 0, 0, 129, 127, 194, 57, 236, 56, 228, 158, 239, 63, 112, 226, 133, 60, 200, 209, 50, 63, 0, 127, 0, 0, 0, 0, 130, 127, 10, 58, 236, 56, 228, 158, 239, 191, 112, 226, 133, 60, 37, 233, 101, 63, 0, 127, 0, 0, 0, 0, 130, 127, 194, 57, 102, 51, 228, 158, 239, 191, 112, 226, 133, 60, 200, 209, 50, 63, 0, 127, 0, 0, 0, 0, 129, 127, 10, 58, 102, 51, 228, 158, 239, 191, 112, 226, 133, 60, 37, 233, 101, 63, 129, 0, 0, 0, 0, 0, 129, 127, 132, 59, 42, 59, 228, 158, 239, 191, 112, 226, 133, 60, 200, 209, 50, 63, 129, 0, 0, 0, 0, 0, 129, 127, 190, 59, 42, 59, 228, 158, 239, 191, 126, 130, 155, 189, 37, 233, 101, 63, 129, 0, 0, 0, 0, 0, 129, 127, 132, 59, 239, 58, 228, 158, 239, 191, 126, 130, 155, 189, 200, 209, 50, 63, 129, 0, 0, 0, 0, 0, 129, 127, 190, 59, 239, 58, 228, 158, 239, 191, 126, 130, 155, 189, 37, 233, 101, 63, 0, 129, 0, 0, 0, 0, 129, 127, 217, 44, 251, 58, 228, 158, 239, 191, 126, 130, 155, 189, 200, 209, 50, 63, 0, 129, 0, 0, 0, 0, 130, 127, 26, 47, 251, 58, 228, 158, 239, 63, 126, 130, 155, 189, 37, 233, 101, 63, 0, 129, 0, 0, 0, 0, 130, 127, 217, 44, 209, 55, 228, 158, 239, 63, 126, 130, 155, 189, 200, 209, 50, 63, 0, 129, 0, 0, 0, 0, 129, 127, 26, 47, 209, 55, 228, 158, 239, 63, 126, 130, 155, 189, 200, 209, 50, 63, 0, 0, 129, 0, 129, 0, 0, 127, 0, 0, 22, 54, 228, 158, 239, 191, 126, 130, 155, 189, 200, 209, 50, 63, 0, 0, 129, 0, 129, 0, 0, 127, 226, 53, 22, 54, 228, 158, 239, 63, 112, 226, 133, 60, 200, 209, 50, 63, 0, 0, 129, 0, 129, 0, 0, 127, 0, 0, 167, 53, 228, 158, 239, 191, 112, 226, 133, 60, 200, 209, 50, 63, 0, 0, 129, 0, 129, 0, 0, 127, 226, 53, 167, 53, 228, 158, 239, 191, 126, 130, 155, 189, 37, 233, 101, 63, 0, 0, 127, 0, 127, 0, 0, 127, 46, 54, 97, 47, 228, 158, 239, 63, 126, 130, 155, 189, 37, 233, 101, 63, 0, 0, 127, 0, 127, 0, 0, 127, 42, 58, 97, 47, 228, 158, 239, 191, 112, 226, 133, 60, 37, 233, 101, 63, 0, 0, 127, 0, 127, 0, 0, 127, 46, 54, 15, 46, 228, 158, 239, 63, 112, 226, 133, 60, 37, 233, 101, 63, 0, 0, 127, 0, 127, 0, 0, 127, 42, 58, 15, 46, 228, 158, 239, 63, 126, 130, 155, 189, 200, 209, 50, 191, 127, 0, 0, 0, 0, 0, 129, 127, 100, 58, 225, 58, 228, 158, 239, 63, 126, 130, 155, 189, 37, 233, 101, 191, 127, 0, 0, 0, 0, 0, 129, 127, 159, 58, 225, 58, 228, 158, 239, 63, 112, 226, 133, 60, 200, 209, 50, 191, 127, 0, 0, 0, 0, 0, 129, 127, 100, 58, 167, 58, 228, 158, 239, 63, 112, 226, 133, 60, 37, 233, 101, 191, 127, 0, 0, 0, 0, 0, 129, 127, 159, 58, 167, 58, 228, 158, 239, 63, 112, 226, 133, 60, 200, 209, 50, 191, 0, 127, 0, 0, 0, 0, 129, 127, 69, 55, 236, 56, 228, 158, 239, 63, 112, 226, 133, 60, 37, 233, 101, 191, 0, 127, 0, 0, 0, 0, 130, 127, 214, 55, 236, 56, 228, 158, 239, 191, 112, 226, 133, 60, 200, 209, 50, 191, 0, 127, 0, 0, 0, 0, 130, 127, 69, 55, 102, 51, 228, 158, 239, 191, 112, 226, 133, 60, 37, 233, 101, 191, 0, 127, 0, 0, 0, 0, 129, 127, 214, 55, 102, 51, 228, 158, 239, 191, 112, 226, 133, 60, 200, 209, 50, 191, 129, 0, 0, 0, 0, 0, 129, 127, 139, 58, 28, 59, 228, 158, 239, 191, 112, 226, 133, 60, 37, 233, 101, 191, 129, 0, 0, 0, 0, 0, 129, 127, 198, 58, 28, 59, 228, 158, 239, 191, 126, 130, 155, 189, 200, 209, 50, 191, 129, 0, 0, 0, 0, 0, 129, 127, 139, 58, 225, 58, 228, 158, 239, 191, 126, 130, 155, 189, 37, 233, 101, 191, 129, 0, 0, 0, 0, 0, 129, 127, 198, 58, 225, 58, 228, 158, 239, 191, 126, 130, 155, 189, 200, 209, 50, 191, 0, 129, 0, 0, 0, 0, 129, 127, 217, 40, 251, 58, 228, 158, 239, 191, 126, 130, 155, 189, 37, 233, 101, 191, 0, 129, 0, 0, 0, 0, 130, 127, 174, 44, 251, 58, 228, 158, 239, 63, 126, 130, 155, 189, 200, 209, 50, 191, 0, 129, 0, 0, 0, 0, 130, 127, 217, 40, 209, 55, 228, 158, 239, 63, 126, 130, 155, 189, 37, 233, 101, 191, 0, 129, 0, 0, 0, 0, 129, 127, 174, 44, 209, 55, 228, 158, 239, 63, 126, 130, 155, 189, 37, 233, 101, 191, 0, 0, 129, 0, 129, 0, 0, 127, 0, 0, 57, 53, 228, 158, 239, 191, 126, 130, 155, 189, 37, 233, 101, 191, 0, 0, 129, 0, 129, 0, 0, 127, 226, 53, 57, 53, 228, 158, 239, 63, 112, 226, 133, 60, 37, 233, 101, 191, 0, 0, 129, 0, 129, 0, 0, 127, 0, 0, 202, 52, 228, 158, 239, 191, 112, 226, 133, 60, 37, 233, 101, 191, 0, 0, 129, 0, 129, 0, 0, 127, 226, 53, 202, 52, 228, 158, 239, 191, 126, 130, 155, 189, 200, 209, 50, 191, 0, 0, 127, 0, 127, 0, 0, 127, 0, 0, 15, 46, 228, 158, 239, 63, 126, 130, 155, 189, 200, 209, 50, 191, 0, 0, 127, 0, 127, 0, 0, 127, 38, 54, 15, 46, 228, 158, 239, 191, 112, 226, 133, 60, 200, 209, 50, 191, 0, 0, 127, 0, 127, 0, 0, 127, 0, 0, 189, 44, 228, 158, 239, 63, 112, 226, 133, 60, 200, 209, 50, 191, 0, 0, 127, 0, 127, 0, 0, 127, 38, 54, 189, 44, 228, 158, 239, 63, 164, 216, 244, 189, 25, 70, 153, 190, 127, 0, 0, 0, 0, 0, 129, 127, 7, 59, 197, 58, 228, 158, 239, 63, 164, 216, 244, 189, 213, 116, 255, 190, 127, 0, 0, 0, 0, 0, 129, 127, 66, 59, 197, 58, 228, 158, 239, 63, 29, 118, 223, 188, 25, 70, 153, 190, 127, 0, 0, 0, 0, 0, 129, 127, 7, 59, 138, 58, 228, 158, 239, 63, 29, 118, 223, 188, 213, 116, 255, 190, 127, 0, 0, 0, 0, 0, 129, 127, 66, 59, 138, 58, 228, 158, 239, 63, 29, 118, 223, 188, 25, 70, 153, 190, 0, 127, 0, 0, 0, 0, 129, 127, 225, 55, 236, 56, 228, 158, 239, 63, 29, 118, 223, 188, 213, 116, 255, 190, 0, 127, 0, 0, 0, 0, 130, 127, 56, 56, 236, 56, 228, 158, 239, 191, 29, 118, 223, 188, 25, 70, 153, 190, 0, 127, 0, 0, 0, 0, 130, 127, 225, 55, 102, 51, 228, 158, 239, 191, 29, 118, 223, 188, 213, 116, 255, 190, 0, 127, 0, 0, 0, 0, 129, 127, 56, 56, 102, 51, 228, 158, 239, 191, 29, 118, 223, 188, 25, 70, 153, 190, 129, 0, 0, 0, 0, 0, 129, 127, 38, 58, 241, 58, 228, 158, 239, 191, 29, 118, 223, 188, 213, 116, 255, 190, 129, 0, 0, 0, 0, 0, 129, 127, 97, 58, 241, 58, 228, 158, 239, 191, 164, 216, 244, 189, 25, 70, 153, 190, 129, 0, 0, 0, 0, 0, 129, 127, 38, 58, 183, 58, 228, 158, 239, 191, 164, 216, 244, 189, 213, 116, 255, 190, 129, 0, 0, 0, 0, 0, 129, 127, 97, 58, 183, 58, 228, 158, 239, 191, 164, 216, 244, 189, 25, 70, 153, 190, 0, 129, 0, 0, 0, 0, 129, 127, 217, 48, 251, 58, 228, 158, 239, 191, 164, 216, 244, 189, 213, 116, 255, 190, 0, 129, 0, 0, 0, 0, 130, 127, 250, 49, 251, 58, 228, 158, 239, 63, 164, 216, 244, 189, 25, 70, 153, 190, 0, 129, 0, 0, 0, 0, 130, 127, 217, 48, 209, 55, 228, 158, 239, 63, 164, 216, 244, 189, 213, 116, 255, 190, 0, 129, 0, 0, 0, 0, 129, 127, 250, 49, 209, 55, 228, 158, 239, 63, 164, 216, 244, 189, 213, 116, 255, 190, 0, 0, 129, 0, 129, 0, 0, 127, 0, 0, 209, 55, 228, 158, 239, 191, 164, 216, 244, 189, 213, 116, 255, 190, 0, 0, 129, 0, 129, 0, 0, 127, 226, 53, 209, 55, 228, 158, 239, 63, 29, 118, 223, 188, 213, 116, 255, 190, 0, 0, 129, 0, 129, 0, 0, 127, 0, 0, 98, 55, 228, 158, 239, 191, 29, 118, 223, 188, 213, 116, 255, 190, 0, 0, 129, 0, 129, 0, 0, 127, 226, 53, 98, 55, 228, 158, 239, 191, 164, 216, 244, 189, 25, 70, 153, 190, 0, 0, 127, 0, 127, 0, 0, 127, 46, 54, 15, 46, 228, 158, 239, 63, 164, 216, 244, 189, 25, 70, 153, 190, 0, 0, 127, 0, 127, 0, 0, 127, 42, 58, 15, 46, 228, 158, 239, 191, 29, 118, 223, 188, 25, 70, 153, 190, 0, 0, 127, 0, 127, 0, 0, 127, 46, 54, 189, 44, 228, 158, 239, 63, 29, 118, 223, 188, 25, 70, 153, 190, 0, 0, 127, 0, 127, 0, 0, 127, 42, 58, 189, 44, 228, 158, 239, 63, 164, 216, 244, 189, 213, 116, 255, 62, 127, 0, 0, 0, 0, 0, 129, 127, 132, 59, 181, 58, 228, 158, 239, 63, 164, 216, 244, 189, 25, 70, 153, 62, 127, 0, 0, 0, 0, 0, 129, 127, 190, 59, 181, 58, 228, 158, 239, 63, 29, 118, 223, 188, 213, 116, 255, 62, 127, 0, 0, 0, 0, 0, 129, 127, 132, 59, 122, 58, 228, 158, 239, 63, 29, 118, 223, 188, 25, 70, 153, 62, 127, 0, 0, 0, 0, 0, 129, 127, 190, 59, 122, 58, 228, 158, 239, 63, 29, 118, 223, 188, 213, 116, 255, 62, 0, 127, 0, 0, 0, 0, 129, 127, 62, 56, 236, 56, 228, 158, 239, 63, 29, 118, 223, 188, 25, 70, 153, 62, 0, 127, 0, 0, 0, 0, 130, 127, 134, 56, 236, 56, 228, 158, 239, 191, 29, 118, 223, 188, 213, 116, 255, 62, 0, 127, 0, 0, 0, 0, 130, 127, 62, 56, 102, 51, 228, 158, 239, 191, 29, 118, 223, 188, 25, 70, 153, 62, 0, 127, 0, 0, 0, 0, 129, 127, 134, 56, 102, 51, 228, 158, 239, 191, 29, 118, 223, 188, 213, 116, 255, 62, 129, 0, 0, 0, 0, 0, 129, 127, 77, 59, 239, 58, 228, 158, 239, 191, 29, 118, 223, 188, 25, 70, 153, 62, 129, 0, 0, 0, 0, 0, 129, 127, 136, 59, 239, 58, 228, 158, 239, 191, 164, 216, 244, 189, 213, 116, 255, 62, 129, 0, 0, 0, 0, 0, 129, 127, 77, 59, 181, 58, 228, 158, 239, 191, 164, 216, 244, 189, 25, 70, 153, 62, 129, 0, 0, 0, 0, 0, 129, 127, 136, 59, 181, 58, 228, 158, 239, 191, 164, 216, 244, 189, 213, 116, 255, 62, 0, 129, 0, 0, 0, 0, 129, 127, 248, 54, 0, 60, 228, 158, 239, 191, 164, 216, 244, 189, 25, 70, 153, 62, 0, 129, 0, 0, 0, 0, 130, 127, 136, 55, 0, 60, 228, 158, 239, 63, 164, 216, 244, 189, 213, 116, 255, 62, 0, 129, 0, 0, 0, 0, 130, 127, 248, 54, 236, 56, 228, 158, 239, 63, 164, 216, 244, 189, 25, 70, 153, 62, 0, 129, 0, 0, 0, 0, 129, 127, 136, 55, 236, 56, 228, 158, 239, 63, 164, 216, 244, 189, 25, 70, 153, 62, 0, 0, 129, 0, 129, 0, 0, 127, 0, 0, 243, 54, 228, 158, 239, 191, 164, 216, 244, 189, 25, 70, 153, 62, 0, 0, 129, 0, 129, 0, 0, 127, 226, 53, 243, 54, 228, 158, 239, 63, 29, 118, 223, 188, 25, 70, 153, 62, 0, 0, 129, 0, 129, 0, 0, 127, 0, 0, 133, 54, 228, 158, 239, 191, 29, 118, 223, 188, 25, 70, 153, 62, 0, 0, 129, 0, 129, 0, 0, 127, 226, 53, 133, 54, 228, 158, 239, 191, 164, 216, 244, 189, 213, 116, 255, 62, 0, 0, 127, 0, 127, 0, 0, 127, 46, 54, 3, 49, 228, 158, 239, 63, 164, 216, 244, 189, 213, 116, 255, 62, 0, 0, 127, 0, 127, 0, 0, 127, 42, 58, 3, 49, 228, 158, 239, 191, 29, 118, 223, 188, 213, 116, 255, 62, 0, 0, 127, 0, 127, 0, 0, 127, 46, 54, 89, 48, 228, 158, 239, 63, 29, 118, 223, 188, 213, 116, 255, 62, 0, 0, 127, 0, 127, 0, 0, 127, 42, 58, 89, 48, 228, 158, 239, 63, 203, 186, 17, 190, 121, 93, 204, 61, 127, 0, 0, 0, 0, 0, 129, 127, 225, 58, 138, 58, 228, 158, 239, 63, 203, 186, 17, 190, 121, 93, 204, 189, 127, 0, 0, 0, 0, 0, 129, 127, 27, 59, 138, 58, 228, 158, 239, 63, 240, 244, 76, 189, 121, 93, 204, 61, 127, 0, 0, 0, 0, 0, 129, 127, 225, 58, 80, 58, 228, 158, 239, 63, 240, 244, 76, 189, 121, 93, 204, 189, 127, 0, 0, 0, 0, 0, 129, 127, 27, 59, 80, 58, 228, 158, 239, 63, 240, 244, 76, 189, 121, 93, 204, 61, 0, 127, 0, 0, 0, 0, 129, 127, 139, 56, 236, 56, 228, 158, 239, 63, 240, 244, 76, 189, 121, 93, 204, 189, 0, 127, 0, 0, 0, 0, 130, 127, 211, 56, 236, 56, 228, 158, 239, 191, 240, 244, 76, 189, 121, 93, 204, 61, 0, 127, 0, 0, 0, 0, 130, 127, 139, 56, 102, 51, 228, 158, 239, 191, 240, 244, 76, 189, 121, 93, 204, 189, 0, 127, 0, 0, 0, 0, 129, 127, 211, 56, 102, 51, 228, 158, 239, 191, 240, 244, 76, 189, 121, 93, 204, 61, 129, 0, 0, 0, 0, 0, 129, 127, 194, 59, 42, 59, 228, 158, 239, 191, 240, 244, 76, 189, 121, 93, 204, 189, 129, 0, 0, 0, 0, 0, 129, 127, 252, 59, 42, 59, 228, 158, 239, 191, 203, 186, 17, 190, 121, 93, 204, 61, 129, 0, 0, 0, 0, 0, 129, 127, 194, 59, 239, 58, 228, 158, 239, 191, 203, 186, 17, 190, 121, 93, 204, 189, 129, 0, 0, 0, 0, 0, 129, 127, 252, 59, 239, 58, 228, 158, 239, 191, 203, 186, 17, 190, 121, 93, 204, 61, 0, 129, 0, 0, 0, 0, 129, 127, 147, 55, 0, 60, 228, 158, 239, 191, 203, 186, 17, 190, 121, 93, 204, 189, 0, 129, 0, 0, 0, 0, 130, 127, 17, 56, 0, 60, 228, 158, 239, 63, 203, 186, 17, 190, 121, 93, 204, 61, 0, 129, 0, 0, 0, 0, 130, 127, 147, 55, 236, 56, 228, 158, 239, 63, 203, 186, 17, 190, 121, 93, 204, 189, 0, 129, 0, 0, 0, 0, 129, 127, 17, 56, 236, 56, 228, 158, 239, 63, 203, 186, 17, 190, 121, 93, 204, 189, 0, 0, 129, 0, 129, 0, 0, 127, 0, 0, 98, 55, 228, 158, 239, 191, 203, 186, 17, 190, 121, 93, 204, 189, 0, 0, 129, 0, 129, 0, 0, 127, 226, 53, 98, 55, 228, 158, 239, 63, 240, 244, 76, 189, 121, 93, 204, 189, 0, 0, 129, 0, 129, 0, 0, 127, 0, 0, 243, 54, 228, 158, 239, 191, 240, 244, 76, 189, 121, 93, 204, 189, 0, 0, 129, 0, 129, 0, 0, 127, 226, 53, 243, 54, 228, 158, 239, 191, 203, 186, 17, 190, 121, 93, 204, 61, 0, 0, 127, 0, 127, 0, 0, 127, 240, 53, 172, 49, 228, 158, 239, 63, 203, 186, 17, 190, 121, 93, 204, 61, 0, 0, 127, 0, 127, 0, 0, 127, 11, 58, 172, 49, 228, 158, 239, 191, 240, 244, 76, 189, 121, 93, 204, 61, 0, 0, 127, 0, 127, 0, 0, 127, 240, 53, 3, 49, 228, 158, 239, 63, 240, 244, 76, 189, 121, 93, 204, 61, 0, 0, 127, 0, 127, 0, 0, 127, 11, 58, 3, 49 ),
"array_index_data": PoolByteArray( 0, 0, 2, 0, 1, 0, 2, 0, 3, 0, 1, 0, 4, 0, 6, 0, 5, 0, 6, 0, 7, 0, 5, 0, 8, 0, 10, 0, 9, 0, 10, 0, 11, 0, 9, 0, 12, 0, 14, 0, 13, 0, 14, 0, 15, 0, 13, 0, 16, 0, 18, 0, 17, 0, 18, 0, 19, 0, 17, 0, 20, 0, 22, 0, 21, 0, 22, 0, 23, 0, 21, 0, 24, 0, 26, 0, 25, 0, 26, 0, 27, 0, 25, 0, 28, 0, 30, 0, 29, 0, 30, 0, 31, 0, 29, 0, 32, 0, 34, 0, 33, 0, 34, 0, 35, 0, 33, 0, 36, 0, 38, 0, 37, 0, 38, 0, 39, 0, 37, 0, 40, 0, 42, 0, 41, 0, 42, 0, 43, 0, 41, 0, 44, 0, 46, 0, 45, 0, 46, 0, 47, 0, 45, 0, 48, 0, 50, 0, 49, 0, 50, 0, 51, 0, 49, 0, 52, 0, 54, 0, 53, 0, 54, 0, 55, 0, 53, 0, 56, 0, 58, 0, 57, 0, 58, 0, 59, 0, 57, 0, 60, 0, 62, 0, 61, 0, 62, 0, 63, 0, 61, 0, 64, 0, 66, 0, 65, 0, 66, 0, 67, 0, 65, 0, 68, 0, 70, 0, 69, 0, 70, 0, 71, 0, 69, 0, 72, 0, 74, 0, 73, 0, 74, 0, 75, 0, 73, 0, 76, 0, 78, 0, 77, 0, 78, 0, 79, 0, 77, 0, 80, 0, 82, 0, 81, 0, 82, 0, 83, 0, 81, 0, 84, 0, 86, 0, 85, 0, 86, 0, 87, 0, 85, 0, 88, 0, 90, 0, 89, 0, 90, 0, 91, 0, 89, 0, 92, 0, 94, 0, 93, 0, 94, 0, 95, 0, 93, 0, 96, 0, 98, 0, 97, 0, 98, 0, 99, 0, 97, 0, 100, 0, 102, 0, 101, 0, 102, 0, 103, 0, 101, 0, 104, 0, 106, 0, 105, 0, 106, 0, 107, 0, 105, 0, 108, 0, 110, 0, 109, 0, 110, 0, 111, 0, 109, 0, 112, 0, 114, 0, 113, 0, 114, 0, 115, 0, 113, 0, 116, 0, 118, 0, 117, 0, 118, 0, 119, 0, 117, 0, 120, 0, 122, 0, 121, 0, 122, 0, 123, 0, 121, 0, 124, 0, 126, 0, 125, 0, 126, 0, 127, 0, 125, 0, 128, 0, 130, 0, 129, 0, 130, 0, 131, 0, 129, 0, 132, 0, 134, 0, 133, 0, 134, 0, 135, 0, 133, 0, 136, 0, 138, 0, 137, 0, 138, 0, 139, 0, 137, 0, 140, 0, 142, 0, 141, 0, 142, 0, 143, 0, 141, 0, 144, 0, 146, 0, 145, 0, 146, 0, 147, 0, 145, 0, 148, 0, 150, 0, 149, 0, 150, 0, 151, 0, 149, 0, 152, 0, 154, 0, 153, 0, 154, 0, 155, 0, 153, 0, 156, 0, 158, 0, 157, 0, 158, 0, 159, 0, 157, 0, 160, 0, 162, 0, 161, 0, 162, 0, 163, 0, 161, 0, 164, 0, 166, 0, 165, 0, 166, 0, 167, 0, 165, 0, 168, 0, 170, 0, 169, 0, 170, 0, 171, 0, 169, 0, 172, 0, 174, 0, 173, 0, 174, 0, 175, 0, 173, 0, 176, 0, 178, 0, 177, 0, 178, 0, 179, 0, 177, 0, 180, 0, 182, 0, 181, 0, 182, 0, 183, 0, 181, 0, 184, 0, 186, 0, 185, 0, 186, 0, 187, 0, 185, 0, 188, 0, 190, 0, 189, 0, 190, 0, 191, 0, 189, 0, 192, 0, 194, 0, 193, 0, 194, 0, 195, 0, 193, 0, 196, 0, 198, 0, 197, 0, 198, 0, 199, 0, 197, 0, 200, 0, 202, 0, 201, 0, 202, 0, 203, 0, 201, 0, 204, 0, 206, 0, 205, 0, 206, 0, 207, 0, 205, 0, 208, 0, 210, 0, 209, 0, 210, 0, 211, 0, 209, 0, 212, 0, 214, 0, 213, 0, 214, 0, 215, 0, 213, 0, 216, 0, 218, 0, 217, 0, 218, 0, 219, 0, 217, 0, 220, 0, 222, 0, 221, 0, 222, 0, 223, 0, 221, 0, 224, 0, 226, 0, 225, 0, 226, 0, 227, 0, 225, 0, 228, 0, 230, 0, 229, 0, 230, 0, 231, 0, 229, 0, 232, 0, 234, 0, 233, 0, 234, 0, 235, 0, 233, 0, 236, 0, 238, 0, 237, 0, 238, 0, 239, 0, 237, 0, 240, 0, 242, 0, 241, 0, 242, 0, 243, 0, 241, 0, 244, 0, 246, 0, 245, 0, 246, 0, 247, 0, 245, 0, 248, 0, 250, 0, 249, 0, 250, 0, 251, 0, 249, 0, 252, 0, 254, 0, 253, 0, 254, 0, 255, 0, 253, 0, 0, 1, 2, 1, 1, 1, 2, 1, 3, 1, 1, 1, 4, 1, 6, 1, 5, 1, 6, 1, 7, 1, 5, 1, 8, 1, 10, 1, 9, 1, 10, 1, 11, 1, 9, 1, 12, 1, 14, 1, 13, 1, 14, 1, 15, 1, 13, 1, 16, 1, 18, 1, 17, 1, 18, 1, 19, 1, 17, 1, 20, 1, 22, 1, 21, 1, 22, 1, 23, 1, 21, 1, 24, 1, 26, 1, 25, 1, 26, 1, 27, 1, 25, 1, 28, 1, 30, 1, 29, 1, 30, 1, 31, 1, 29, 1, 32, 1, 34, 1, 33, 1, 34, 1, 35, 1, 33, 1, 36, 1, 38, 1, 37, 1, 38, 1, 39, 1, 37, 1, 40, 1, 42, 1, 41, 1, 42, 1, 43, 1, 41, 1, 44, 1, 46, 1, 45, 1, 46, 1, 47, 1, 45, 1, 48, 1, 50, 1, 49, 1, 50, 1, 51, 1, 49, 1, 52, 1, 54, 1, 53, 1, 54, 1, 55, 1, 53, 1, 56, 1, 58, 1, 57, 1, 58, 1, 59, 1, 57, 1, 60, 1, 62, 1, 61, 1, 62, 1, 63, 1, 61, 1, 64, 1, 66, 1, 65, 1, 66, 1, 67, 1, 65, 1, 68, 1, 70, 1, 69, 1, 70, 1, 71, 1, 69, 1, 72, 1, 74, 1, 73, 1, 74, 1, 75, 1, 73, 1, 76, 1, 78, 1, 77, 1, 78, 1, 79, 1, 77, 1 ),
"blend_shape_data": [  ],
"format": 97559,
"index_count": 504,
"material": ExtResource( 2 ),
"name": "lambert5",
"primitive": 4,
"skeleton_aabb": [  ],
"vertex_count": 336
}

[node name="Gutter" type="Spatial"]

[node name="Gutter" type="MeshInstance" parent="."]
transform = Transform( 0.393701, 0, 0, 0, 0.393701, 0, 0, 0, 0.393701, 0, 0, 0 )
mesh = SubResource( 1 )
material/0 = null
material/1 = null

[node name="AnimationPlayer" type="AnimationPlayer" parent="."]
