[gd_scene load_steps=3 format=2]

[ext_resource path="res://Assets/Environment/RawMeshes/ManholeCover.dae" type="PackedScene" id=1]
[ext_resource path="res://Assets/Shaders/ManholeMat.tres" type="Material" id=2]

[node name="Manhole_Cover" instance=ExtResource( 1 )]

[node name="Manhole_Cover" parent="." index="0"]
material/0 = ExtResource( 2 )
