[gd_scene load_steps=3 format=2]

[ext_resource path="res://Assets/Environment/RawMeshes/MarketStallSmall.dae" type="PackedScene" id=1]
[ext_resource path="res://Assets/Shaders/MarketStallSmall.tres" type="Material" id=2]

[node name="MarketStallSmall" instance=ExtResource( 1 )]

[node name="SmallTable" parent="." index="0"]
transform = Transform( 0.01, 0, 0, 0, -4.37114e-10, -0.01, 0, 0.01, -4.37114e-10, 0, 0, 0 )
material/0 = ExtResource( 2 )
