[gd_scene load_steps=3 format=2]

[ext_resource path="res://Assets/Environment/RawMeshes/MarketItemBasket.dae" type="PackedScene" id=1]
[ext_resource path="res://Assets/Shaders/BasketColorfulMat.tres" type="Material" id=2]

[node name="MarketItemBasket" instance=ExtResource( 1 )]

[node name="Basket" parent="." index="0"]
material/0 = ExtResource( 2 )
