[gd_scene load_steps=3 format=2]

[ext_resource path="res://Assets/Environment/RawMeshes/MarketFloor.dae" type="PackedScene" id=1]
[ext_resource path="res://Assets/Shaders/MarketFloorMat.tres" type="Material" id=2]

[node name="MarketFloor" instance=ExtResource( 1 )]

[node name="MarketFloor" parent="." index="0"]
material/0 = ExtResource( 2 )
