[gd_scene load_steps=3 format=2]

[ext_resource path="res://Assets/Shaders/MarketSculptureMat.tres" type="Material" id=1]
[ext_resource path="res://Assets/Environment/RawMeshes/MarketSculptureV02.dae" type="PackedScene" id=2]

[node name="MarketSculptureV02" instance=ExtResource( 2 )]

[node name="Sculpture" parent="." index="0"]
material/0 = ExtResource( 1 )
