[gd_scene load_steps=8 format=2]

[ext_resource path="res://Assets/Environment/RawMeshes/PlaceholderSlumsCrudeMegaphone.dae" type="PackedScene" id=1]
[ext_resource path="res://Assets/Shaders/outline.shader" type="Shader" id=2]
[ext_resource path="res://Assets/Shaders/cel.shader" type="Shader" id=3]





[sub_resource type="ShaderMaterial" id=1]
shader = ExtResource( 2 )
shader_param/outline_thickness = 0.001
shader_param/outline_color = Color( 0, 0, 0, 1 )

[sub_resource type="ShaderMaterial" id=2]
next_pass = SubResource( 1 )
shader = ExtResource( 3 )
shader_param/use_shade = true
shader_param/use_specular = true
shader_param/use_rim = true
shader_param/use_light = false
shader_param/use_shadow = false
shader_param/base_color = Color( 0.419608, 0.419608, 0.419608, 1 )
shader_param/shade_color = Color( 0.258824, 0.258824, 0.258824, 1 )
shader_param/specular_tint = Color( 0.976471, 0.976471, 0.976471, 0.74902 )
shader_param/rim_tint = Color( 0.75, 0.75, 0.75, 0.75 )
shader_param/shade_threshold = 0.0
shader_param/shade_softness = 0.045
shader_param/specular_glossiness = 9.9
shader_param/specular_threshold = 0.269
shader_param/specular_softness = 0.137
shader_param/rim_threshold = 0.053
shader_param/rim_softness = 0.494
shader_param/rim_spread = 0.5
shader_param/shadow_threshold = 0.7
shader_param/shadow_softness = 0.1

[sub_resource type="VisualShader" id=3]

[sub_resource type="ShaderMaterial" id=4]
next_pass = SubResource( 2 )
shader = SubResource( 3 )

[node name="Placeholder_Slums_CrudeMegaphone" instance=ExtResource( 1 )]

[node name="Crude_Megaphone" parent="group1" index="0"]
material/0 = SubResource( 4 )
