[gd_resource type="Theme" load_steps=6 format=2]

[ext_resource path="res://UI/Assets/Fonts/Steamwreck-07pd.ttf" type="DynamicFontData" id=1]
[ext_resource path="res://UI/Assets/Fonts/MainMenu/LemonMilkRegular.tres" type="DynamicFont" id=2]
[ext_resource path="res://UI/Assets/Themes/TTNode_Hover_StyleBoxFlat.tres" type="StyleBox" id=3]
[ext_resource path="res://UI/Assets/Themes/TTNode_StyleBoxFlat.tres" type="StyleBox" id=4]

[sub_resource type="DynamicFont" id=1]
size = 30
outline_size = 1
outline_color = Color( 0, 0, 0, 1 )
font_data = ExtResource( 1 )

[resource]
default_font = SubResource( 1 )
Button/colors/font_color = Color( 0.88, 0.88, 0.88, 1 )
Button/colors/font_color_disabled = Color( 0.9, 0.9, 0.9, 0.2 )
Button/colors/font_color_hover = Color( 0.94, 0.94, 0.94, 1 )
Button/colors/font_color_pressed = Color( 1, 1, 1, 1 )
Button/constants/hseparation = 2
Button/fonts/font = ExtResource( 2 )
Button/icons/ = null
Button/styles/disabled = null
Button/styles/focus = null
Button/styles/hover = ExtResource( 3 )
Button/styles/normal = ExtResource( 4 )
Button/styles/pressed = null
Label/colors/font_color = Color( 1, 1, 1, 1 )
Label/colors/font_color_shadow = Color( 0, 0, 0, 0 )
Label/colors/font_outline_modulate = Color( 1, 1, 1, 1 )
Label/constants/line_spacing = 3
Label/constants/shadow_as_outline = 0
Label/constants/shadow_offset_x = 1
Label/constants/shadow_offset_y = 1
Label/fonts/font = ExtResource( 2 )
Label/styles/normal = null
ProgressBar/colors/font_color = Color( 0.94, 0.94, 0.94, 1 )
ProgressBar/colors/font_color_shadow = Color( 0, 0, 0, 1 )
ProgressBar/fonts/font = null
ProgressBar/styles/bg = null
ProgressBar/styles/fg = null
