[gd_resource type="SpatialMaterial" load_steps=2 format=2]

[ext_resource path="res://Assets/Maya Workfiles/The Statistician/SourceImages/2x/TempMouth_Stats_Diff.png" type="Texture" id=1]

[resource]
flags_transparent = true
flags_unshaded = true
flags_no_depth_test = true
albedo_texture = ExtResource( 1 )
