[gd_resource type="DynamicFont" load_steps=2 format=2]

[ext_resource path="res://UI/Assets/Fonts/BattleHUD/ChalkboardSE.otf" type="DynamicFontData" id=1]

[resource]
size = 18
outline_color = Color( 0, 0, 0, 1 )
use_mipmaps = true
use_filter = true
extra_spacing_top = -2
extra_spacing_bottom = -2
extra_spacing_char = 2
font_data = ExtResource( 1 )
