[gd_resource type="DynamicFont" load_steps=2 format=2]

[ext_resource path="res://UI/Assets/Fonts/LemonMilkBold-gx2B3.otf" type="DynamicFontData" id=1]

[resource]
size = 17
outline_color = Color( 0.376471, 0.376471, 0.376471, 1 )
use_mipmaps = true
use_filter = true
font_data = ExtResource( 1 )
