[gd_scene load_steps=3 format=2]

[ext_resource path="res://Battle/Moves/Variants/AttackAndApplyStatusEffectMove/AttackAndApplyStatusEffectMove.tscn" type="PackedScene" id=1]
[ext_resource path="res://Battle/Moves/Variants/AttackAndApplyStatusEffectMove/Variants/Flashbang/Flashbang.gd" type="Script" id=2]

[node name="Flashbang" instance=ExtResource( 1 )]
script = ExtResource( 2 )
display_name = "Flashbang"
description = "Flash the entire enemy team, dealing 5 damage and possibly stunning each member of the team."
ap_cost = 6
on_hit_effect = "StatusStunned"
damage = 5
accuracy = 100
status_effect_damage = 2
duration = 1
