[gd_scene load_steps=3 format=2]

[ext_resource path="res://Battle/Moves/Variants/AttackAndApplyStatusEffectMove/AttackAndApplyStatusEffectMove.tscn" type="PackedScene" id=1]
[ext_resource path="res://Battle/Moves/Variants/AttackAndApplyStatusEffectMove/Variants/MegaFlame/MegaFlame.gd" type="Script" id=2]

[node name="MegaFlame" instance=ExtResource( 1 )]
script = ExtResource( 2 )
display_name = "Mega Flame"
description = "Attack for 2 damage and apply burn for 2 turns."
ap_cost = 3
move_effect = "CastFire"
on_hit_effect = "StatusBurn"
damage = 2
accuracy = 100
status_effect_damage = 2
duration = 2
