[gd_scene load_steps=6 format=2]

[ext_resource path="res://Battle/Combatants/Combatant.gd" type="Script" id=1]
[ext_resource path="res://Battle/Interface/TargetIndicator/TargetIndicator.tscn" type="PackedScene" id=6]
[ext_resource path="res://Battle/Interface/MoveIndicator/MoveIndicator.tscn" type="PackedScene" id=7]
[ext_resource path="res://Battle/Interface/StatIndicators/StatIndicator.tscn" type="PackedScene" id=8]

[sub_resource type="BoxShape" id=1]

[node name="Combatant" type="Spatial"]
script = ExtResource( 1 )

[node name="Model" type="Spatial" parent="."]

[node name="MoveIndicator" parent="." instance=ExtResource( 7 )]
transform = Transform( -0.25, -8.14603e-08, 0.433013, 1.62921e-07, -0.5, 0, 0.433013, 1.41093e-07, 0.25, 0, 2.211, 0 )

[node name="TargetIndicator" parent="." instance=ExtResource( 6 )]

[node name="StatIndicator" parent="." instance=ExtResource( 8 )]
margin_bottom = 196.0

[node name="Moves" type="Node" parent="."]

[node name="Area" type="Area" parent="."]
transform = Transform( 0.35, 0, 0, 0, 1, 0, 0, 0, 0.35, 0, 1, 0 )

[node name="CollisionShape" type="CollisionShape" parent="Area"]
shape = SubResource( 1 )
[connection signal="mouse_entered" from="Area" to="." method="_on_mouse_entered"]
[connection signal="mouse_exited" from="Area" to="." method="_on_mouse_exited"]
