[gd_scene load_steps=4 format=2]

[ext_resource path="res://Battle/Actions/Variants/StunAction/StunAction.gd" type="Script" id=1]
[ext_resource path="res://Battle/Actions/Assets/StatusEffectAction.png" type="Texture" id=2]
[ext_resource path="res://Battle/Actions/Action.tscn" type="PackedScene" id=3]

[node name="StunAction" instance=ExtResource( 3 )]
script = ExtResource( 1 )

[node name="ActionBGTexture" parent="Node2D/ActionContainer" index="0"]
texture = ExtResource( 2 )
