[gd_scene load_steps=4 format=2]

[ext_resource path="res://Battle/Moves/Variants/ModifierMove/ModifierMove.tscn" type="PackedScene" id=1]
[ext_resource path="res://Battle/Moves/Variants/BuffDebuffMove/BuffDebuffMove.gd" type="Script" id=2]
[ext_resource path="res://Battle/Moves/Variants/HealMove/Assets/IconHeal.png" type="Texture" id=3]

[node name="BuffDebuffMove" instance=ExtResource( 1 )]
script = ExtResource( 2 )
icon = ExtResource( 3 )
