[gd_scene load_steps=4 format=2]

[ext_resource path="res://Battle/Actions/Variants/MoveAction/MoveAction.tscn" type="PackedScene" id=1]
[ext_resource path="res://Battle/Actions/Variants/MoveAction/Variants/AttackAction/AttackAction.gd" type="Script" id=2]
[ext_resource path="res://Battle/Actions/Assets/AttackAction.png" type="Texture" id=3]

[node name="AttackAction" instance=ExtResource( 1 )]
script = ExtResource( 2 )

[node name="ActionBGTexture" parent="Node2D/ActionContainer" index="0"]
texture = ExtResource( 3 )
