[gd_resource type="SpatialMaterial" load_steps=8 format=2]

[ext_resource path="res://Assets/Shaders/outline.shader" type="Shader" id=1]
[ext_resource path="res://Assets/Shaders/cel.shader" type="Shader" id=2]
[ext_resource path="res://Assets/CharacterModels/Variants/TheCheatModel/Shaders/CheatBomb_Normal.png" type="Texture" id=3]
[ext_resource path="res://Assets/CharacterModels/Variants/TheCheatModel/Shaders/CheatBomb_MetalicRough.png" type="Texture" id=4]
[ext_resource path="res://Assets/CharacterModels/Variants/TheCheatModel/Shaders/CheatBomb_BaseColor.png" type="Texture" id=5]

[sub_resource type="ShaderMaterial" id=1]
shader = ExtResource( 1 )
shader_param/outline_thickness = 0.015
shader_param/outline_color = Color( 0, 0, 0, 1 )

[sub_resource type="ShaderMaterial" id=2]
next_pass = SubResource( 1 )
shader = ExtResource( 2 )
shader_param/use_shade = true
shader_param/use_specular = true
shader_param/use_rim = true
shader_param/use_light = true
shader_param/use_shadow = true
shader_param/base_color = Color( 0, 0, 0, 0 )
shader_param/shade_color = Color( 0, 0, 0, 0.564706 )
shader_param/specular_tint = Color( 0.85, 0.811042, 0.7565, 0.74902 )
shader_param/rim_tint = Color( 1, 1, 1, 0.168627 )
shader_param/shade_threshold = 0.001
shader_param/shade_softness = 0.01
shader_param/specular_glossiness = 16.8
shader_param/specular_threshold = 0.712
shader_param/specular_softness = 0.1
shader_param/rim_threshold = 0.29
shader_param/rim_softness = 0.05
shader_param/rim_spread = 0.178
shader_param/shadow_threshold = 0.7
shader_param/shadow_softness = 0.1

[resource]
resource_local_to_scene = true
next_pass = SubResource( 2 )
albedo_texture = ExtResource( 5 )
metallic = 1.0
metallic_texture = ExtResource( 4 )
metallic_texture_channel = 4
roughness_texture = ExtResource( 4 )
roughness_texture_channel = 3
normal_enabled = true
normal_scale = 1.0
normal_texture = ExtResource( 3 )
