[gd_scene load_steps=3 format=2]

[ext_resource path="res://Battle/StatusEffects/StatusEffect.tscn" type="PackedScene" id=1]
[ext_resource path="res://Battle/StatusEffects/Variants/Dead/Dead.gd" type="Script" id=2]

[node name="Dead" instance=ExtResource( 1 )]
script = ExtResource( 2 )
display_name = "Dead"
status_effect_effect = "dead"
