[gd_scene load_steps=3 format=2]

[ext_resource path="res://Assets/CharacterModels/Variants/KnightModel/KnightAxe.dae" type="PackedScene" id=1]
[ext_resource path="res://Assets/CharacterModels/Variants/KnightModel/Shaders/KnightAxeMat.tres" type="Material" id=2]

[node name="KnightAxe" instance=ExtResource( 1 )]

[node name="Axe" parent="." index="0"]
material/0 = ExtResource( 2 )
