[gd_scene load_steps=3 format=2]

[ext_resource path="res://Battle/Moves/Variants/AttackAndApplyStatusEffectMove/AttackAndApplyStatusEffectMove.tscn" type="PackedScene" id=1]
[ext_resource path="res://Battle/Moves/Variants/AttackAndApplyStatusEffectMove/Variants/AggravatedAssault/AggravatedAssault.gd" type="Script" id=2]

[node name="AggravatedAssault" instance=ExtResource( 1 )]
script = ExtResource( 2 )
display_name = "Aggravated Assault"
description = "Attack an enemy and cause bleed for 3 turns."
ap_cost = 2
on_hit_effect = "StatusBleed"
damage = 10
accuracy = 100
status_effect_damage = 2
duration = 3
