[gd_scene load_steps=4 format=2]

[ext_resource path="res://Battle/Moves/Variants/ModifierMove/Variants/QuantumStep/QuantumStep.gd" type="Script" id=1]
[ext_resource path="res://Battle/Moves/Variants/ModifierMove/ModifierMove.tscn" type="PackedScene" id=2]
[ext_resource path="res://Battle/Moves/Variants/HealMove/Assets/IconHeal.png" type="Texture" id=3]

[node name="Quantum Step" instance=ExtResource( 2 )]
script = ExtResource( 1 )
display_name = "Quantum Step"
description = "Boost the speed of a friendly combatant for 3 rounds."
ap_cost = 3
icon = ExtResource( 3 )
on_hit_animation = ""
on_hit_effect = ""
buff_type = 2
buff_amount = 2
buff_duration = 3
