[gd_scene load_steps=9 format=2]

[sub_resource type="SpatialMaterial" id=8]
flags_unshaded = true
flags_albedo_tex_force_srgb = true
vertex_color_use_as_albedo = true
vertex_color_is_srgb = true
params_blend_mode = 1
params_billboard_mode = 3
particles_anim_h_frames = 1
particles_anim_v_frames = 1
particles_anim_loop = false

[sub_resource type="Gradient" id=1]
offsets = PoolRealArray( 0, 0.314286, 0.52, 0.72, 0.862857, 0.942857, 1 )
colors = PoolColorArray( 0, 0, 0, 1, 0, 0, 0, 1, 0.200684, 0.17795, 0.17795, 1, 1, 0.972549, 0.101961, 1, 0.776471, 0.396078, 0.184314, 1, 0.878922, 0.672876, 0.55817, 0.541667, 1, 1, 1, 0 )

[sub_resource type="GradientTexture" id=2]
gradient = SubResource( 1 )

[sub_resource type="Curve" id=3]
_data = [ Vector2( 0, 0.994318 ), 0.0, 0.0, 0, 0, Vector2( 0.507082, 1 ), 0.0, 0.0, 0, 0, Vector2( 1, 0 ), -1.31372, 0.0, 0, 0 ]

[sub_resource type="CurveTexture" id=4]
curve = SubResource( 3 )

[sub_resource type="ParticlesMaterial" id=5]
emission_shape = 1
emission_sphere_radius = 0.6
direction = Vector3( 0, 0, 0 )
initial_velocity = 30.0
scale_curve = SubResource( 4 )
color_ramp = SubResource( 2 )

[sub_resource type="SpatialMaterial" id=6]
vertex_color_use_as_albedo = true

[sub_resource type="SphereMesh" id=7]
material = SubResource( 6 )
radius = 0.2
height = 0.4

[node name="RobotDamage" type="Particles"]
material_override = SubResource( 8 )
emitting = false
amount = 40
lifetime = 0.15
one_shot = true
speed_scale = 0.5
explosiveness = 0.8
process_material = SubResource( 5 )
draw_pass_1 = SubResource( 7 )
__meta__ = {
"_editor_description_": ""
}
