[gd_scene load_steps=3 format=2]

[ext_resource path="res://Battle/Moves/Variants/AttackAndApplyStatusEffectMove/AttackAndApplyStatusEffectMove.tscn" type="PackedScene" id=1]
[ext_resource path="res://Battle/Moves/Variants/AttackAndApplyStatusEffectMove/Variants/TimeStun/TimeStun.gd" type="Script" id=2]

[node name="TimeStun" instance=ExtResource( 1 )]
script = ExtResource( 2 )
display_name = "Time Stun"
description = "Attack a single character and apply stun to them."
ap_cost = 3
on_hit_effect = "StatusStun"
damage = 6
accuracy = 100
duration = 1
