[gd_scene load_steps=3 format=2]

[ext_resource path="res://UI/Assets/Themes/MenuTheme.tres" type="Theme" id=1]
[ext_resource path="res://Menus/LevelSelectMenu/Components/Buttons/LevelSelectMenuButton.gd" type="Script" id=2]

[node name="LevelSelectMenuButton" type="Button"]
margin_top = -1.0
margin_right = 450.0
margin_bottom = 127.0
rect_min_size = Vector2( 450, 128 )
size_flags_horizontal = 2
size_flags_vertical = 2
theme = ExtResource( 1 )
text = "Label"
script = ExtResource( 2 )
__meta__ = {
"_edit_use_anchors_": false
}
