[gd_scene load_steps=3 format=2]

[ext_resource path="res://Battle/Moves/Variants/ApplyStatusEffectMove/ApplyStatusEffectMove.tscn" type="PackedScene" id=1]
[ext_resource path="res://Battle/Moves/Variants/ApplyStatusEffectMove/Variants/Confuse/Confuse.gd" type="Script" id=2]

[node name="Confuse" instance=ExtResource( 1 )]
script = ExtResource( 2 )
display_name = "Confuse"
description = "Confuse and Enemy and causing their targetting to potentially be inaccurate."
ap_cost = 5
move_type = 6
on_hit_effect = "StatusConfuse"
duration = 1
