[gd_scene load_steps=9 format=2]

[ext_resource path="res://Menus/PauseMenu/Components/Buttons/PauseMenuButton.tscn" type="PackedScene" id=1]
[ext_resource path="res://Menus/PauseMenu/Components/Buttons/Variants/BackToMainMenuButton/BackToMainMenuButton.gd" type="Script" id=2]
[ext_resource path="res://Menus/PauseMenu/Components/Buttons/Assets/Quit Button/PauseQuitClick.png" type="Texture" id=3]
[ext_resource path="res://Menus/PauseMenu/Components/Buttons/Assets/Quit Button/PauseQuitNorm.png" type="Texture" id=4]
[ext_resource path="res://Menus/PauseMenu/Components/Buttons/Assets/Quit Button/PauseQuitHover.png" type="Texture" id=5]

[sub_resource type="StyleBoxTexture" id=1]
texture = ExtResource( 5 )
region_rect = Rect2( 0, 0, 312, 171 )

[sub_resource type="StyleBoxTexture" id=2]
texture = ExtResource( 3 )
region_rect = Rect2( 0, 0, 310, 153 )

[sub_resource type="StyleBoxTexture" id=3]
texture = ExtResource( 4 )
region_rect = Rect2( 0, 0, 310, 154 )

[node name="BackToMainMenuButton" instance=ExtResource( 1 )]
margin_right = 310.0
margin_bottom = 153.0
rect_min_size = Vector2( 310, 153 )
theme = null
custom_styles/hover = SubResource( 1 )
custom_styles/pressed = SubResource( 2 )
custom_styles/normal = SubResource( 3 )
text = ""
script = ExtResource( 2 )
[connection signal="button_up" from="." to="." method="_on_button_up"]
