[gd_scene load_steps=3 format=2]

[ext_resource path="res://Battle/Actions/Variants/MoveAction/MoveAction.tscn" type="PackedScene" id=1]
[ext_resource path="res://Battle/Actions/Variants/MoveAction/Variants/WhatIfAction/WhatIfAction.gd" type="Script" id=2]

[node name="WhatIfAction" instance=ExtResource( 1 )]
script = ExtResource( 2 )
_reset_health = 10
