[gd_scene load_steps=4 format=2]

[ext_resource path="res://Battle/Moves/Variants/HealMove/Assets/IconHeal.png" type="Texture" id=1]
[ext_resource path="res://Battle/Moves/Variants/ModifierMove/ModifierMove.tscn" type="PackedScene" id=2]
[ext_resource path="res://Battle/Moves/Variants/ModifierMove/Variants/ShieldBreak/ShieldBreak.gd" type="Script" id=3]

[node name="ShieldBreak" instance=ExtResource( 2 )]
script = ExtResource( 3 )
display_name = "Shield Break"
description = "Reduces targets defense by 2."
ap_cost = 2
icon = ExtResource( 1 )
on_hit_effect = ""
buff_type = 1
buff_amount = -2
buff_duration = 1
