[gd_resource type="SpatialMaterial" load_steps=6 format=2]

[ext_resource path="res://Assets/Shaders/cel.shader" type="Shader" id=1]
[ext_resource path="res://Assets/Shaders/outline.shader" type="Shader" id=2]
[ext_resource path="res://Assets/Maya Workfiles/Time Thief Model/sourceimages/TT_TempDiffuse_OSV3.png" type="Texture" id=5]

[sub_resource type="ShaderMaterial" id=1]
shader = ExtResource( 2 )
shader_param/outline_thickness = 0.018
shader_param/outline_color = Color( 0, 0, 0, 1 )

[sub_resource type="ShaderMaterial" id=2]
next_pass = SubResource( 1 )
shader = ExtResource( 1 )
shader_param/use_shade = true
shader_param/use_specular = false
shader_param/use_rim = false
shader_param/use_light = false
shader_param/use_shadow = false
shader_param/base_color = Color( 0, 0, 0, 0 )
shader_param/shade_color = Color( 0, 0, 0, 0.0823529 )
shader_param/specular_tint = Color( 0.74902, 0.74902, 0.74902, 0.74902 )
shader_param/rim_tint = Color( 0.75, 0.75, 0.75, 0.75 )
shader_param/shade_threshold = 0.0
shader_param/shade_softness = 0.01
shader_param/specular_glossiness = 15.0
shader_param/specular_threshold = 0.5
shader_param/specular_softness = 0.1
shader_param/rim_threshold = 0.25
shader_param/rim_softness = 0.05
shader_param/rim_spread = 0.5
shader_param/shadow_threshold = 0.7
shader_param/shadow_softness = 0.1

[resource]
next_pass = SubResource( 2 )
albedo_color = Color( 1, 1, 1, 0 )
albedo_texture = ExtResource( 5 )
